{"url":"https:\/\/5tel.bitrix24.uk\/rest\/13\/bq7arhlt29j4yu6c\/crm.item.list.json","info":{"url":"https:\/\/5tel.bitrix24.uk\/rest\/13\/bq7arhlt29j4yu6c\/crm.item.list.json","content_type":"application\/json; charset=utf-8","http_code":200,"header_size":1031,"request_size":525,"filetime":-1,"ssl_verify_result":0,"redirect_count":0,"total_time":1.328548,"namelookup_time":0.015063,"connect_time":0.185167,"pretransfer_time":0.379509,"size_upload":321,"size_download":12034,"speed_download":9058,"speed_upload":241,"download_content_length":-1,"upload_content_length":321,"starttransfer_time":1.32849,"redirect_time":0,"redirect_url":"","primary_ip":"52.29.77.149","certinfo":[],"primary_port":443,"local_ip":"192.168.29.236","local_port":51477,"http_version":3,"protocol":2,"ssl_verifyresult":0,"scheme":"HTTPS","appconnect_time_us":379341,"connect_time_us":185167,"namelookup_time_us":15063,"pretransfer_time_us":379509,"redirect_time_us":0,"starttransfer_time_us":1328490,"total_time_us":1328548,"effective_method":"POST"},"params":{"method":"crm.item.list","params":{"entityTypeId":1052,"filter":{"ufCrm9Dba":"SP%"},"order":[],"select":["ID","ufCrm9StatementMonth","ufCrm9Mid","ufCrm9Dba","ufCrm9SalesVolume","ufCrm9SalesTrxn","ufCrm9CommissionAmount","assignedById","ufCrm9EarningsLocalCurrency"],"start":0}},"result":{"result":{"items":[{"id":3009,"ufCrm9StatementMonth":"202408 Aug","ufCrm9Mid":2101692738,"ufCrm9Dba":"SP CONVENIENCE STORE","ufCrm9SalesVolume":200.47,"ufCrm9SalesTrxn":27,"ufCrm9EarningsLocalCurrency":1,"ufCrm9CommissionAmount":1,"assignedById":17},{"id":3011,"ufCrm9StatementMonth":"202408 Aug","ufCrm9Mid":2101692738,"ufCrm9Dba":"SP CONVENIENCE STORE","ufCrm9SalesVolume":160.57,"ufCrm9SalesTrxn":7,"ufCrm9EarningsLocalCurrency":1,"ufCrm9CommissionAmount":1,"assignedById":17},{"id":3013,"ufCrm9StatementMonth":"202408 Aug","ufCrm9Mid":2101692738,"ufCrm9Dba":"SP CONVENIENCE STORE","ufCrm9SalesVolume":24.97,"ufCrm9SalesTrxn":1,"ufCrm9EarningsLocalCurrency":0,"ufCrm9CommissionAmount":0,"assignedById":17},{"id":3015,"ufCrm9StatementMonth":"202408 Aug","ufCrm9Mid":2101692738,"ufCrm9Dba":"SP CONVENIENCE STORE","ufCrm9SalesVolume":13,"ufCrm9SalesTrxn":1,"ufCrm9EarningsLocalCurrency":10,"ufCrm9CommissionAmount":10,"assignedById":17},{"id":3017,"ufCrm9StatementMonth":"202408 Aug","ufCrm9Mid":2101692738,"ufCrm9Dba":"SP CONVENIENCE STORE","ufCrm9SalesVolume":0,"ufCrm9SalesTrxn":0,"ufCrm9EarningsLocalCurrency":6,"ufCrm9CommissionAmount":6,"assignedById":17},{"id":3019,"ufCrm9StatementMonth":"202408 Aug","ufCrm9Mid":2101692738,"ufCrm9Dba":"SP CONVENIENCE STORE","ufCrm9SalesVolume":2,"ufCrm9SalesTrxn":185,"ufCrm9EarningsLocalCurrency":4,"ufCrm9CommissionAmount":4,"assignedById":17},{"id":3021,"ufCrm9StatementMonth":"202408 Aug","ufCrm9Mid":2101692738,"ufCrm9Dba":"SP CONVENIENCE STORE","ufCrm9SalesVolume":267.62,"ufCrm9SalesTrxn":7,"ufCrm9EarningsLocalCurrency":1,"ufCrm9CommissionAmount":1,"assignedById":17},{"id":3023,"ufCrm9StatementMonth":"202408 Aug","ufCrm9Mid":2101692738,"ufCrm9Dba":"SP CONVENIENCE STORE","ufCrm9SalesVolume":14.4,"ufCrm9SalesTrxn":3,"ufCrm9EarningsLocalCurrency":0,"ufCrm9CommissionAmount":0,"assignedById":17},{"id":3025,"ufCrm9StatementMonth":"202408 Aug","ufCrm9Mid":2101692738,"ufCrm9Dba":"SP CONVENIENCE STORE","ufCrm9SalesVolume":551.26,"ufCrm9SalesTrxn":57,"ufCrm9EarningsLocalCurrency":1,"ufCrm9CommissionAmount":1,"assignedById":17},{"id":3027,"ufCrm9StatementMonth":"202408 Aug","ufCrm9Mid":2101692738,"ufCrm9Dba":"SP CONVENIENCE STORE","ufCrm9SalesVolume":2.64,"ufCrm9SalesTrxn":1,"ufCrm9EarningsLocalCurrency":0,"ufCrm9CommissionAmount":0,"assignedById":17},{"id":3029,"ufCrm9StatementMonth":"202408 Aug","ufCrm9Mid":2101692738,"ufCrm9Dba":"SP CONVENIENCE STORE","ufCrm9SalesVolume":26.2,"ufCrm9SalesTrxn":3,"ufCrm9EarningsLocalCurrency":0,"ufCrm9CommissionAmount":0,"assignedById":17},{"id":3031,"ufCrm9StatementMonth":"202408 Aug","ufCrm9Mid":2101692738,"ufCrm9Dba":"SP CONVENIENCE STORE","ufCrm9SalesVolume":44,"ufCrm9SalesTrxn":4,"ufCrm9EarningsLocalCurrency":56,"ufCrm9CommissionAmount":56,"assignedById":17},{"id":3033,"ufCrm9StatementMonth":"202408 Aug","ufCrm9Mid":2101692738,"ufCrm9Dba":"SP CONVENIENCE STORE","ufCrm9SalesVolume":0,"ufCrm9SalesTrxn":1,"ufCrm9EarningsLocalCurrency":0,"ufCrm9CommissionAmount":0,"assignedById":17},{"id":3035,"ufCrm9StatementMonth":"202408 Aug","ufCrm9Mid":2101692738,"ufCrm9Dba":"SP CONVENIENCE STORE","ufCrm9SalesVolume":0,"ufCrm9SalesTrxn":193,"ufCrm9EarningsLocalCurrency":3,"ufCrm9CommissionAmount":3,"assignedById":17},{"id":3037,"ufCrm9StatementMonth":"202408 Aug","ufCrm9Mid":2101692738,"ufCrm9Dba":"SP CONVENIENCE STORE","ufCrm9SalesVolume":0,"ufCrm9SalesTrxn":1,"ufCrm9EarningsLocalCurrency":24,"ufCrm9CommissionAmount":24,"assignedById":17},{"id":3039,"ufCrm9StatementMonth":"202408 Aug","ufCrm9Mid":2101692738,"ufCrm9Dba":"SP CONVENIENCE STORE","ufCrm9SalesVolume":0,"ufCrm9SalesTrxn":4,"ufCrm9EarningsLocalCurrency":69,"ufCrm9CommissionAmount":69,"assignedById":17},{"id":3041,"ufCrm9StatementMonth":"202408 Aug","ufCrm9Mid":2101692738,"ufCrm9Dba":"SP CONVENIENCE STORE","ufCrm9SalesVolume":0,"ufCrm9SalesTrxn":60,"ufCrm9EarningsLocalCurrency":1,"ufCrm9CommissionAmount":1,"assignedById":17},{"id":8953,"ufCrm9StatementMonth":"202408 Aug","ufCrm9Mid":2101888078,"ufCrm9Dba":"SPIXWORTH MOT BAY","ufCrm9SalesVolume":5,"ufCrm9SalesTrxn":20,"ufCrm9EarningsLocalCurrency":10,"ufCrm9CommissionAmount":3,"assignedById":21},{"id":8955,"ufCrm9StatementMonth":"202408 Aug","ufCrm9Mid":2101888078,"ufCrm9Dba":"SPIXWORTH MOT BAY","ufCrm9SalesVolume":325.2,"ufCrm9SalesTrxn":1,"ufCrm9EarningsLocalCurrency":1,"ufCrm9CommissionAmount":0.3,"assignedById":21},{"id":8957,"ufCrm9StatementMonth":"202408 Aug","ufCrm9Mid":2101888078,"ufCrm9Dba":"SPIXWORTH MOT BAY","ufCrm9SalesVolume":119.7,"ufCrm9SalesTrxn":1,"ufCrm9EarningsLocalCurrency":0,"ufCrm9CommissionAmount":0,"assignedById":21},{"id":8959,"ufCrm9StatementMonth":"202408 Aug","ufCrm9Mid":2101888078,"ufCrm9Dba":"SPIXWORTH MOT BAY","ufCrm9SalesVolume":45,"ufCrm9SalesTrxn":1,"ufCrm9EarningsLocalCurrency":0,"ufCrm9CommissionAmount":0,"assignedById":21},{"id":8961,"ufCrm9StatementMonth":"202408 Aug","ufCrm9Mid":2101888078,"ufCrm9Dba":"SPIXWORTH MOT BAY","ufCrm9SalesVolume":2,"ufCrm9SalesTrxn":16,"ufCrm9EarningsLocalCurrency":2,"ufCrm9CommissionAmount":0.6,"assignedById":21},{"id":8963,"ufCrm9StatementMonth":"202408 Aug","ufCrm9Mid":2101888078,"ufCrm9Dba":"SPIXWORTH MOT BAY","ufCrm9SalesVolume":532.68,"ufCrm9SalesTrxn":1,"ufCrm9EarningsLocalCurrency":3,"ufCrm9CommissionAmount":0.9,"assignedById":21},{"id":8965,"ufCrm9StatementMonth":"202408 Aug","ufCrm9Mid":2101888078,"ufCrm9Dba":"SPIXWORTH MOT BAY","ufCrm9SalesVolume":3,"ufCrm9SalesTrxn":31,"ufCrm9EarningsLocalCurrency":2,"ufCrm9CommissionAmount":0.6,"assignedById":21},{"id":8967,"ufCrm9StatementMonth":"202408 Aug","ufCrm9Mid":2101888078,"ufCrm9Dba":"SPIXWORTH MOT BAY","ufCrm9SalesVolume":2,"ufCrm9SalesTrxn":10,"ufCrm9EarningsLocalCurrency":3,"ufCrm9CommissionAmount":0.9,"assignedById":21},{"id":8969,"ufCrm9StatementMonth":"202408 Aug","ufCrm9Mid":2101888078,"ufCrm9Dba":"SPIXWORTH MOT BAY","ufCrm9SalesVolume":80,"ufCrm9SalesTrxn":1,"ufCrm9EarningsLocalCurrency":1,"ufCrm9CommissionAmount":0.3,"assignedById":21},{"id":8971,"ufCrm9StatementMonth":"202408 Aug","ufCrm9Mid":2101888078,"ufCrm9Dba":"SPIXWORTH MOT BAY","ufCrm9SalesVolume":0,"ufCrm9SalesTrxn":0,"ufCrm9EarningsLocalCurrency":0,"ufCrm9CommissionAmount":0,"assignedById":21},{"id":8973,"ufCrm9StatementMonth":"202408 Aug","ufCrm9Mid":2101888078,"ufCrm9Dba":"SPIXWORTH MOT BAY","ufCrm9SalesVolume":45,"ufCrm9SalesTrxn":1,"ufCrm9EarningsLocalCurrency":0,"ufCrm9CommissionAmount":0,"assignedById":21},{"id":8975,"ufCrm9StatementMonth":"202408 Aug","ufCrm9Mid":2101888078,"ufCrm9Dba":"SPIXWORTH MOT BAY","ufCrm9SalesVolume":1,"ufCrm9SalesTrxn":9,"ufCrm9EarningsLocalCurrency":3,"ufCrm9CommissionAmount":0.9,"assignedById":21},{"id":8977,"ufCrm9StatementMonth":"202408 Aug","ufCrm9Mid":2101888078,"ufCrm9Dba":"SPIXWORTH MOT BAY","ufCrm9SalesVolume":11,"ufCrm9SalesTrxn":84,"ufCrm9EarningsLocalCurrency":6,"ufCrm9CommissionAmount":1.8,"assignedById":21},{"id":8979,"ufCrm9StatementMonth":"202408 Aug","ufCrm9Mid":2101888078,"ufCrm9Dba":"SPIXWORTH MOT BAY","ufCrm9SalesVolume":450.78,"ufCrm9SalesTrxn":2,"ufCrm9EarningsLocalCurrency":0,"ufCrm9CommissionAmount":0,"assignedById":21},{"id":8981,"ufCrm9StatementMonth":"202408 Aug","ufCrm9Mid":2101888078,"ufCrm9Dba":"SPIXWORTH MOT BAY","ufCrm9SalesVolume":0,"ufCrm9SalesTrxn":0,"ufCrm9EarningsLocalCurrency":-1,"ufCrm9CommissionAmount":-0.3,"assignedById":21},{"id":8983,"ufCrm9StatementMonth":"202408 Aug","ufCrm9Mid":2101888078,"ufCrm9Dba":"SPIXWORTH MOT BAY","ufCrm9SalesVolume":525.9,"ufCrm9SalesTrxn":5,"ufCrm9EarningsLocalCurrency":0,"ufCrm9CommissionAmount":0,"assignedById":21},{"id":8985,"ufCrm9StatementMonth":"202408 Aug","ufCrm9Mid":2101888078,"ufCrm9Dba":"SPIXWORTH MOT BAY","ufCrm9SalesVolume":0,"ufCrm9SalesTrxn":0,"ufCrm9EarningsLocalCurrency":-2,"ufCrm9CommissionAmount":-0.6,"assignedById":21},{"id":8987,"ufCrm9StatementMonth":"202408 Aug","ufCrm9Mid":2101888078,"ufCrm9Dba":"SPIXWORTH MOT BAY","ufCrm9SalesVolume":0,"ufCrm9SalesTrxn":0,"ufCrm9EarningsLocalCurrency":0,"ufCrm9CommissionAmount":0,"assignedById":21},{"id":8989,"ufCrm9StatementMonth":"202408 Aug","ufCrm9Mid":2101888078,"ufCrm9Dba":"SPIXWORTH MOT BAY","ufCrm9SalesVolume":0,"ufCrm9SalesTrxn":0,"ufCrm9EarningsLocalCurrency":-1,"ufCrm9CommissionAmount":-0.3,"assignedById":21},{"id":8991,"ufCrm9StatementMonth":"202408 Aug","ufCrm9Mid":2101888078,"ufCrm9Dba":"SPIXWORTH MOT BAY","ufCrm9SalesVolume":656.91,"ufCrm9SalesTrxn":4,"ufCrm9EarningsLocalCurrency":4,"ufCrm9CommissionAmount":1.2,"assignedById":21},{"id":15061,"ufCrm9StatementMonth":"202408 Aug","ufCrm9Mid":2101982429,"ufCrm9Dba":"SPECTRUM MERCHANDISING LTD","ufCrm9SalesVolume":155.28,"ufCrm9SalesTrxn":2,"ufCrm9EarningsLocalCurrency":0,"ufCrm9CommissionAmount":0,"assignedById":17},{"id":15063,"ufCrm9StatementMonth":"202408 Aug","ufCrm9Mid":2101982429,"ufCrm9Dba":"SPECTRUM MERCHANDISING LTD","ufCrm9SalesVolume":12.6,"ufCrm9SalesTrxn":1,"ufCrm9EarningsLocalCurrency":0,"ufCrm9CommissionAmount":0,"assignedById":17},{"id":15065,"ufCrm9StatementMonth":"202408 Aug","ufCrm9Mid":2101982429,"ufCrm9Dba":"SPECTRUM MERCHANDISING LTD","ufCrm9SalesVolume":0,"ufCrm9SalesTrxn":0,"ufCrm9EarningsLocalCurrency":2,"ufCrm9CommissionAmount":2,"assignedById":17},{"id":15067,"ufCrm9StatementMonth":"202408 Aug","ufCrm9Mid":2101982429,"ufCrm9Dba":"SPECTRUM MERCHANDISING LTD","ufCrm9SalesVolume":0,"ufCrm9SalesTrxn":1,"ufCrm9EarningsLocalCurrency":0,"ufCrm9CommissionAmount":0,"assignedById":17},{"id":15069,"ufCrm9StatementMonth":"202408 Aug","ufCrm9Mid":2101982429,"ufCrm9Dba":"SPECTRUM MERCHANDISING LTD","ufCrm9SalesVolume":0,"ufCrm9SalesTrxn":6,"ufCrm9EarningsLocalCurrency":0,"ufCrm9CommissionAmount":0,"assignedById":17},{"id":15071,"ufCrm9StatementMonth":"202408 Aug","ufCrm9Mid":2101982429,"ufCrm9Dba":"SPECTRUM MERCHANDISING LTD","ufCrm9SalesVolume":0,"ufCrm9SalesTrxn":2,"ufCrm9EarningsLocalCurrency":0,"ufCrm9CommissionAmount":0,"assignedById":17},{"id":15073,"ufCrm9StatementMonth":"202408 Aug","ufCrm9Mid":2101982429,"ufCrm9Dba":"SPECTRUM MERCHANDISING LTD","ufCrm9SalesVolume":0,"ufCrm9SalesTrxn":0,"ufCrm9EarningsLocalCurrency":0,"ufCrm9CommissionAmount":0,"assignedById":17},{"id":15075,"ufCrm9StatementMonth":"202408 Aug","ufCrm9Mid":2101982429,"ufCrm9Dba":"SPECTRUM MERCHANDISING LTD","ufCrm9SalesVolume":0,"ufCrm9SalesTrxn":0,"ufCrm9EarningsLocalCurrency":0,"ufCrm9CommissionAmount":0,"assignedById":17},{"id":15077,"ufCrm9StatementMonth":"202408 Aug","ufCrm9Mid":2101982429,"ufCrm9Dba":"SPECTRUM MERCHANDISING LTD","ufCrm9SalesVolume":0,"ufCrm9SalesTrxn":0,"ufCrm9EarningsLocalCurrency":0,"ufCrm9CommissionAmount":0,"assignedById":17},{"id":15079,"ufCrm9StatementMonth":"202408 Aug","ufCrm9Mid":2101982429,"ufCrm9Dba":"SPECTRUM MERCHANDISING LTD","ufCrm9SalesVolume":356.48,"ufCrm9SalesTrxn":5,"ufCrm9EarningsLocalCurrency":0,"ufCrm9CommissionAmount":0,"assignedById":17},{"id":15123,"ufCrm9StatementMonth":"202408 Aug","ufCrm9Mid":2101982903,"ufCrm9Dba":"SPECTRUM MERCHANDISING LTD","ufCrm9SalesVolume":0,"ufCrm9SalesTrxn":0,"ufCrm9EarningsLocalCurrency":0,"ufCrm9CommissionAmount":0,"assignedById":17},{"id":16593,"ufCrm9StatementMonth":"202408 Aug","ufCrm9Mid":2102004034,"ufCrm9Dba":"SPECTRUM MERCHANDISING","ufCrm9SalesVolume":0,"ufCrm9SalesTrxn":0,"ufCrm9EarningsLocalCurrency":0,"ufCrm9CommissionAmount":0,"assignedById":17},{"id":31655,"ufCrm9StatementMonth":"202409 Sep","ufCrm9Mid":2101692738,"ufCrm9Dba":"SP CONVENIENCE STORE","ufCrm9SalesVolume":0,"ufCrm9SalesTrxn":4,"ufCrm9EarningsLocalCurrency":70,"ufCrm9CommissionAmount":70.14,"assignedById":17}]},"next":50,"total":87,"time":{"start":1733292120.40283,"finish":1733292121.104383,"duration":0.7015531063079834,"processing":0.6341838836669922,"date_start":"2024-12-04T09:02:00+03:00","date_finish":"2024-12-04T09:02:01+03:00","operating_reset_at":1733292720,"operating":4.621045351028442}}}