{"url":"https:\/\/5tel.bitrix24.uk\/rest\/13\/bq7arhlt29j4yu6c\/crm.item.list.json","info":{"url":"https:\/\/5tel.bitrix24.uk\/rest\/13\/bq7arhlt29j4yu6c\/crm.item.list.json","content_type":"application\/json; charset=utf-8","http_code":200,"header_size":1031,"request_size":523,"filetime":-1,"ssl_verify_result":0,"redirect_count":0,"total_time":1.235252,"namelookup_time":0.108217,"connect_time":0.310257,"pretransfer_time":0.516632,"size_upload":319,"size_download":12165,"speed_download":9848,"speed_upload":258,"download_content_length":-1,"upload_content_length":319,"starttransfer_time":1.235179,"redirect_time":0,"redirect_url":"","primary_ip":"52.29.77.149","certinfo":[],"primary_port":443,"local_ip":"192.168.29.236","local_port":50785,"http_version":3,"protocol":2,"ssl_verifyresult":0,"scheme":"HTTPS","appconnect_time_us":516444,"connect_time_us":310257,"namelookup_time_us":108217,"pretransfer_time_us":516632,"redirect_time_us":0,"starttransfer_time_us":1235179,"total_time_us":1235252,"effective_method":"POST"},"params":{"method":"crm.item.list","params":{"entityTypeId":1052,"filter":[],"order":{"ufCrm9Mid":"desc"},"select":["ID","ufCrm9StatementMonth","ufCrm9Mid","ufCrm9Dba","ufCrm9SalesVolume","ufCrm9SalesTrxn","ufCrm9CommissionAmount","assignedById","ufCrm9EarningsLocalCurrency"],"start":0}},"result":{"result":{"items":[{"id":19125,"ufCrm9StatementMonth":"202409 Sep","ufCrm9Mid":2102045057,"ufCrm9Dba":"ANGLIAN FURNISHING FABRICS","ufCrm9SalesVolume":0.01,"ufCrm9SalesTrxn":1,"ufCrm9EarningsLocalCurrency":0,"ufCrm9CommissionAmount":0,"assignedById":17},{"id":19127,"ufCrm9StatementMonth":"202409 Sep","ufCrm9Mid":2102045057,"ufCrm9Dba":"ANGLIAN FURNISHING FABRICS","ufCrm9SalesVolume":0,"ufCrm9SalesTrxn":0,"ufCrm9EarningsLocalCurrency":0,"ufCrm9CommissionAmount":0,"assignedById":17},{"id":27143,"ufCrm9StatementMonth":"202409 Sep","ufCrm9Mid":2102044056,"ufCrm9Dba":"LYNCH AND CALVER CARPET AND FLOO","ufCrm9SalesVolume":0,"ufCrm9SalesTrxn":1,"ufCrm9EarningsLocalCurrency":0,"ufCrm9CommissionAmount":-0.02,"assignedById":13},{"id":27141,"ufCrm9StatementMonth":"202409 Sep","ufCrm9Mid":2102044056,"ufCrm9Dba":"LYNCH AND CALVER CARPET AND FLOO","ufCrm9SalesVolume":0.01,"ufCrm9SalesTrxn":1,"ufCrm9EarningsLocalCurrency":0,"ufCrm9CommissionAmount":0,"assignedById":13},{"id":27139,"ufCrm9StatementMonth":"202409 Sep","ufCrm9Mid":2102044056,"ufCrm9Dba":"LYNCH AND CALVER CARPET AND FLOO","ufCrm9SalesVolume":0,"ufCrm9SalesTrxn":0,"ufCrm9EarningsLocalCurrency":null,"ufCrm9CommissionAmount":0,"assignedById":13},{"id":27137,"ufCrm9StatementMonth":"202409 Sep","ufCrm9Mid":2102044056,"ufCrm9Dba":"LYNCH AND CALVER CARPET AND FLOO","ufCrm9SalesVolume":0,"ufCrm9SalesTrxn":0,"ufCrm9EarningsLocalCurrency":0,"ufCrm9CommissionAmount":0,"assignedById":13},{"id":25981,"ufCrm9StatementMonth":"202409 Sep","ufCrm9Mid":2102043100,"ufCrm9Dba":"J V FOOD WISE","ufCrm9SalesVolume":0.02,"ufCrm9SalesTrxn":2,"ufCrm9EarningsLocalCurrency":0,"ufCrm9CommissionAmount":0,"assignedById":31},{"id":25979,"ufCrm9StatementMonth":"202409 Sep","ufCrm9Mid":2102043100,"ufCrm9Dba":"J V FOOD WISE","ufCrm9SalesVolume":0,"ufCrm9SalesTrxn":0,"ufCrm9EarningsLocalCurrency":null,"ufCrm9CommissionAmount":0,"assignedById":31},{"id":25977,"ufCrm9StatementMonth":"202409 Sep","ufCrm9Mid":2102043100,"ufCrm9Dba":"J V FOOD WISE","ufCrm9SalesVolume":0.01,"ufCrm9SalesTrxn":1,"ufCrm9EarningsLocalCurrency":0,"ufCrm9CommissionAmount":0,"assignedById":31},{"id":25975,"ufCrm9StatementMonth":"202409 Sep","ufCrm9Mid":2102043100,"ufCrm9Dba":"J V FOOD WISE","ufCrm9SalesVolume":0,"ufCrm9SalesTrxn":0,"ufCrm9EarningsLocalCurrency":0,"ufCrm9CommissionAmount":0,"assignedById":31},{"id":25121,"ufCrm9StatementMonth":"202409 Sep","ufCrm9Mid":2102043099,"ufCrm9Dba":"HERTFORD MANGAL KEBAB","ufCrm9SalesVolume":0.01,"ufCrm9SalesTrxn":1,"ufCrm9EarningsLocalCurrency":0,"ufCrm9CommissionAmount":0,"assignedById":13},{"id":25119,"ufCrm9StatementMonth":"202409 Sep","ufCrm9Mid":2102043099,"ufCrm9Dba":"HERTFORD MANGAL KEBAB","ufCrm9SalesVolume":0,"ufCrm9SalesTrxn":0,"ufCrm9EarningsLocalCurrency":null,"ufCrm9CommissionAmount":0,"assignedById":13},{"id":25117,"ufCrm9StatementMonth":"202409 Sep","ufCrm9Mid":2102043099,"ufCrm9Dba":"HERTFORD MANGAL KEBAB","ufCrm9SalesVolume":0,"ufCrm9SalesTrxn":1,"ufCrm9EarningsLocalCurrency":0,"ufCrm9CommissionAmount":0.02,"assignedById":13},{"id":25115,"ufCrm9StatementMonth":"202409 Sep","ufCrm9Mid":2102043099,"ufCrm9Dba":"HERTFORD MANGAL KEBAB","ufCrm9SalesVolume":0.01,"ufCrm9SalesTrxn":1,"ufCrm9EarningsLocalCurrency":0,"ufCrm9CommissionAmount":0,"assignedById":13},{"id":27411,"ufCrm9StatementMonth":"202409 Sep","ufCrm9Mid":2102043002,"ufCrm9Dba":"MAKEPLACE","ufCrm9SalesVolume":0,"ufCrm9SalesTrxn":0,"ufCrm9EarningsLocalCurrency":null,"ufCrm9CommissionAmount":0,"assignedById":17},{"id":19121,"ufCrm9StatementMonth":"202409 Sep","ufCrm9Mid":2102042995,"ufCrm9Dba":"ANGLIAN FASHION FABRICS","ufCrm9SalesVolume":0.01,"ufCrm9SalesTrxn":1,"ufCrm9EarningsLocalCurrency":0,"ufCrm9CommissionAmount":0,"assignedById":13},{"id":19123,"ufCrm9StatementMonth":"202409 Sep","ufCrm9Mid":2102042995,"ufCrm9Dba":"ANGLIAN FASHION FABRICS","ufCrm9SalesVolume":0,"ufCrm9SalesTrxn":0,"ufCrm9EarningsLocalCurrency":0,"ufCrm9CommissionAmount":0,"assignedById":13},{"id":19119,"ufCrm9StatementMonth":"202409 Sep","ufCrm9Mid":2102042995,"ufCrm9Dba":"ANGLIAN FASHION FABRICS","ufCrm9SalesVolume":0,"ufCrm9SalesTrxn":0,"ufCrm9EarningsLocalCurrency":null,"ufCrm9CommissionAmount":0,"assignedById":13},{"id":31135,"ufCrm9StatementMonth":"202409 Sep","ufCrm9Mid":2102041671,"ufCrm9Dba":"SERENITY BEAUTY BOUTIQUE AND SPA","ufCrm9SalesVolume":45,"ufCrm9SalesTrxn":1,"ufCrm9EarningsLocalCurrency":0,"ufCrm9CommissionAmount":0.09,"assignedById":17},{"id":31133,"ufCrm9StatementMonth":"202409 Sep","ufCrm9Mid":2102041671,"ufCrm9Dba":"SERENITY BEAUTY BOUTIQUE AND SPA","ufCrm9SalesVolume":35,"ufCrm9SalesTrxn":1,"ufCrm9EarningsLocalCurrency":0,"ufCrm9CommissionAmount":0.15,"assignedById":17},{"id":31131,"ufCrm9StatementMonth":"202409 Sep","ufCrm9Mid":2102041671,"ufCrm9Dba":"SERENITY BEAUTY BOUTIQUE AND SPA","ufCrm9SalesVolume":80,"ufCrm9SalesTrxn":2,"ufCrm9EarningsLocalCurrency":0,"ufCrm9CommissionAmount":0.15,"assignedById":17},{"id":31129,"ufCrm9StatementMonth":"202409 Sep","ufCrm9Mid":2102041671,"ufCrm9Dba":"SERENITY BEAUTY BOUTIQUE AND SPA","ufCrm9SalesVolume":250.01,"ufCrm9SalesTrxn":3,"ufCrm9EarningsLocalCurrency":0,"ufCrm9CommissionAmount":0.46,"assignedById":17},{"id":31127,"ufCrm9StatementMonth":"202409 Sep","ufCrm9Mid":2102041671,"ufCrm9Dba":"SERENITY BEAUTY BOUTIQUE AND SPA","ufCrm9SalesVolume":320,"ufCrm9SalesTrxn":5,"ufCrm9EarningsLocalCurrency":0,"ufCrm9CommissionAmount":0.49,"assignedById":17},{"id":31125,"ufCrm9StatementMonth":"202409 Sep","ufCrm9Mid":2102041671,"ufCrm9Dba":"SERENITY BEAUTY BOUTIQUE AND SPA","ufCrm9SalesVolume":0,"ufCrm9SalesTrxn":0,"ufCrm9EarningsLocalCurrency":null,"ufCrm9CommissionAmount":0,"assignedById":17},{"id":28643,"ufCrm9StatementMonth":"202409 Sep","ufCrm9Mid":2102041670,"ufCrm9Dba":"OH MY COD","ufCrm9SalesVolume":0,"ufCrm9SalesTrxn":0,"ufCrm9EarningsLocalCurrency":null,"ufCrm9CommissionAmount":0,"assignedById":17},{"id":28641,"ufCrm9StatementMonth":"202409 Sep","ufCrm9Mid":2102041670,"ufCrm9Dba":"OH MY COD","ufCrm9SalesVolume":30.01,"ufCrm9SalesTrxn":5,"ufCrm9EarningsLocalCurrency":0,"ufCrm9CommissionAmount":0.005,"assignedById":17},{"id":28639,"ufCrm9StatementMonth":"202409 Sep","ufCrm9Mid":2102041670,"ufCrm9Dba":"OH MY COD","ufCrm9SalesVolume":99,"ufCrm9SalesTrxn":4,"ufCrm9EarningsLocalCurrency":0,"ufCrm9CommissionAmount":0.015,"assignedById":17},{"id":28637,"ufCrm9StatementMonth":"202409 Sep","ufCrm9Mid":2102041670,"ufCrm9Dba":"OH MY COD","ufCrm9SalesVolume":272.11,"ufCrm9SalesTrxn":17,"ufCrm9EarningsLocalCurrency":0,"ufCrm9CommissionAmount":0.04,"assignedById":17},{"id":28635,"ufCrm9StatementMonth":"202409 Sep","ufCrm9Mid":2102041670,"ufCrm9Dba":"OH MY COD","ufCrm9SalesVolume":0,"ufCrm9SalesTrxn":0,"ufCrm9EarningsLocalCurrency":0,"ufCrm9CommissionAmount":0.005,"assignedById":17},{"id":28633,"ufCrm9StatementMonth":"202409 Sep","ufCrm9Mid":2102041670,"ufCrm9Dba":"OH MY COD","ufCrm9SalesVolume":0,"ufCrm9SalesTrxn":0,"ufCrm9EarningsLocalCurrency":0,"ufCrm9CommissionAmount":0,"assignedById":17},{"id":28631,"ufCrm9StatementMonth":"202409 Sep","ufCrm9Mid":2102041670,"ufCrm9Dba":"OH MY COD","ufCrm9SalesVolume":0,"ufCrm9SalesTrxn":0,"ufCrm9EarningsLocalCurrency":0,"ufCrm9CommissionAmount":0,"assignedById":17},{"id":19369,"ufCrm9StatementMonth":"202409 Sep","ufCrm9Mid":2102041606,"ufCrm9Dba":"ASKIMS BAR","ufCrm9SalesVolume":0,"ufCrm9SalesTrxn":13,"ufCrm9EarningsLocalCurrency":0,"ufCrm9CommissionAmount":0.2,"assignedById":17},{"id":19353,"ufCrm9StatementMonth":"202409 Sep","ufCrm9Mid":2102041606,"ufCrm9Dba":"ASKIMS BAR","ufCrm9SalesVolume":161.6,"ufCrm9SalesTrxn":1,"ufCrm9EarningsLocalCurrency":1,"ufCrm9CommissionAmount":0.69,"assignedById":17},{"id":19367,"ufCrm9StatementMonth":"202409 Sep","ufCrm9Mid":2102041606,"ufCrm9Dba":"ASKIMS BAR","ufCrm9SalesVolume":57.35,"ufCrm9SalesTrxn":1,"ufCrm9EarningsLocalCurrency":0,"ufCrm9CommissionAmount":0.2,"assignedById":17},{"id":19371,"ufCrm9StatementMonth":"202409 Sep","ufCrm9Mid":2102041606,"ufCrm9Dba":"ASKIMS BAR","ufCrm9SalesVolume":0,"ufCrm9SalesTrxn":0,"ufCrm9EarningsLocalCurrency":null,"ufCrm9CommissionAmount":0,"assignedById":17},{"id":19365,"ufCrm9StatementMonth":"202409 Sep","ufCrm9Mid":2102041606,"ufCrm9Dba":"ASKIMS BAR","ufCrm9SalesVolume":0,"ufCrm9SalesTrxn":20,"ufCrm9EarningsLocalCurrency":0,"ufCrm9CommissionAmount":0.3,"assignedById":17},{"id":19363,"ufCrm9StatementMonth":"202409 Sep","ufCrm9Mid":2102041606,"ufCrm9Dba":"ASKIMS BAR","ufCrm9SalesVolume":836.05,"ufCrm9SalesTrxn":10,"ufCrm9EarningsLocalCurrency":0,"ufCrm9CommissionAmount":0.4,"assignedById":17},{"id":19361,"ufCrm9StatementMonth":"202409 Sep","ufCrm9Mid":2102041606,"ufCrm9Dba":"ASKIMS BAR","ufCrm9SalesVolume":1,"ufCrm9SalesTrxn":17,"ufCrm9EarningsLocalCurrency":1,"ufCrm9CommissionAmount":0.52,"assignedById":17},{"id":19359,"ufCrm9StatementMonth":"202409 Sep","ufCrm9Mid":2102041606,"ufCrm9Dba":"ASKIMS BAR","ufCrm9SalesVolume":0,"ufCrm9SalesTrxn":38,"ufCrm9EarningsLocalCurrency":1,"ufCrm9CommissionAmount":0.57,"assignedById":17},{"id":19357,"ufCrm9StatementMonth":"202409 Sep","ufCrm9Mid":2102041606,"ufCrm9Dba":"ASKIMS BAR","ufCrm9SalesVolume":0,"ufCrm9SalesTrxn":38,"ufCrm9EarningsLocalCurrency":1,"ufCrm9CommissionAmount":0.57,"assignedById":17},{"id":19355,"ufCrm9StatementMonth":"202409 Sep","ufCrm9Mid":2102041606,"ufCrm9Dba":"ASKIMS BAR","ufCrm9SalesVolume":198.4,"ufCrm9SalesTrxn":3,"ufCrm9EarningsLocalCurrency":1,"ufCrm9CommissionAmount":0.69,"assignedById":17},{"id":19351,"ufCrm9StatementMonth":"202409 Sep","ufCrm9Mid":2102041606,"ufCrm9Dba":"ASKIMS BAR","ufCrm9SalesVolume":183.6,"ufCrm9SalesTrxn":1,"ufCrm9EarningsLocalCurrency":1,"ufCrm9CommissionAmount":0.79,"assignedById":17},{"id":19349,"ufCrm9StatementMonth":"202409 Sep","ufCrm9Mid":2102041606,"ufCrm9Dba":"ASKIMS BAR","ufCrm9SalesVolume":1,"ufCrm9SalesTrxn":34,"ufCrm9EarningsLocalCurrency":1,"ufCrm9CommissionAmount":1.26,"assignedById":17},{"id":19347,"ufCrm9StatementMonth":"202409 Sep","ufCrm9Mid":2102041606,"ufCrm9Dba":"ASKIMS BAR","ufCrm9SalesVolume":211.48,"ufCrm9SalesTrxn":2,"ufCrm9EarningsLocalCurrency":1,"ufCrm9CommissionAmount":1.31,"assignedById":17},{"id":19345,"ufCrm9StatementMonth":"202409 Sep","ufCrm9Mid":2102041606,"ufCrm9Dba":"ASKIMS BAR","ufCrm9SalesVolume":2,"ufCrm9SalesTrxn":37,"ufCrm9EarningsLocalCurrency":3,"ufCrm9CommissionAmount":2.89,"assignedById":17},{"id":27945,"ufCrm9StatementMonth":"202409 Sep","ufCrm9Mid":2102041279,"ufCrm9Dba":"MG1 SUPER STORE","ufCrm9SalesVolume":1,"ufCrm9SalesTrxn":301,"ufCrm9EarningsLocalCurrency":7,"ufCrm9CommissionAmount":7.3,"assignedById":13},{"id":27959,"ufCrm9StatementMonth":"202409 Sep","ufCrm9Mid":2102041279,"ufCrm9Dba":"MG1 SUPER STORE","ufCrm9SalesVolume":0,"ufCrm9SalesTrxn":0,"ufCrm9EarningsLocalCurrency":0,"ufCrm9CommissionAmount":0,"assignedById":13},{"id":27957,"ufCrm9StatementMonth":"202409 Sep","ufCrm9Mid":2102041279,"ufCrm9Dba":"MG1 SUPER STORE","ufCrm9SalesVolume":0,"ufCrm9SalesTrxn":0,"ufCrm9EarningsLocalCurrency":0,"ufCrm9CommissionAmount":0,"assignedById":13},{"id":27955,"ufCrm9StatementMonth":"202409 Sep","ufCrm9Mid":2102041279,"ufCrm9Dba":"MG1 SUPER STORE","ufCrm9SalesVolume":3,"ufCrm9SalesTrxn":1,"ufCrm9EarningsLocalCurrency":0,"ufCrm9CommissionAmount":0.03,"assignedById":13},{"id":27953,"ufCrm9StatementMonth":"202409 Sep","ufCrm9Mid":2102041279,"ufCrm9Dba":"MG1 SUPER STORE","ufCrm9SalesVolume":19.78,"ufCrm9SalesTrxn":3,"ufCrm9EarningsLocalCurrency":0,"ufCrm9CommissionAmount":0.08,"assignedById":13}]},"next":50,"total":16162,"time":{"start":1733292063.443085,"finish":1733292063.96179,"duration":0.5187051296234131,"processing":0.47705912590026855,"date_start":"2024-12-04T09:01:03+03:00","date_finish":"2024-12-04T09:01:03+03:00","operating_reset_at":1733292663,"operating":3.555873394012451}}}