{"url":"https:\/\/5tel.bitrix24.uk\/rest\/13\/bq7arhlt29j4yu6c\/crm.item.list.json","info":{"url":"https:\/\/5tel.bitrix24.uk\/rest\/13\/bq7arhlt29j4yu6c\/crm.item.list.json","content_type":"application\/json; charset=utf-8","http_code":200,"header_size":1031,"request_size":531,"filetime":-1,"ssl_verify_result":0,"redirect_count":0,"total_time":1.070085,"namelookup_time":0.005143,"connect_time":0.17729,"pretransfer_time":0.364704,"size_upload":327,"size_download":11931,"speed_download":11149,"speed_upload":305,"download_content_length":-1,"upload_content_length":327,"starttransfer_time":1.070041,"redirect_time":0,"redirect_url":"","primary_ip":"52.29.77.149","certinfo":[],"primary_port":443,"local_ip":"192.168.29.236","local_port":51248,"http_version":3,"protocol":2,"ssl_verifyresult":0,"scheme":"HTTPS","appconnect_time_us":364520,"connect_time_us":177290,"namelookup_time_us":5143,"pretransfer_time_us":364704,"redirect_time_us":0,"starttransfer_time_us":1070041,"total_time_us":1070085,"effective_method":"POST"},"params":{"method":"crm.item.list","params":{"entityTypeId":1052,"filter":{"ufCrm9Dba":"%STORE%"},"order":[],"select":["ID","ufCrm9StatementMonth","ufCrm9Mid","ufCrm9Dba","ufCrm9SalesVolume","ufCrm9SalesTrxn","ufCrm9CommissionAmount","assignedById","ufCrm9EarningsLocalCurrency"],"start":0}},"result":{"result":{"items":[{"id":2291,"ufCrm9StatementMonth":"202408 Aug","ufCrm9Mid":2101502056,"ufCrm9Dba":"BARKINGSIDE FOOD STORE","ufCrm9SalesVolume":4,"ufCrm9SalesTrxn":475,"ufCrm9EarningsLocalCurrency":16,"ufCrm9CommissionAmount":16,"assignedById":17},{"id":2293,"ufCrm9StatementMonth":"202408 Aug","ufCrm9Mid":2101502056,"ufCrm9Dba":"BARKINGSIDE FOOD STORE","ufCrm9SalesVolume":28.34,"ufCrm9SalesTrxn":4,"ufCrm9EarningsLocalCurrency":0,"ufCrm9CommissionAmount":0,"assignedById":17},{"id":2295,"ufCrm9StatementMonth":"202408 Aug","ufCrm9Mid":2101502056,"ufCrm9Dba":"BARKINGSIDE FOOD STORE","ufCrm9SalesVolume":29.24,"ufCrm9SalesTrxn":2,"ufCrm9EarningsLocalCurrency":0,"ufCrm9CommissionAmount":0,"assignedById":17},{"id":2297,"ufCrm9StatementMonth":"202408 Aug","ufCrm9Mid":2101502056,"ufCrm9Dba":"BARKINGSIDE FOOD STORE","ufCrm9SalesVolume":50.67,"ufCrm9SalesTrxn":3,"ufCrm9EarningsLocalCurrency":0,"ufCrm9CommissionAmount":0,"assignedById":17},{"id":2299,"ufCrm9StatementMonth":"202408 Aug","ufCrm9Mid":2101502056,"ufCrm9Dba":"BARKINGSIDE FOOD STORE","ufCrm9SalesVolume":93.97,"ufCrm9SalesTrxn":1,"ufCrm9EarningsLocalCurrency":1,"ufCrm9CommissionAmount":1,"assignedById":17},{"id":2301,"ufCrm9StatementMonth":"202408 Aug","ufCrm9Mid":2101502056,"ufCrm9Dba":"BARKINGSIDE FOOD STORE","ufCrm9SalesVolume":591.42,"ufCrm9SalesTrxn":44,"ufCrm9EarningsLocalCurrency":3,"ufCrm9CommissionAmount":3,"assignedById":17},{"id":2303,"ufCrm9StatementMonth":"202408 Aug","ufCrm9Mid":2101502056,"ufCrm9Dba":"BARKINGSIDE FOOD STORE","ufCrm9SalesVolume":0,"ufCrm9SalesTrxn":5,"ufCrm9EarningsLocalCurrency":120,"ufCrm9CommissionAmount":120,"assignedById":17},{"id":2305,"ufCrm9StatementMonth":"202408 Aug","ufCrm9Mid":2101502056,"ufCrm9Dba":"BARKINGSIDE FOOD STORE","ufCrm9SalesVolume":2,"ufCrm9SalesTrxn":197,"ufCrm9EarningsLocalCurrency":9,"ufCrm9CommissionAmount":9,"assignedById":17},{"id":2307,"ufCrm9StatementMonth":"202408 Aug","ufCrm9Mid":2101502056,"ufCrm9Dba":"BARKINGSIDE FOOD STORE","ufCrm9SalesVolume":70.33,"ufCrm9SalesTrxn":4,"ufCrm9EarningsLocalCurrency":0,"ufCrm9CommissionAmount":0,"assignedById":17},{"id":2309,"ufCrm9StatementMonth":"202408 Aug","ufCrm9Mid":2101502056,"ufCrm9Dba":"BARKINGSIDE FOOD STORE","ufCrm9SalesVolume":608.09,"ufCrm9SalesTrxn":37,"ufCrm9EarningsLocalCurrency":1,"ufCrm9CommissionAmount":1,"assignedById":17},{"id":2311,"ufCrm9StatementMonth":"202408 Aug","ufCrm9Mid":2101502056,"ufCrm9Dba":"BARKINGSIDE FOOD STORE","ufCrm9SalesVolume":0,"ufCrm9SalesTrxn":0,"ufCrm9EarningsLocalCurrency":9,"ufCrm9CommissionAmount":9,"assignedById":17},{"id":2313,"ufCrm9StatementMonth":"202408 Aug","ufCrm9Mid":2101502056,"ufCrm9Dba":"BARKINGSIDE FOOD STORE","ufCrm9SalesVolume":18,"ufCrm9SalesTrxn":2,"ufCrm9EarningsLocalCurrency":13,"ufCrm9CommissionAmount":13,"assignedById":17},{"id":2315,"ufCrm9StatementMonth":"202408 Aug","ufCrm9Mid":2101502056,"ufCrm9Dba":"BARKINGSIDE FOOD STORE","ufCrm9SalesVolume":32.13,"ufCrm9SalesTrxn":8,"ufCrm9EarningsLocalCurrency":0,"ufCrm9CommissionAmount":0,"assignedById":17},{"id":2317,"ufCrm9StatementMonth":"202408 Aug","ufCrm9Mid":2101502056,"ufCrm9Dba":"BARKINGSIDE FOOD STORE","ufCrm9SalesVolume":6.58,"ufCrm9SalesTrxn":1,"ufCrm9EarningsLocalCurrency":0,"ufCrm9CommissionAmount":0,"assignedById":17},{"id":2319,"ufCrm9StatementMonth":"202408 Aug","ufCrm9Mid":2101502056,"ufCrm9Dba":"BARKINGSIDE FOOD STORE","ufCrm9SalesVolume":141.51,"ufCrm9SalesTrxn":17,"ufCrm9EarningsLocalCurrency":1,"ufCrm9CommissionAmount":1,"assignedById":17},{"id":2321,"ufCrm9StatementMonth":"202408 Aug","ufCrm9Mid":2101502056,"ufCrm9Dba":"BARKINGSIDE FOOD STORE","ufCrm9SalesVolume":261.36,"ufCrm9SalesTrxn":31,"ufCrm9EarningsLocalCurrency":1,"ufCrm9CommissionAmount":1,"assignedById":17},{"id":2323,"ufCrm9StatementMonth":"202408 Aug","ufCrm9Mid":2101502056,"ufCrm9Dba":"BARKINGSIDE FOOD STORE","ufCrm9SalesVolume":45,"ufCrm9SalesTrxn":4,"ufCrm9EarningsLocalCurrency":42,"ufCrm9CommissionAmount":42,"assignedById":17},{"id":2325,"ufCrm9StatementMonth":"202408 Aug","ufCrm9Mid":2101502056,"ufCrm9Dba":"BARKINGSIDE FOOD STORE","ufCrm9SalesVolume":131.81,"ufCrm9SalesTrxn":10,"ufCrm9EarningsLocalCurrency":1,"ufCrm9CommissionAmount":1,"assignedById":17},{"id":2327,"ufCrm9StatementMonth":"202408 Aug","ufCrm9Mid":2101502056,"ufCrm9Dba":"BARKINGSIDE FOOD STORE","ufCrm9SalesVolume":0,"ufCrm9SalesTrxn":512,"ufCrm9EarningsLocalCurrency":12,"ufCrm9CommissionAmount":12,"assignedById":17},{"id":2329,"ufCrm9StatementMonth":"202408 Aug","ufCrm9Mid":2101502056,"ufCrm9Dba":"BARKINGSIDE FOOD STORE","ufCrm9SalesVolume":0,"ufCrm9SalesTrxn":2,"ufCrm9EarningsLocalCurrency":55,"ufCrm9CommissionAmount":55,"assignedById":17},{"id":2331,"ufCrm9StatementMonth":"202408 Aug","ufCrm9Mid":2101502056,"ufCrm9Dba":"BARKINGSIDE FOOD STORE","ufCrm9SalesVolume":0,"ufCrm9SalesTrxn":2,"ufCrm9EarningsLocalCurrency":0,"ufCrm9CommissionAmount":0,"assignedById":17},{"id":2333,"ufCrm9StatementMonth":"202408 Aug","ufCrm9Mid":2101502056,"ufCrm9Dba":"BARKINGSIDE FOOD STORE","ufCrm9SalesVolume":0,"ufCrm9SalesTrxn":228,"ufCrm9EarningsLocalCurrency":5,"ufCrm9CommissionAmount":5,"assignedById":17},{"id":2335,"ufCrm9StatementMonth":"202408 Aug","ufCrm9Mid":2101502056,"ufCrm9Dba":"BARKINGSIDE FOOD STORE","ufCrm9SalesVolume":321.31,"ufCrm9SalesTrxn":31,"ufCrm9EarningsLocalCurrency":1,"ufCrm9CommissionAmount":1,"assignedById":17},{"id":2939,"ufCrm9StatementMonth":"202408 Aug","ufCrm9Mid":2101686907,"ufCrm9Dba":"NATHAN STORE","ufCrm9SalesVolume":2.4,"ufCrm9SalesTrxn":1,"ufCrm9EarningsLocalCurrency":0,"ufCrm9CommissionAmount":0,"assignedById":17},{"id":2941,"ufCrm9StatementMonth":"202408 Aug","ufCrm9Mid":2101686907,"ufCrm9Dba":"NATHAN STORE","ufCrm9SalesVolume":0,"ufCrm9SalesTrxn":15,"ufCrm9EarningsLocalCurrency":0,"ufCrm9CommissionAmount":0,"assignedById":17},{"id":2943,"ufCrm9StatementMonth":"202408 Aug","ufCrm9Mid":2101686907,"ufCrm9Dba":"NATHAN STORE","ufCrm9SalesVolume":1,"ufCrm9SalesTrxn":144,"ufCrm9EarningsLocalCurrency":1,"ufCrm9CommissionAmount":1,"assignedById":17},{"id":2945,"ufCrm9StatementMonth":"202408 Aug","ufCrm9Mid":2101686907,"ufCrm9Dba":"NATHAN STORE","ufCrm9SalesVolume":9.99,"ufCrm9SalesTrxn":1,"ufCrm9EarningsLocalCurrency":0,"ufCrm9CommissionAmount":0,"assignedById":17},{"id":2947,"ufCrm9StatementMonth":"202408 Aug","ufCrm9Mid":2101686907,"ufCrm9Dba":"NATHAN STORE","ufCrm9SalesVolume":0,"ufCrm9SalesTrxn":0,"ufCrm9EarningsLocalCurrency":0,"ufCrm9CommissionAmount":0,"assignedById":17},{"id":2949,"ufCrm9StatementMonth":"202408 Aug","ufCrm9Mid":2101686907,"ufCrm9Dba":"NATHAN STORE","ufCrm9SalesVolume":21.69,"ufCrm9SalesTrxn":1,"ufCrm9EarningsLocalCurrency":0,"ufCrm9CommissionAmount":0,"assignedById":17},{"id":2951,"ufCrm9StatementMonth":"202408 Aug","ufCrm9Mid":2101686907,"ufCrm9Dba":"NATHAN STORE","ufCrm9SalesVolume":444.13,"ufCrm9SalesTrxn":36,"ufCrm9EarningsLocalCurrency":1,"ufCrm9CommissionAmount":1,"assignedById":17},{"id":2953,"ufCrm9StatementMonth":"202408 Aug","ufCrm9Mid":2101686907,"ufCrm9Dba":"NATHAN STORE","ufCrm9SalesVolume":114.76,"ufCrm9SalesTrxn":8,"ufCrm9EarningsLocalCurrency":1,"ufCrm9CommissionAmount":1,"assignedById":17},{"id":2955,"ufCrm9StatementMonth":"202408 Aug","ufCrm9Mid":2101686907,"ufCrm9Dba":"NATHAN STORE","ufCrm9SalesVolume":2.04,"ufCrm9SalesTrxn":1,"ufCrm9EarningsLocalCurrency":0,"ufCrm9CommissionAmount":0,"assignedById":17},{"id":2957,"ufCrm9StatementMonth":"202408 Aug","ufCrm9Mid":2101686907,"ufCrm9Dba":"NATHAN STORE","ufCrm9SalesVolume":139.4,"ufCrm9SalesTrxn":13,"ufCrm9EarningsLocalCurrency":0,"ufCrm9CommissionAmount":0,"assignedById":17},{"id":2959,"ufCrm9StatementMonth":"202408 Aug","ufCrm9Mid":2101686907,"ufCrm9Dba":"NATHAN STORE","ufCrm9SalesVolume":54.05,"ufCrm9SalesTrxn":2,"ufCrm9EarningsLocalCurrency":0,"ufCrm9CommissionAmount":0,"assignedById":17},{"id":2961,"ufCrm9StatementMonth":"202408 Aug","ufCrm9Mid":2101686907,"ufCrm9Dba":"NATHAN STORE","ufCrm9SalesVolume":17.98,"ufCrm9SalesTrxn":1,"ufCrm9EarningsLocalCurrency":0,"ufCrm9CommissionAmount":0,"assignedById":17},{"id":2963,"ufCrm9StatementMonth":"202408 Aug","ufCrm9Mid":2101686907,"ufCrm9Dba":"NATHAN STORE","ufCrm9SalesVolume":5,"ufCrm9SalesTrxn":455,"ufCrm9EarningsLocalCurrency":6,"ufCrm9CommissionAmount":6,"assignedById":17},{"id":2965,"ufCrm9StatementMonth":"202408 Aug","ufCrm9Mid":2101686907,"ufCrm9Dba":"NATHAN STORE","ufCrm9SalesVolume":0,"ufCrm9SalesTrxn":36,"ufCrm9EarningsLocalCurrency":1,"ufCrm9CommissionAmount":1,"assignedById":17},{"id":2967,"ufCrm9StatementMonth":"202408 Aug","ufCrm9Mid":2101686907,"ufCrm9Dba":"NATHAN STORE","ufCrm9SalesVolume":0,"ufCrm9SalesTrxn":163,"ufCrm9EarningsLocalCurrency":2,"ufCrm9CommissionAmount":2,"assignedById":17},{"id":2969,"ufCrm9StatementMonth":"202408 Aug","ufCrm9Mid":2101686907,"ufCrm9Dba":"NATHAN STORE","ufCrm9SalesVolume":0,"ufCrm9SalesTrxn":456,"ufCrm9EarningsLocalCurrency":7,"ufCrm9CommissionAmount":7,"assignedById":17},{"id":3009,"ufCrm9StatementMonth":"202408 Aug","ufCrm9Mid":2101692738,"ufCrm9Dba":"SP CONVENIENCE STORE","ufCrm9SalesVolume":200.47,"ufCrm9SalesTrxn":27,"ufCrm9EarningsLocalCurrency":1,"ufCrm9CommissionAmount":1,"assignedById":17},{"id":3011,"ufCrm9StatementMonth":"202408 Aug","ufCrm9Mid":2101692738,"ufCrm9Dba":"SP CONVENIENCE STORE","ufCrm9SalesVolume":160.57,"ufCrm9SalesTrxn":7,"ufCrm9EarningsLocalCurrency":1,"ufCrm9CommissionAmount":1,"assignedById":17},{"id":3013,"ufCrm9StatementMonth":"202408 Aug","ufCrm9Mid":2101692738,"ufCrm9Dba":"SP CONVENIENCE STORE","ufCrm9SalesVolume":24.97,"ufCrm9SalesTrxn":1,"ufCrm9EarningsLocalCurrency":0,"ufCrm9CommissionAmount":0,"assignedById":17},{"id":3015,"ufCrm9StatementMonth":"202408 Aug","ufCrm9Mid":2101692738,"ufCrm9Dba":"SP CONVENIENCE STORE","ufCrm9SalesVolume":13,"ufCrm9SalesTrxn":1,"ufCrm9EarningsLocalCurrency":10,"ufCrm9CommissionAmount":10,"assignedById":17},{"id":3017,"ufCrm9StatementMonth":"202408 Aug","ufCrm9Mid":2101692738,"ufCrm9Dba":"SP CONVENIENCE STORE","ufCrm9SalesVolume":0,"ufCrm9SalesTrxn":0,"ufCrm9EarningsLocalCurrency":6,"ufCrm9CommissionAmount":6,"assignedById":17},{"id":3019,"ufCrm9StatementMonth":"202408 Aug","ufCrm9Mid":2101692738,"ufCrm9Dba":"SP CONVENIENCE STORE","ufCrm9SalesVolume":2,"ufCrm9SalesTrxn":185,"ufCrm9EarningsLocalCurrency":4,"ufCrm9CommissionAmount":4,"assignedById":17},{"id":3021,"ufCrm9StatementMonth":"202408 Aug","ufCrm9Mid":2101692738,"ufCrm9Dba":"SP CONVENIENCE STORE","ufCrm9SalesVolume":267.62,"ufCrm9SalesTrxn":7,"ufCrm9EarningsLocalCurrency":1,"ufCrm9CommissionAmount":1,"assignedById":17},{"id":3023,"ufCrm9StatementMonth":"202408 Aug","ufCrm9Mid":2101692738,"ufCrm9Dba":"SP CONVENIENCE STORE","ufCrm9SalesVolume":14.4,"ufCrm9SalesTrxn":3,"ufCrm9EarningsLocalCurrency":0,"ufCrm9CommissionAmount":0,"assignedById":17},{"id":3025,"ufCrm9StatementMonth":"202408 Aug","ufCrm9Mid":2101692738,"ufCrm9Dba":"SP CONVENIENCE STORE","ufCrm9SalesVolume":551.26,"ufCrm9SalesTrxn":57,"ufCrm9EarningsLocalCurrency":1,"ufCrm9CommissionAmount":1,"assignedById":17},{"id":3027,"ufCrm9StatementMonth":"202408 Aug","ufCrm9Mid":2101692738,"ufCrm9Dba":"SP CONVENIENCE STORE","ufCrm9SalesVolume":2.64,"ufCrm9SalesTrxn":1,"ufCrm9EarningsLocalCurrency":0,"ufCrm9CommissionAmount":0,"assignedById":17},{"id":3029,"ufCrm9StatementMonth":"202408 Aug","ufCrm9Mid":2101692738,"ufCrm9Dba":"SP CONVENIENCE STORE","ufCrm9SalesVolume":26.2,"ufCrm9SalesTrxn":3,"ufCrm9EarningsLocalCurrency":0,"ufCrm9CommissionAmount":0,"assignedById":17}]},"next":50,"total":504,"time":{"start":1733292102.060949,"finish":1733292102.530465,"duration":0.4695158004760742,"processing":0.43102598190307617,"date_start":"2024-12-04T09:01:42+03:00","date_finish":"2024-12-04T09:01:42+03:00","operating_reset_at":1733292702,"operating":3.986880302429199}}}