{"url":"https:\/\/5tel.bitrix24.uk\/rest\/13\/bq7arhlt29j4yu6c\/crm.item.list.json","info":{"url":"https:\/\/5tel.bitrix24.uk\/rest\/13\/bq7arhlt29j4yu6c\/crm.item.list.json","content_type":"application\/json; charset=utf-8","http_code":200,"header_size":1031,"request_size":499,"filetime":-1,"ssl_verify_result":0,"redirect_count":0,"total_time":0.826272,"namelookup_time":0.00252,"connect_time":0.165697,"pretransfer_time":0.367186,"size_upload":295,"size_download":11943,"speed_download":14454,"speed_upload":357,"download_content_length":-1,"upload_content_length":295,"starttransfer_time":0.826232,"redirect_time":0,"redirect_url":"","primary_ip":"52.29.77.149","certinfo":[],"primary_port":443,"local_ip":"192.168.29.236","local_port":55848,"http_version":3,"protocol":2,"ssl_verifyresult":0,"scheme":"HTTPS","appconnect_time_us":367068,"connect_time_us":165697,"namelookup_time_us":2520,"pretransfer_time_us":367186,"redirect_time_us":0,"starttransfer_time_us":826232,"total_time_us":826272,"effective_method":"POST"},"params":{"method":"crm.item.list","params":{"entityTypeId":1052,"filter":[],"select":["ID","ufCrm9StatementMonth","ufCrm9Mid","ufCrm9Dba","ufCrm9SalesVolume","ufCrm9SalesTrxn","ufCrm9CommissionAmount","assignedById","ufCrm9EarningsLocalCurrency"],"start":150}},"result":{"result":{"items":[{"id":2505,"ufCrm9StatementMonth":"202408 Aug","ufCrm9Mid":2101612866,"ufCrm9Dba":"ALOHOMORA","ufCrm9SalesVolume":863.36,"ufCrm9SalesTrxn":60,"ufCrm9EarningsLocalCurrency":1,"ufCrm9CommissionAmount":0.2,"assignedById":17},{"id":2507,"ufCrm9StatementMonth":"202408 Aug","ufCrm9Mid":2101612870,"ufCrm9Dba":"PRIDE OF STRATFORD","ufCrm9SalesVolume":1,"ufCrm9SalesTrxn":158,"ufCrm9EarningsLocalCurrency":2,"ufCrm9CommissionAmount":2,"assignedById":17},{"id":2509,"ufCrm9StatementMonth":"202408 Aug","ufCrm9Mid":2101612870,"ufCrm9Dba":"PRIDE OF STRATFORD","ufCrm9SalesVolume":0,"ufCrm9SalesTrxn":0,"ufCrm9EarningsLocalCurrency":1,"ufCrm9CommissionAmount":1,"assignedById":17},{"id":2511,"ufCrm9StatementMonth":"202408 Aug","ufCrm9Mid":2101612870,"ufCrm9Dba":"PRIDE OF STRATFORD","ufCrm9SalesVolume":1,"ufCrm9SalesTrxn":182,"ufCrm9EarningsLocalCurrency":1,"ufCrm9CommissionAmount":1,"assignedById":17},{"id":2513,"ufCrm9StatementMonth":"202408 Aug","ufCrm9Mid":2101612870,"ufCrm9Dba":"PRIDE OF STRATFORD","ufCrm9SalesVolume":797.85,"ufCrm9SalesTrxn":69,"ufCrm9EarningsLocalCurrency":1,"ufCrm9CommissionAmount":1,"assignedById":17},{"id":2515,"ufCrm9StatementMonth":"202408 Aug","ufCrm9Mid":2101612870,"ufCrm9Dba":"PRIDE OF STRATFORD","ufCrm9SalesVolume":914.46,"ufCrm9SalesTrxn":90,"ufCrm9EarningsLocalCurrency":1,"ufCrm9CommissionAmount":1,"assignedById":17},{"id":2517,"ufCrm9StatementMonth":"202408 Aug","ufCrm9Mid":2101612870,"ufCrm9Dba":"PRIDE OF STRATFORD","ufCrm9SalesVolume":87.32,"ufCrm9SalesTrxn":15,"ufCrm9EarningsLocalCurrency":0,"ufCrm9CommissionAmount":0,"assignedById":17},{"id":2519,"ufCrm9StatementMonth":"202408 Aug","ufCrm9Mid":2101612870,"ufCrm9Dba":"PRIDE OF STRATFORD","ufCrm9SalesVolume":322.26,"ufCrm9SalesTrxn":25,"ufCrm9EarningsLocalCurrency":1,"ufCrm9CommissionAmount":1,"assignedById":17},{"id":2521,"ufCrm9StatementMonth":"202408 Aug","ufCrm9Mid":2101612870,"ufCrm9Dba":"PRIDE OF STRATFORD","ufCrm9SalesVolume":174.22,"ufCrm9SalesTrxn":8,"ufCrm9EarningsLocalCurrency":0,"ufCrm9CommissionAmount":0,"assignedById":17},{"id":2523,"ufCrm9StatementMonth":"202408 Aug","ufCrm9Mid":2101612870,"ufCrm9Dba":"PRIDE OF STRATFORD","ufCrm9SalesVolume":10.2,"ufCrm9SalesTrxn":1,"ufCrm9EarningsLocalCurrency":0,"ufCrm9CommissionAmount":0,"assignedById":17},{"id":2525,"ufCrm9StatementMonth":"202408 Aug","ufCrm9Mid":2101612870,"ufCrm9Dba":"PRIDE OF STRATFORD","ufCrm9SalesVolume":2,"ufCrm9SalesTrxn":208,"ufCrm9EarningsLocalCurrency":4,"ufCrm9CommissionAmount":4,"assignedById":17},{"id":2527,"ufCrm9StatementMonth":"202408 Aug","ufCrm9Mid":2101612870,"ufCrm9Dba":"PRIDE OF STRATFORD","ufCrm9SalesVolume":3.99,"ufCrm9SalesTrxn":1,"ufCrm9EarningsLocalCurrency":0,"ufCrm9CommissionAmount":0,"assignedById":17},{"id":2529,"ufCrm9StatementMonth":"202408 Aug","ufCrm9Mid":2101612870,"ufCrm9Dba":"PRIDE OF STRATFORD","ufCrm9SalesVolume":2,"ufCrm9SalesTrxn":185,"ufCrm9EarningsLocalCurrency":5,"ufCrm9CommissionAmount":5,"assignedById":17},{"id":2531,"ufCrm9StatementMonth":"202408 Aug","ufCrm9Mid":2101612870,"ufCrm9Dba":"PRIDE OF STRATFORD","ufCrm9SalesVolume":3,"ufCrm9SalesTrxn":374,"ufCrm9EarningsLocalCurrency":2,"ufCrm9CommissionAmount":2,"assignedById":17},{"id":2533,"ufCrm9StatementMonth":"202408 Aug","ufCrm9Mid":2101612870,"ufCrm9Dba":"PRIDE OF STRATFORD","ufCrm9SalesVolume":0,"ufCrm9SalesTrxn":76,"ufCrm9EarningsLocalCurrency":1,"ufCrm9CommissionAmount":1,"assignedById":17},{"id":2535,"ufCrm9StatementMonth":"202408 Aug","ufCrm9Mid":2101612870,"ufCrm9Dba":"PRIDE OF STRATFORD","ufCrm9SalesVolume":0,"ufCrm9SalesTrxn":1,"ufCrm9EarningsLocalCurrency":0,"ufCrm9CommissionAmount":0,"assignedById":17},{"id":2537,"ufCrm9StatementMonth":"202408 Aug","ufCrm9Mid":2101612870,"ufCrm9Dba":"PRIDE OF STRATFORD","ufCrm9SalesVolume":0,"ufCrm9SalesTrxn":207,"ufCrm9EarningsLocalCurrency":3,"ufCrm9CommissionAmount":3,"assignedById":17},{"id":2539,"ufCrm9StatementMonth":"202408 Aug","ufCrm9Mid":2101612870,"ufCrm9Dba":"PRIDE OF STRATFORD","ufCrm9SalesVolume":0,"ufCrm9SalesTrxn":618,"ufCrm9EarningsLocalCurrency":9,"ufCrm9CommissionAmount":9,"assignedById":17},{"id":2541,"ufCrm9StatementMonth":"202408 Aug","ufCrm9Mid":2101612870,"ufCrm9Dba":"PRIDE OF STRATFORD","ufCrm9SalesVolume":6.98,"ufCrm9SalesTrxn":2,"ufCrm9EarningsLocalCurrency":0,"ufCrm9CommissionAmount":0,"assignedById":17},{"id":2543,"ufCrm9StatementMonth":"202408 Aug","ufCrm9Mid":2101612870,"ufCrm9Dba":"PRIDE OF STRATFORD","ufCrm9SalesVolume":0,"ufCrm9SalesTrxn":235,"ufCrm9EarningsLocalCurrency":4,"ufCrm9CommissionAmount":4,"assignedById":17},{"id":2545,"ufCrm9StatementMonth":"202408 Aug","ufCrm9Mid":2101613463,"ufCrm9Dba":"THE YORK VIKINGS","ufCrm9SalesVolume":5.98,"ufCrm9SalesTrxn":1,"ufCrm9EarningsLocalCurrency":0,"ufCrm9CommissionAmount":0,"assignedById":17},{"id":2547,"ufCrm9StatementMonth":"202408 Aug","ufCrm9Mid":2101613463,"ufCrm9Dba":"THE YORK VIKINGS","ufCrm9SalesVolume":52.96,"ufCrm9SalesTrxn":2,"ufCrm9EarningsLocalCurrency":0,"ufCrm9CommissionAmount":0,"assignedById":17},{"id":2549,"ufCrm9StatementMonth":"202408 Aug","ufCrm9Mid":2101613463,"ufCrm9Dba":"THE YORK VIKINGS","ufCrm9SalesVolume":58.97,"ufCrm9SalesTrxn":3,"ufCrm9EarningsLocalCurrency":0,"ufCrm9CommissionAmount":0,"assignedById":17},{"id":2551,"ufCrm9StatementMonth":"202408 Aug","ufCrm9Mid":2101613463,"ufCrm9Dba":"THE YORK VIKINGS","ufCrm9SalesVolume":1,"ufCrm9SalesTrxn":81,"ufCrm9EarningsLocalCurrency":2,"ufCrm9CommissionAmount":2,"assignedById":17},{"id":2553,"ufCrm9StatementMonth":"202408 Aug","ufCrm9Mid":2101613463,"ufCrm9Dba":"THE YORK VIKINGS","ufCrm9SalesVolume":0,"ufCrm9SalesTrxn":0,"ufCrm9EarningsLocalCurrency":0,"ufCrm9CommissionAmount":0,"assignedById":17},{"id":2555,"ufCrm9StatementMonth":"202408 Aug","ufCrm9Mid":2101613463,"ufCrm9Dba":"THE YORK VIKINGS","ufCrm9SalesVolume":503.94,"ufCrm9SalesTrxn":20,"ufCrm9EarningsLocalCurrency":1,"ufCrm9CommissionAmount":1,"assignedById":17},{"id":2557,"ufCrm9StatementMonth":"202408 Aug","ufCrm9Mid":2101613463,"ufCrm9Dba":"THE YORK VIKINGS","ufCrm9SalesVolume":2,"ufCrm9SalesTrxn":72,"ufCrm9EarningsLocalCurrency":3,"ufCrm9CommissionAmount":3,"assignedById":17},{"id":2559,"ufCrm9StatementMonth":"202408 Aug","ufCrm9Mid":2101613463,"ufCrm9Dba":"THE YORK VIKINGS","ufCrm9SalesVolume":2,"ufCrm9SalesTrxn":106,"ufCrm9EarningsLocalCurrency":5,"ufCrm9CommissionAmount":5,"assignedById":17},{"id":2561,"ufCrm9StatementMonth":"202408 Aug","ufCrm9Mid":2101613463,"ufCrm9Dba":"THE YORK VIKINGS","ufCrm9SalesVolume":254.09,"ufCrm9SalesTrxn":7,"ufCrm9EarningsLocalCurrency":0,"ufCrm9CommissionAmount":0,"assignedById":17},{"id":2563,"ufCrm9StatementMonth":"202408 Aug","ufCrm9Mid":2101613463,"ufCrm9Dba":"THE YORK VIKINGS","ufCrm9SalesVolume":3,"ufCrm9SalesTrxn":157,"ufCrm9EarningsLocalCurrency":6,"ufCrm9CommissionAmount":6,"assignedById":17},{"id":2565,"ufCrm9StatementMonth":"202408 Aug","ufCrm9Mid":2101613463,"ufCrm9Dba":"THE YORK VIKINGS","ufCrm9SalesVolume":978.6,"ufCrm9SalesTrxn":47,"ufCrm9EarningsLocalCurrency":2,"ufCrm9CommissionAmount":2,"assignedById":17},{"id":2567,"ufCrm9StatementMonth":"202408 Aug","ufCrm9Mid":2101613463,"ufCrm9Dba":"THE YORK VIKINGS","ufCrm9SalesVolume":13,"ufCrm9SalesTrxn":682,"ufCrm9EarningsLocalCurrency":8,"ufCrm9CommissionAmount":8,"assignedById":17},{"id":2569,"ufCrm9StatementMonth":"202408 Aug","ufCrm9Mid":2101613463,"ufCrm9Dba":"THE YORK VIKINGS","ufCrm9SalesVolume":3,"ufCrm9SalesTrxn":142,"ufCrm9EarningsLocalCurrency":6,"ufCrm9CommissionAmount":6,"assignedById":17},{"id":2571,"ufCrm9StatementMonth":"202408 Aug","ufCrm9Mid":2101613463,"ufCrm9Dba":"THE YORK VIKINGS","ufCrm9SalesVolume":7,"ufCrm9SalesTrxn":356,"ufCrm9EarningsLocalCurrency":3,"ufCrm9CommissionAmount":3,"assignedById":17},{"id":2573,"ufCrm9StatementMonth":"202408 Aug","ufCrm9Mid":2101613463,"ufCrm9Dba":"THE YORK VIKINGS","ufCrm9SalesVolume":0,"ufCrm9SalesTrxn":112,"ufCrm9EarningsLocalCurrency":2,"ufCrm9CommissionAmount":2,"assignedById":17},{"id":2575,"ufCrm9StatementMonth":"202408 Aug","ufCrm9Mid":2101613463,"ufCrm9Dba":"THE YORK VIKINGS","ufCrm9SalesVolume":0,"ufCrm9SalesTrxn":380,"ufCrm9EarningsLocalCurrency":6,"ufCrm9CommissionAmount":6,"assignedById":17},{"id":2577,"ufCrm9StatementMonth":"202408 Aug","ufCrm9Mid":2101613463,"ufCrm9Dba":"THE YORK VIKINGS","ufCrm9SalesVolume":0,"ufCrm9SalesTrxn":3,"ufCrm9EarningsLocalCurrency":0,"ufCrm9CommissionAmount":0,"assignedById":17},{"id":2579,"ufCrm9StatementMonth":"202408 Aug","ufCrm9Mid":2101613463,"ufCrm9Dba":"THE YORK VIKINGS","ufCrm9SalesVolume":0,"ufCrm9SalesTrxn":861,"ufCrm9EarningsLocalCurrency":13,"ufCrm9CommissionAmount":13,"assignedById":17},{"id":2581,"ufCrm9StatementMonth":"202408 Aug","ufCrm9Mid":2101613463,"ufCrm9Dba":"THE YORK VIKINGS","ufCrm9SalesVolume":0,"ufCrm9SalesTrxn":211,"ufCrm9EarningsLocalCurrency":3,"ufCrm9CommissionAmount":3,"assignedById":17},{"id":2583,"ufCrm9StatementMonth":"202408 Aug","ufCrm9Mid":2101613463,"ufCrm9Dba":"THE YORK VIKINGS","ufCrm9SalesVolume":77.92,"ufCrm9SalesTrxn":4,"ufCrm9EarningsLocalCurrency":0,"ufCrm9CommissionAmount":0,"assignedById":17},{"id":2585,"ufCrm9StatementMonth":"202408 Aug","ufCrm9Mid":2101613463,"ufCrm9Dba":"THE YORK VIKINGS","ufCrm9SalesVolume":35.98,"ufCrm9SalesTrxn":1,"ufCrm9EarningsLocalCurrency":0,"ufCrm9CommissionAmount":0,"assignedById":17},{"id":2587,"ufCrm9StatementMonth":"202408 Aug","ufCrm9Mid":2101614083,"ufCrm9Dba":"YORK GIFTS AND SOUVENIRS","ufCrm9SalesVolume":1.99,"ufCrm9SalesTrxn":1,"ufCrm9EarningsLocalCurrency":0,"ufCrm9CommissionAmount":0,"assignedById":17},{"id":2589,"ufCrm9StatementMonth":"202408 Aug","ufCrm9Mid":2101614083,"ufCrm9Dba":"YORK GIFTS AND SOUVENIRS","ufCrm9SalesVolume":741.69,"ufCrm9SalesTrxn":60,"ufCrm9EarningsLocalCurrency":1,"ufCrm9CommissionAmount":0.3,"assignedById":17},{"id":2591,"ufCrm9StatementMonth":"202408 Aug","ufCrm9Mid":2101614083,"ufCrm9Dba":"YORK GIFTS AND SOUVENIRS","ufCrm9SalesVolume":1,"ufCrm9SalesTrxn":108,"ufCrm9EarningsLocalCurrency":2,"ufCrm9CommissionAmount":0.6,"assignedById":17},{"id":2593,"ufCrm9StatementMonth":"202408 Aug","ufCrm9Mid":2101614083,"ufCrm9Dba":"YORK GIFTS AND SOUVENIRS","ufCrm9SalesVolume":2,"ufCrm9SalesTrxn":257,"ufCrm9EarningsLocalCurrency":1,"ufCrm9CommissionAmount":0.3,"assignedById":17},{"id":2595,"ufCrm9StatementMonth":"202408 Aug","ufCrm9Mid":2101614083,"ufCrm9Dba":"YORK GIFTS AND SOUVENIRS","ufCrm9SalesVolume":0,"ufCrm9SalesTrxn":0,"ufCrm9EarningsLocalCurrency":1,"ufCrm9CommissionAmount":0.3,"assignedById":17},{"id":2597,"ufCrm9StatementMonth":"202408 Aug","ufCrm9Mid":2101614083,"ufCrm9Dba":"YORK GIFTS AND SOUVENIRS","ufCrm9SalesVolume":7.99,"ufCrm9SalesTrxn":2,"ufCrm9EarningsLocalCurrency":0,"ufCrm9CommissionAmount":0,"assignedById":17},{"id":2599,"ufCrm9StatementMonth":"202408 Aug","ufCrm9Mid":2101614083,"ufCrm9Dba":"YORK GIFTS AND SOUVENIRS","ufCrm9SalesVolume":1,"ufCrm9SalesTrxn":149,"ufCrm9EarningsLocalCurrency":2,"ufCrm9CommissionAmount":0.6,"assignedById":17},{"id":2601,"ufCrm9StatementMonth":"202408 Aug","ufCrm9Mid":2101614083,"ufCrm9Dba":"YORK GIFTS AND SOUVENIRS","ufCrm9SalesVolume":304.64,"ufCrm9SalesTrxn":30,"ufCrm9EarningsLocalCurrency":0,"ufCrm9CommissionAmount":0,"assignedById":17},{"id":2603,"ufCrm9StatementMonth":"202408 Aug","ufCrm9Mid":2101614083,"ufCrm9Dba":"YORK GIFTS AND SOUVENIRS","ufCrm9SalesVolume":1,"ufCrm9SalesTrxn":1,"ufCrm9EarningsLocalCurrency":0,"ufCrm9CommissionAmount":0,"assignedById":17}]},"next":200,"total":16162,"time":{"start":1733257602.507653,"finish":1733257602.783023,"duration":0.27537012100219727,"processing":0.2561831474304199,"date_start":"2024-12-03T23:26:42+03:00","date_finish":"2024-12-03T23:26:42+03:00","operating_reset_at":1733258202,"operating":3.8405447006225586}}}