{"url":"https:\/\/5tel.bitrix24.uk\/rest\/13\/bq7arhlt29j4yu6c\/crm.item.list.json","info":{"url":"https:\/\/5tel.bitrix24.uk\/rest\/13\/bq7arhlt29j4yu6c\/crm.item.list.json","content_type":"application\/json; charset=utf-8","http_code":200,"header_size":1031,"request_size":510,"filetime":-1,"ssl_verify_result":0,"redirect_count":0,"total_time":0.955932,"namelookup_time":0.010565,"connect_time":0.205503,"pretransfer_time":0.418908,"size_upload":306,"size_download":12569,"speed_download":13148,"speed_upload":320,"download_content_length":-1,"upload_content_length":306,"starttransfer_time":0.955893,"redirect_time":0,"redirect_url":"","primary_ip":"52.29.77.149","certinfo":[],"primary_port":443,"local_ip":"192.168.29.236","local_port":54460,"http_version":3,"protocol":2,"ssl_verifyresult":0,"scheme":"HTTPS","appconnect_time_us":418793,"connect_time_us":205503,"namelookup_time_us":10565,"pretransfer_time_us":418908,"redirect_time_us":0,"starttransfer_time_us":955893,"total_time_us":955932,"effective_method":"POST"},"params":{"method":"crm.item.list","params":{"entityTypeId":1052,"filter":[],"select":["ID","ufCrm9StatementMonth","ufCrm9Mid","ufCrm9Dba","ufCrm9SalesVolume","ufCrm9SalesTrxn","ufCrm9CommissionAmount","ufCrm7ResponsiblePerson","ufCrm9EarningsLocalCurrency"],"start":250}},"result":{"result":{"items":[{"id":2705,"ufCrm9StatementMonth":"202408 Aug","ufCrm9Mid":2101657331,"ufCrm9Dba":"WE FIX AUTOCENTRES","ufCrm9SalesVolume":0,"ufCrm9SalesTrxn":46,"ufCrm9EarningsLocalCurrency":1,"ufCrm9CommissionAmount":1,"ufCrm7ResponsiblePerson":null},{"id":2707,"ufCrm9StatementMonth":"202408 Aug","ufCrm9Mid":2101657331,"ufCrm9Dba":"WE FIX AUTOCENTRES","ufCrm9SalesVolume":0,"ufCrm9SalesTrxn":21,"ufCrm9EarningsLocalCurrency":1,"ufCrm9CommissionAmount":1,"ufCrm7ResponsiblePerson":null},{"id":2709,"ufCrm9StatementMonth":"202408 Aug","ufCrm9Mid":2101657451,"ufCrm9Dba":"COVENTRY SERVICE STATION","ufCrm9SalesVolume":130,"ufCrm9SalesTrxn":2,"ufCrm9EarningsLocalCurrency":0,"ufCrm9CommissionAmount":0,"ufCrm7ResponsiblePerson":null},{"id":2711,"ufCrm9StatementMonth":"202408 Aug","ufCrm9Mid":2101657451,"ufCrm9Dba":"COVENTRY SERVICE STATION","ufCrm9SalesVolume":4,"ufCrm9SalesTrxn":11,"ufCrm9EarningsLocalCurrency":6,"ufCrm9CommissionAmount":6,"ufCrm7ResponsiblePerson":null},{"id":2713,"ufCrm9StatementMonth":"202408 Aug","ufCrm9Mid":2101657451,"ufCrm9Dba":"COVENTRY SERVICE STATION","ufCrm9SalesVolume":50,"ufCrm9SalesTrxn":1,"ufCrm9EarningsLocalCurrency":0,"ufCrm9CommissionAmount":0,"ufCrm7ResponsiblePerson":null},{"id":2715,"ufCrm9StatementMonth":"202408 Aug","ufCrm9Mid":2101657451,"ufCrm9Dba":"COVENTRY SERVICE STATION","ufCrm9SalesVolume":10,"ufCrm9SalesTrxn":70,"ufCrm9EarningsLocalCurrency":3,"ufCrm9CommissionAmount":3,"ufCrm7ResponsiblePerson":null},{"id":2717,"ufCrm9StatementMonth":"202408 Aug","ufCrm9Mid":2101657451,"ufCrm9Dba":"COVENTRY SERVICE STATION","ufCrm9SalesVolume":0,"ufCrm9SalesTrxn":0,"ufCrm9EarningsLocalCurrency":3,"ufCrm9CommissionAmount":3,"ufCrm7ResponsiblePerson":null},{"id":2719,"ufCrm9StatementMonth":"202408 Aug","ufCrm9Mid":2101657451,"ufCrm9Dba":"COVENTRY SERVICE STATION","ufCrm9SalesVolume":4,"ufCrm9SalesTrxn":23,"ufCrm9EarningsLocalCurrency":3,"ufCrm9CommissionAmount":3,"ufCrm7ResponsiblePerson":null},{"id":2721,"ufCrm9StatementMonth":"202408 Aug","ufCrm9Mid":2101657451,"ufCrm9Dba":"COVENTRY SERVICE STATION","ufCrm9SalesVolume":80,"ufCrm9SalesTrxn":1,"ufCrm9EarningsLocalCurrency":0,"ufCrm9CommissionAmount":0,"ufCrm7ResponsiblePerson":null},{"id":2723,"ufCrm9StatementMonth":"202408 Aug","ufCrm9Mid":2101657451,"ufCrm9Dba":"COVENTRY SERVICE STATION","ufCrm9SalesVolume":1,"ufCrm9SalesTrxn":5,"ufCrm9EarningsLocalCurrency":4,"ufCrm9CommissionAmount":4,"ufCrm7ResponsiblePerson":null},{"id":2725,"ufCrm9StatementMonth":"202408 Aug","ufCrm9Mid":2101657451,"ufCrm9Dba":"COVENTRY SERVICE STATION","ufCrm9SalesVolume":4,"ufCrm9SalesTrxn":19,"ufCrm9EarningsLocalCurrency":3,"ufCrm9CommissionAmount":3,"ufCrm7ResponsiblePerson":null},{"id":2727,"ufCrm9StatementMonth":"202408 Aug","ufCrm9Mid":2101657451,"ufCrm9Dba":"COVENTRY SERVICE STATION","ufCrm9SalesVolume":7,"ufCrm9SalesTrxn":22,"ufCrm9EarningsLocalCurrency":9,"ufCrm9CommissionAmount":9,"ufCrm7ResponsiblePerson":null},{"id":2729,"ufCrm9StatementMonth":"202408 Aug","ufCrm9Mid":2101657451,"ufCrm9Dba":"COVENTRY SERVICE STATION","ufCrm9SalesVolume":24,"ufCrm9SalesTrxn":140,"ufCrm9EarningsLocalCurrency":4,"ufCrm9CommissionAmount":4,"ufCrm7ResponsiblePerson":null},{"id":2731,"ufCrm9StatementMonth":"202408 Aug","ufCrm9Mid":2101657451,"ufCrm9Dba":"COVENTRY SERVICE STATION","ufCrm9SalesVolume":0,"ufCrm9SalesTrxn":27,"ufCrm9EarningsLocalCurrency":1,"ufCrm9CommissionAmount":1,"ufCrm7ResponsiblePerson":null},{"id":2733,"ufCrm9StatementMonth":"202408 Aug","ufCrm9Mid":2101657451,"ufCrm9Dba":"COVENTRY SERVICE STATION","ufCrm9SalesVolume":0,"ufCrm9SalesTrxn":91,"ufCrm9EarningsLocalCurrency":2,"ufCrm9CommissionAmount":2,"ufCrm7ResponsiblePerson":null},{"id":2735,"ufCrm9StatementMonth":"202408 Aug","ufCrm9Mid":2101657451,"ufCrm9Dba":"COVENTRY SERVICE STATION","ufCrm9SalesVolume":0,"ufCrm9SalesTrxn":182,"ufCrm9EarningsLocalCurrency":4,"ufCrm9CommissionAmount":4,"ufCrm7ResponsiblePerson":null},{"id":2737,"ufCrm9StatementMonth":"202408 Aug","ufCrm9Mid":2101657451,"ufCrm9Dba":"COVENTRY SERVICE STATION","ufCrm9SalesVolume":0,"ufCrm9SalesTrxn":20,"ufCrm9EarningsLocalCurrency":0,"ufCrm9CommissionAmount":0,"ufCrm7ResponsiblePerson":null},{"id":2739,"ufCrm9StatementMonth":"202408 Aug","ufCrm9Mid":2101667403,"ufCrm9Dba":"SIGN ARCHITECTS","ufCrm9SalesVolume":0,"ufCrm9SalesTrxn":0,"ufCrm9EarningsLocalCurrency":0,"ufCrm9CommissionAmount":0,"ufCrm7ResponsiblePerson":null},{"id":2741,"ufCrm9StatementMonth":"202408 Aug","ufCrm9Mid":2101668645,"ufCrm9Dba":"QURANI MURKUZ TRUST","ufCrm9SalesVolume":1,"ufCrm9SalesTrxn":91,"ufCrm9EarningsLocalCurrency":1,"ufCrm9CommissionAmount":1,"ufCrm7ResponsiblePerson":null},{"id":2743,"ufCrm9StatementMonth":"202408 Aug","ufCrm9Mid":2101668645,"ufCrm9Dba":"QURANI MURKUZ TRUST","ufCrm9SalesVolume":65,"ufCrm9SalesTrxn":6,"ufCrm9EarningsLocalCurrency":0,"ufCrm9CommissionAmount":0,"ufCrm7ResponsiblePerson":null},{"id":2745,"ufCrm9StatementMonth":"202408 Aug","ufCrm9Mid":2101668645,"ufCrm9Dba":"QURANI MURKUZ TRUST","ufCrm9SalesVolume":7,"ufCrm9SalesTrxn":562,"ufCrm9EarningsLocalCurrency":5,"ufCrm9CommissionAmount":5,"ufCrm7ResponsiblePerson":null},{"id":2747,"ufCrm9StatementMonth":"202408 Aug","ufCrm9Mid":2101668645,"ufCrm9Dba":"QURANI MURKUZ TRUST","ufCrm9SalesVolume":80,"ufCrm9SalesTrxn":4,"ufCrm9EarningsLocalCurrency":0,"ufCrm9CommissionAmount":0,"ufCrm7ResponsiblePerson":null},{"id":2749,"ufCrm9StatementMonth":"202408 Aug","ufCrm9Mid":2101668645,"ufCrm9Dba":"QURANI MURKUZ TRUST","ufCrm9SalesVolume":4,"ufCrm9SalesTrxn":389,"ufCrm9EarningsLocalCurrency":2,"ufCrm9CommissionAmount":2,"ufCrm7ResponsiblePerson":null},{"id":2751,"ufCrm9StatementMonth":"202408 Aug","ufCrm9Mid":2101668645,"ufCrm9Dba":"QURANI MURKUZ TRUST","ufCrm9SalesVolume":20,"ufCrm9SalesTrxn":1,"ufCrm9EarningsLocalCurrency":0,"ufCrm9CommissionAmount":0,"ufCrm7ResponsiblePerson":null},{"id":2753,"ufCrm9StatementMonth":"202408 Aug","ufCrm9Mid":2101668645,"ufCrm9Dba":"QURANI MURKUZ TRUST","ufCrm9SalesVolume":0,"ufCrm9SalesTrxn":0,"ufCrm9EarningsLocalCurrency":6,"ufCrm9CommissionAmount":6,"ufCrm7ResponsiblePerson":null},{"id":2755,"ufCrm9StatementMonth":"202408 Aug","ufCrm9Mid":2101668645,"ufCrm9Dba":"QURANI MURKUZ TRUST","ufCrm9SalesVolume":360,"ufCrm9SalesTrxn":23,"ufCrm9EarningsLocalCurrency":1,"ufCrm9CommissionAmount":1,"ufCrm7ResponsiblePerson":null},{"id":2757,"ufCrm9StatementMonth":"202408 Aug","ufCrm9Mid":2101668645,"ufCrm9Dba":"QURANI MURKUZ TRUST","ufCrm9SalesVolume":996,"ufCrm9SalesTrxn":58,"ufCrm9EarningsLocalCurrency":1,"ufCrm9CommissionAmount":1,"ufCrm7ResponsiblePerson":null},{"id":2759,"ufCrm9StatementMonth":"202408 Aug","ufCrm9Mid":2101668645,"ufCrm9Dba":"QURANI MURKUZ TRUST","ufCrm9SalesVolume":10,"ufCrm9SalesTrxn":1,"ufCrm9EarningsLocalCurrency":0,"ufCrm9CommissionAmount":0,"ufCrm7ResponsiblePerson":null},{"id":2761,"ufCrm9StatementMonth":"202408 Aug","ufCrm9Mid":2101668645,"ufCrm9Dba":"QURANI MURKUZ TRUST","ufCrm9SalesVolume":210,"ufCrm9SalesTrxn":9,"ufCrm9EarningsLocalCurrency":1,"ufCrm9CommissionAmount":1,"ufCrm7ResponsiblePerson":null},{"id":2763,"ufCrm9StatementMonth":"202408 Aug","ufCrm9Mid":2101668645,"ufCrm9Dba":"QURANI MURKUZ TRUST","ufCrm9SalesVolume":100,"ufCrm9SalesTrxn":1,"ufCrm9EarningsLocalCurrency":0,"ufCrm9CommissionAmount":0,"ufCrm7ResponsiblePerson":null},{"id":2765,"ufCrm9StatementMonth":"202408 Aug","ufCrm9Mid":2101668645,"ufCrm9Dba":"QURANI MURKUZ TRUST","ufCrm9SalesVolume":455,"ufCrm9SalesTrxn":15,"ufCrm9EarningsLocalCurrency":0,"ufCrm9CommissionAmount":0,"ufCrm7ResponsiblePerson":null},{"id":2767,"ufCrm9StatementMonth":"202408 Aug","ufCrm9Mid":2101668645,"ufCrm9Dba":"QURANI MURKUZ TRUST","ufCrm9SalesVolume":2,"ufCrm9SalesTrxn":1,"ufCrm9EarningsLocalCurrency":0,"ufCrm9CommissionAmount":0,"ufCrm7ResponsiblePerson":null},{"id":2769,"ufCrm9StatementMonth":"202408 Aug","ufCrm9Mid":2101668645,"ufCrm9Dba":"QURANI MURKUZ TRUST","ufCrm9SalesVolume":20,"ufCrm9SalesTrxn":1,"ufCrm9EarningsLocalCurrency":0,"ufCrm9CommissionAmount":0,"ufCrm7ResponsiblePerson":null},{"id":2771,"ufCrm9StatementMonth":"202408 Aug","ufCrm9Mid":2101672626,"ufCrm9Dba":"BRITISH WOOL AND CASHMERE","ufCrm9SalesVolume":96.96,"ufCrm9SalesTrxn":5,"ufCrm9EarningsLocalCurrency":0,"ufCrm9CommissionAmount":0,"ufCrm7ResponsiblePerson":null},{"id":2773,"ufCrm9StatementMonth":"202408 Aug","ufCrm9Mid":2101672626,"ufCrm9Dba":"BRITISH WOOL AND CASHMERE","ufCrm9SalesVolume":0,"ufCrm9SalesTrxn":40,"ufCrm9EarningsLocalCurrency":1,"ufCrm9CommissionAmount":1,"ufCrm7ResponsiblePerson":null},{"id":2775,"ufCrm9StatementMonth":"202408 Aug","ufCrm9Mid":2101672626,"ufCrm9Dba":"BRITISH WOOL AND CASHMERE","ufCrm9SalesVolume":521.94,"ufCrm9SalesTrxn":30,"ufCrm9EarningsLocalCurrency":1,"ufCrm9CommissionAmount":1,"ufCrm7ResponsiblePerson":null},{"id":2777,"ufCrm9StatementMonth":"202408 Aug","ufCrm9Mid":2101672626,"ufCrm9Dba":"BRITISH WOOL AND CASHMERE","ufCrm9SalesVolume":0,"ufCrm9SalesTrxn":0,"ufCrm9EarningsLocalCurrency":11,"ufCrm9CommissionAmount":11,"ufCrm7ResponsiblePerson":null},{"id":2779,"ufCrm9StatementMonth":"202408 Aug","ufCrm9Mid":2101672626,"ufCrm9Dba":"BRITISH WOOL AND CASHMERE","ufCrm9SalesVolume":236.26,"ufCrm9SalesTrxn":15,"ufCrm9EarningsLocalCurrency":0,"ufCrm9CommissionAmount":0,"ufCrm7ResponsiblePerson":null},{"id":2781,"ufCrm9StatementMonth":"202408 Aug","ufCrm9Mid":2101672626,"ufCrm9Dba":"BRITISH WOOL AND CASHMERE","ufCrm9SalesVolume":263.21,"ufCrm9SalesTrxn":23,"ufCrm9EarningsLocalCurrency":1,"ufCrm9CommissionAmount":1,"ufCrm7ResponsiblePerson":null},{"id":2783,"ufCrm9StatementMonth":"202408 Aug","ufCrm9Mid":2101672626,"ufCrm9Dba":"BRITISH WOOL AND CASHMERE","ufCrm9SalesVolume":2.99,"ufCrm9SalesTrxn":1,"ufCrm9EarningsLocalCurrency":0,"ufCrm9CommissionAmount":0,"ufCrm7ResponsiblePerson":null},{"id":2785,"ufCrm9StatementMonth":"202408 Aug","ufCrm9Mid":2101672626,"ufCrm9Dba":"BRITISH WOOL AND CASHMERE","ufCrm9SalesVolume":41.94,"ufCrm9SalesTrxn":2,"ufCrm9EarningsLocalCurrency":0,"ufCrm9CommissionAmount":0,"ufCrm7ResponsiblePerson":null},{"id":2787,"ufCrm9StatementMonth":"202408 Aug","ufCrm9Mid":2101672626,"ufCrm9Dba":"BRITISH WOOL AND CASHMERE","ufCrm9SalesVolume":822.66,"ufCrm9SalesTrxn":50,"ufCrm9EarningsLocalCurrency":2,"ufCrm9CommissionAmount":2,"ufCrm7ResponsiblePerson":null},{"id":2789,"ufCrm9StatementMonth":"202408 Aug","ufCrm9Mid":2101672626,"ufCrm9Dba":"BRITISH WOOL AND CASHMERE","ufCrm9SalesVolume":759.51,"ufCrm9SalesTrxn":70,"ufCrm9EarningsLocalCurrency":1,"ufCrm9CommissionAmount":1,"ufCrm7ResponsiblePerson":null},{"id":2791,"ufCrm9StatementMonth":"202408 Aug","ufCrm9Mid":2101672626,"ufCrm9Dba":"BRITISH WOOL AND CASHMERE","ufCrm9SalesVolume":763.45,"ufCrm9SalesTrxn":49,"ufCrm9EarningsLocalCurrency":2,"ufCrm9CommissionAmount":2,"ufCrm7ResponsiblePerson":null},{"id":2793,"ufCrm9StatementMonth":"202408 Aug","ufCrm9Mid":2101672626,"ufCrm9Dba":"BRITISH WOOL AND CASHMERE","ufCrm9SalesVolume":504.16,"ufCrm9SalesTrxn":39,"ufCrm9EarningsLocalCurrency":0,"ufCrm9CommissionAmount":0,"ufCrm7ResponsiblePerson":null},{"id":2795,"ufCrm9StatementMonth":"202408 Aug","ufCrm9Mid":2101672626,"ufCrm9Dba":"BRITISH WOOL AND CASHMERE","ufCrm9SalesVolume":0,"ufCrm9SalesTrxn":15,"ufCrm9EarningsLocalCurrency":0,"ufCrm9CommissionAmount":0,"ufCrm7ResponsiblePerson":null},{"id":2797,"ufCrm9StatementMonth":"202408 Aug","ufCrm9Mid":2101672626,"ufCrm9Dba":"BRITISH WOOL AND CASHMERE","ufCrm9SalesVolume":0,"ufCrm9SalesTrxn":120,"ufCrm9EarningsLocalCurrency":2,"ufCrm9CommissionAmount":2,"ufCrm7ResponsiblePerson":null},{"id":2799,"ufCrm9StatementMonth":"202408 Aug","ufCrm9Mid":2101672626,"ufCrm9Dba":"BRITISH WOOL AND CASHMERE","ufCrm9SalesVolume":0,"ufCrm9SalesTrxn":1,"ufCrm9EarningsLocalCurrency":0,"ufCrm9CommissionAmount":0,"ufCrm7ResponsiblePerson":null},{"id":2801,"ufCrm9StatementMonth":"202408 Aug","ufCrm9Mid":2101672626,"ufCrm9Dba":"BRITISH WOOL AND CASHMERE","ufCrm9SalesVolume":0,"ufCrm9SalesTrxn":52,"ufCrm9EarningsLocalCurrency":1,"ufCrm9CommissionAmount":1,"ufCrm7ResponsiblePerson":null},{"id":2803,"ufCrm9StatementMonth":"202408 Aug","ufCrm9Mid":2101675965,"ufCrm9Dba":"LANGDON NEWS","ufCrm9SalesVolume":51.84,"ufCrm9SalesTrxn":5,"ufCrm9EarningsLocalCurrency":0,"ufCrm9CommissionAmount":0,"ufCrm7ResponsiblePerson":null}]},"next":300,"total":16162,"time":{"start":1733230664.602401,"finish":1733230664.93414,"duration":0.3317389488220215,"processing":0.3079688549041748,"date_start":"2024-12-03T15:57:44+03:00","date_finish":"2024-12-03T15:57:44+03:00","operating_reset_at":1733231264,"operating":11.551824808120728}}}