{"url":"https:\/\/5tel.bitrix24.uk\/rest\/13\/bq7arhlt29j4yu6c\/crm.item.list.json","info":{"url":"https:\/\/5tel.bitrix24.uk\/rest\/13\/bq7arhlt29j4yu6c\/crm.item.list.json","content_type":"application\/json; charset=utf-8","http_code":200,"header_size":1031,"request_size":510,"filetime":-1,"ssl_verify_result":0,"redirect_count":0,"total_time":1.066521,"namelookup_time":0.003475,"connect_time":0.171844,"pretransfer_time":0.377576,"size_upload":306,"size_download":12558,"speed_download":11774,"speed_upload":286,"download_content_length":-1,"upload_content_length":306,"starttransfer_time":1.066489,"redirect_time":0,"redirect_url":"","primary_ip":"52.29.77.149","certinfo":[],"primary_port":443,"local_ip":"192.168.29.236","local_port":54446,"http_version":3,"protocol":2,"ssl_verifyresult":0,"scheme":"HTTPS","appconnect_time_us":377457,"connect_time_us":171844,"namelookup_time_us":3475,"pretransfer_time_us":377576,"redirect_time_us":0,"starttransfer_time_us":1066489,"total_time_us":1066521,"effective_method":"POST"},"params":{"method":"crm.item.list","params":{"entityTypeId":1052,"filter":[],"select":["ID","ufCrm9StatementMonth","ufCrm9Mid","ufCrm9Dba","ufCrm9SalesVolume","ufCrm9SalesTrxn","ufCrm9CommissionAmount","ufCrm7ResponsiblePerson","ufCrm9EarningsLocalCurrency"],"start":200}},"result":{"result":{"items":[{"id":2605,"ufCrm9StatementMonth":"202408 Aug","ufCrm9Mid":2101614083,"ufCrm9Dba":"YORK GIFTS AND SOUVENIRS","ufCrm9SalesVolume":2,"ufCrm9SalesTrxn":1,"ufCrm9EarningsLocalCurrency":0,"ufCrm9CommissionAmount":0,"ufCrm7ResponsiblePerson":null},{"id":2607,"ufCrm9StatementMonth":"202408 Aug","ufCrm9Mid":2101614083,"ufCrm9Dba":"YORK GIFTS AND SOUVENIRS","ufCrm9SalesVolume":3,"ufCrm9SalesTrxn":197,"ufCrm9EarningsLocalCurrency":6,"ufCrm9CommissionAmount":1.8,"ufCrm7ResponsiblePerson":null},{"id":2609,"ufCrm9StatementMonth":"202408 Aug","ufCrm9Mid":2101614083,"ufCrm9Dba":"YORK GIFTS AND SOUVENIRS","ufCrm9SalesVolume":322.98,"ufCrm9SalesTrxn":30,"ufCrm9EarningsLocalCurrency":1,"ufCrm9CommissionAmount":0.3,"ufCrm7ResponsiblePerson":null},{"id":2611,"ufCrm9StatementMonth":"202408 Aug","ufCrm9Mid":2101614083,"ufCrm9Dba":"YORK GIFTS AND SOUVENIRS","ufCrm9SalesVolume":2,"ufCrm9SalesTrxn":241,"ufCrm9EarningsLocalCurrency":5,"ufCrm9CommissionAmount":1.5,"ufCrm7ResponsiblePerson":null},{"id":2613,"ufCrm9StatementMonth":"202408 Aug","ufCrm9Mid":2101614083,"ufCrm9Dba":"YORK GIFTS AND SOUVENIRS","ufCrm9SalesVolume":2.99,"ufCrm9SalesTrxn":1,"ufCrm9EarningsLocalCurrency":0,"ufCrm9CommissionAmount":0,"ufCrm7ResponsiblePerson":null},{"id":2615,"ufCrm9StatementMonth":"202408 Aug","ufCrm9Mid":2101614083,"ufCrm9Dba":"YORK GIFTS AND SOUVENIRS","ufCrm9SalesVolume":38.96,"ufCrm9SalesTrxn":3,"ufCrm9EarningsLocalCurrency":0,"ufCrm9CommissionAmount":0,"ufCrm7ResponsiblePerson":null},{"id":2617,"ufCrm9StatementMonth":"202408 Aug","ufCrm9Mid":2101614083,"ufCrm9Dba":"YORK GIFTS AND SOUVENIRS","ufCrm9SalesVolume":4,"ufCrm9SalesTrxn":497,"ufCrm9EarningsLocalCurrency":2,"ufCrm9CommissionAmount":0.6,"ufCrm7ResponsiblePerson":null},{"id":2619,"ufCrm9StatementMonth":"202408 Aug","ufCrm9Mid":2101614083,"ufCrm9Dba":"YORK GIFTS AND SOUVENIRS","ufCrm9SalesVolume":0,"ufCrm9SalesTrxn":66,"ufCrm9EarningsLocalCurrency":2,"ufCrm9CommissionAmount":0.6,"ufCrm7ResponsiblePerson":null},{"id":2621,"ufCrm9StatementMonth":"202408 Aug","ufCrm9Mid":2101614083,"ufCrm9Dba":"YORK GIFTS AND SOUVENIRS","ufCrm9SalesVolume":0,"ufCrm9SalesTrxn":275,"ufCrm9EarningsLocalCurrency":6,"ufCrm9CommissionAmount":1.8,"ufCrm7ResponsiblePerson":null},{"id":2623,"ufCrm9StatementMonth":"202408 Aug","ufCrm9Mid":2101614083,"ufCrm9Dba":"YORK GIFTS AND SOUVENIRS","ufCrm9SalesVolume":0,"ufCrm9SalesTrxn":4,"ufCrm9EarningsLocalCurrency":0,"ufCrm9CommissionAmount":0,"ufCrm7ResponsiblePerson":null},{"id":2625,"ufCrm9StatementMonth":"202408 Aug","ufCrm9Mid":2101614083,"ufCrm9Dba":"YORK GIFTS AND SOUVENIRS","ufCrm9SalesVolume":0,"ufCrm9SalesTrxn":753,"ufCrm9EarningsLocalCurrency":18,"ufCrm9CommissionAmount":5.4,"ufCrm7ResponsiblePerson":null},{"id":2627,"ufCrm9StatementMonth":"202408 Aug","ufCrm9Mid":2101614083,"ufCrm9Dba":"YORK GIFTS AND SOUVENIRS","ufCrm9SalesVolume":0,"ufCrm9SalesTrxn":250,"ufCrm9EarningsLocalCurrency":6,"ufCrm9CommissionAmount":1.8,"ufCrm7ResponsiblePerson":null},{"id":2629,"ufCrm9StatementMonth":"202408 Aug","ufCrm9Mid":2101614874,"ufCrm9Dba":"YORK GIFTS AND SOUVENIRS","ufCrm9SalesVolume":0,"ufCrm9SalesTrxn":0,"ufCrm9EarningsLocalCurrency":0,"ufCrm9CommissionAmount":0,"ufCrm7ResponsiblePerson":null},{"id":2631,"ufCrm9StatementMonth":"202408 Aug","ufCrm9Mid":2101631046,"ufCrm9Dba":"BARKINGSIDE KEBABISH","ufCrm9SalesVolume":7,"ufCrm9SalesTrxn":1,"ufCrm9EarningsLocalCurrency":0,"ufCrm9CommissionAmount":0,"ufCrm7ResponsiblePerson":null},{"id":2633,"ufCrm9StatementMonth":"202408 Aug","ufCrm9Mid":2101631046,"ufCrm9Dba":"BARKINGSIDE KEBABISH","ufCrm9SalesVolume":29.8,"ufCrm9SalesTrxn":2,"ufCrm9EarningsLocalCurrency":0,"ufCrm9CommissionAmount":0,"ufCrm7ResponsiblePerson":null},{"id":2635,"ufCrm9StatementMonth":"202408 Aug","ufCrm9Mid":2101631046,"ufCrm9Dba":"BARKINGSIDE KEBABISH","ufCrm9SalesVolume":84.95,"ufCrm9SalesTrxn":7,"ufCrm9EarningsLocalCurrency":0,"ufCrm9CommissionAmount":0,"ufCrm7ResponsiblePerson":null},{"id":2637,"ufCrm9StatementMonth":"202408 Aug","ufCrm9Mid":2101631046,"ufCrm9Dba":"BARKINGSIDE KEBABISH","ufCrm9SalesVolume":33.5,"ufCrm9SalesTrxn":2,"ufCrm9EarningsLocalCurrency":0,"ufCrm9CommissionAmount":0,"ufCrm7ResponsiblePerson":null},{"id":2639,"ufCrm9StatementMonth":"202408 Aug","ufCrm9Mid":2101631046,"ufCrm9Dba":"BARKINGSIDE KEBABISH","ufCrm9SalesVolume":258.7,"ufCrm9SalesTrxn":12,"ufCrm9EarningsLocalCurrency":1,"ufCrm9CommissionAmount":1,"ufCrm7ResponsiblePerson":null},{"id":2641,"ufCrm9StatementMonth":"202408 Aug","ufCrm9Mid":2101631046,"ufCrm9Dba":"BARKINGSIDE KEBABISH","ufCrm9SalesVolume":0,"ufCrm9SalesTrxn":0,"ufCrm9EarningsLocalCurrency":1,"ufCrm9CommissionAmount":1,"ufCrm7ResponsiblePerson":null},{"id":2643,"ufCrm9StatementMonth":"202408 Aug","ufCrm9Mid":2101631046,"ufCrm9Dba":"BARKINGSIDE KEBABISH","ufCrm9SalesVolume":880,"ufCrm9SalesTrxn":73,"ufCrm9EarningsLocalCurrency":1,"ufCrm9CommissionAmount":1,"ufCrm7ResponsiblePerson":null},{"id":2645,"ufCrm9StatementMonth":"202408 Aug","ufCrm9Mid":2101631046,"ufCrm9Dba":"BARKINGSIDE KEBABISH","ufCrm9SalesVolume":412.7,"ufCrm9SalesTrxn":33,"ufCrm9EarningsLocalCurrency":0,"ufCrm9CommissionAmount":0,"ufCrm7ResponsiblePerson":null},{"id":2647,"ufCrm9StatementMonth":"202408 Aug","ufCrm9Mid":2101631046,"ufCrm9Dba":"BARKINGSIDE KEBABISH","ufCrm9SalesVolume":24.45,"ufCrm9SalesTrxn":2,"ufCrm9EarningsLocalCurrency":0,"ufCrm9CommissionAmount":0,"ufCrm7ResponsiblePerson":null},{"id":2649,"ufCrm9StatementMonth":"202408 Aug","ufCrm9Mid":2101631046,"ufCrm9Dba":"BARKINGSIDE KEBABISH","ufCrm9SalesVolume":4,"ufCrm9SalesTrxn":331,"ufCrm9EarningsLocalCurrency":5,"ufCrm9CommissionAmount":5,"ufCrm7ResponsiblePerson":null},{"id":2651,"ufCrm9StatementMonth":"202408 Aug","ufCrm9Mid":2101631046,"ufCrm9Dba":"BARKINGSIDE KEBABISH","ufCrm9SalesVolume":1,"ufCrm9SalesTrxn":153,"ufCrm9EarningsLocalCurrency":1,"ufCrm9CommissionAmount":1,"ufCrm7ResponsiblePerson":null},{"id":2653,"ufCrm9StatementMonth":"202408 Aug","ufCrm9Mid":2101631046,"ufCrm9Dba":"BARKINGSIDE KEBABISH","ufCrm9SalesVolume":25,"ufCrm9SalesTrxn":1,"ufCrm9EarningsLocalCurrency":0,"ufCrm9CommissionAmount":0,"ufCrm7ResponsiblePerson":null},{"id":2655,"ufCrm9StatementMonth":"202408 Aug","ufCrm9Mid":2101631046,"ufCrm9Dba":"BARKINGSIDE KEBABISH","ufCrm9SalesVolume":0,"ufCrm9SalesTrxn":77,"ufCrm9EarningsLocalCurrency":2,"ufCrm9CommissionAmount":2,"ufCrm7ResponsiblePerson":null},{"id":2657,"ufCrm9StatementMonth":"202408 Aug","ufCrm9Mid":2101631046,"ufCrm9Dba":"BARKINGSIDE KEBABISH","ufCrm9SalesVolume":0,"ufCrm9SalesTrxn":171,"ufCrm9EarningsLocalCurrency":4,"ufCrm9CommissionAmount":4,"ufCrm7ResponsiblePerson":null},{"id":2659,"ufCrm9StatementMonth":"202408 Aug","ufCrm9Mid":2101631046,"ufCrm9Dba":"BARKINGSIDE KEBABISH","ufCrm9SalesVolume":0,"ufCrm9SalesTrxn":352,"ufCrm9EarningsLocalCurrency":8,"ufCrm9CommissionAmount":8,"ufCrm7ResponsiblePerson":null},{"id":2661,"ufCrm9StatementMonth":"202408 Aug","ufCrm9Mid":2101631046,"ufCrm9Dba":"BARKINGSIDE KEBABISH","ufCrm9SalesVolume":0,"ufCrm9SalesTrxn":38,"ufCrm9EarningsLocalCurrency":1,"ufCrm9CommissionAmount":1,"ufCrm7ResponsiblePerson":null},{"id":2663,"ufCrm9StatementMonth":"202408 Aug","ufCrm9Mid":2101631046,"ufCrm9Dba":"BARKINGSIDE KEBABISH","ufCrm9SalesVolume":87.35,"ufCrm9SalesTrxn":5,"ufCrm9EarningsLocalCurrency":0,"ufCrm9CommissionAmount":0,"ufCrm7ResponsiblePerson":null},{"id":2665,"ufCrm9StatementMonth":"202408 Aug","ufCrm9Mid":2101635406,"ufCrm9Dba":"VIKS PHARMACY","ufCrm9SalesVolume":0,"ufCrm9SalesTrxn":0,"ufCrm9EarningsLocalCurrency":0,"ufCrm9CommissionAmount":0,"ufCrm7ResponsiblePerson":null},{"id":2667,"ufCrm9StatementMonth":"202408 Aug","ufCrm9Mid":2101635406,"ufCrm9Dba":"VIKS PHARMACY","ufCrm9SalesVolume":47.24,"ufCrm9SalesTrxn":8,"ufCrm9EarningsLocalCurrency":0,"ufCrm9CommissionAmount":0,"ufCrm7ResponsiblePerson":null},{"id":2669,"ufCrm9StatementMonth":"202408 Aug","ufCrm9Mid":2101635406,"ufCrm9Dba":"VIKS PHARMACY","ufCrm9SalesVolume":33.77,"ufCrm9SalesTrxn":4,"ufCrm9EarningsLocalCurrency":0,"ufCrm9CommissionAmount":0,"ufCrm7ResponsiblePerson":null},{"id":2671,"ufCrm9StatementMonth":"202408 Aug","ufCrm9Mid":2101635406,"ufCrm9Dba":"VIKS PHARMACY","ufCrm9SalesVolume":388.19,"ufCrm9SalesTrxn":41,"ufCrm9EarningsLocalCurrency":1,"ufCrm9CommissionAmount":1,"ufCrm7ResponsiblePerson":null},{"id":2673,"ufCrm9StatementMonth":"202408 Aug","ufCrm9Mid":2101635406,"ufCrm9Dba":"VIKS PHARMACY","ufCrm9SalesVolume":501.81,"ufCrm9SalesTrxn":71,"ufCrm9EarningsLocalCurrency":0,"ufCrm9CommissionAmount":0,"ufCrm7ResponsiblePerson":null},{"id":2675,"ufCrm9StatementMonth":"202408 Aug","ufCrm9Mid":2101635406,"ufCrm9Dba":"VIKS PHARMACY","ufCrm9SalesVolume":0,"ufCrm9SalesTrxn":9,"ufCrm9EarningsLocalCurrency":0,"ufCrm9CommissionAmount":0,"ufCrm7ResponsiblePerson":null},{"id":2677,"ufCrm9StatementMonth":"202408 Aug","ufCrm9Mid":2101635406,"ufCrm9Dba":"VIKS PHARMACY","ufCrm9SalesVolume":0,"ufCrm9SalesTrxn":42,"ufCrm9EarningsLocalCurrency":1,"ufCrm9CommissionAmount":1,"ufCrm7ResponsiblePerson":null},{"id":2679,"ufCrm9StatementMonth":"202408 Aug","ufCrm9Mid":2101635406,"ufCrm9Dba":"VIKS PHARMACY","ufCrm9SalesVolume":0,"ufCrm9SalesTrxn":72,"ufCrm9EarningsLocalCurrency":2,"ufCrm9CommissionAmount":2,"ufCrm7ResponsiblePerson":null},{"id":2681,"ufCrm9StatementMonth":"202408 Aug","ufCrm9Mid":2101635406,"ufCrm9Dba":"VIKS PHARMACY","ufCrm9SalesVolume":0,"ufCrm9SalesTrxn":3,"ufCrm9EarningsLocalCurrency":0,"ufCrm9CommissionAmount":0,"ufCrm7ResponsiblePerson":null},{"id":2683,"ufCrm9StatementMonth":"202408 Aug","ufCrm9Mid":2101657331,"ufCrm9Dba":"WE FIX AUTOCENTRES","ufCrm9SalesVolume":1,"ufCrm9SalesTrxn":2,"ufCrm9EarningsLocalCurrency":7,"ufCrm9CommissionAmount":7,"ufCrm7ResponsiblePerson":null},{"id":2685,"ufCrm9StatementMonth":"202408 Aug","ufCrm9Mid":2101657331,"ufCrm9Dba":"WE FIX AUTOCENTRES","ufCrm9SalesVolume":704.62,"ufCrm9SalesTrxn":6,"ufCrm9EarningsLocalCurrency":4,"ufCrm9CommissionAmount":4,"ufCrm7ResponsiblePerson":null},{"id":2687,"ufCrm9StatementMonth":"202408 Aug","ufCrm9Mid":2101657331,"ufCrm9Dba":"WE FIX AUTOCENTRES","ufCrm9SalesVolume":12,"ufCrm9SalesTrxn":36,"ufCrm9EarningsLocalCurrency":24,"ufCrm9CommissionAmount":24,"ufCrm7ResponsiblePerson":null},{"id":2689,"ufCrm9StatementMonth":"202408 Aug","ufCrm9Mid":2101657331,"ufCrm9Dba":"WE FIX AUTOCENTRES","ufCrm9SalesVolume":0,"ufCrm9SalesTrxn":0,"ufCrm9EarningsLocalCurrency":0,"ufCrm9CommissionAmount":0,"ufCrm7ResponsiblePerson":null},{"id":2691,"ufCrm9StatementMonth":"202408 Aug","ufCrm9Mid":2101657331,"ufCrm9Dba":"WE FIX AUTOCENTRES","ufCrm9SalesVolume":6,"ufCrm9SalesTrxn":20,"ufCrm9EarningsLocalCurrency":11,"ufCrm9CommissionAmount":11,"ufCrm7ResponsiblePerson":null},{"id":2693,"ufCrm9StatementMonth":"202408 Aug","ufCrm9Mid":2101657331,"ufCrm9Dba":"WE FIX AUTOCENTRES","ufCrm9SalesVolume":645,"ufCrm9SalesTrxn":1,"ufCrm9EarningsLocalCurrency":1,"ufCrm9CommissionAmount":1,"ufCrm7ResponsiblePerson":null},{"id":2695,"ufCrm9StatementMonth":"202408 Aug","ufCrm9Mid":2101657331,"ufCrm9Dba":"WE FIX AUTOCENTRES","ufCrm9SalesVolume":919.7,"ufCrm9SalesTrxn":1,"ufCrm9EarningsLocalCurrency":1,"ufCrm9CommissionAmount":0.2,"ufCrm7ResponsiblePerson":null},{"id":2697,"ufCrm9StatementMonth":"202408 Aug","ufCrm9Mid":2101657331,"ufCrm9Dba":"WE FIX AUTOCENTRES","ufCrm9SalesVolume":5,"ufCrm9SalesTrxn":19,"ufCrm9EarningsLocalCurrency":4,"ufCrm9CommissionAmount":4,"ufCrm7ResponsiblePerson":null},{"id":2699,"ufCrm9StatementMonth":"202408 Aug","ufCrm9Mid":2101657331,"ufCrm9Dba":"WE FIX AUTOCENTRES","ufCrm9SalesVolume":15,"ufCrm9SalesTrxn":44,"ufCrm9EarningsLocalCurrency":13,"ufCrm9CommissionAmount":13,"ufCrm7ResponsiblePerson":null},{"id":2701,"ufCrm9StatementMonth":"202408 Aug","ufCrm9Mid":2101657331,"ufCrm9Dba":"WE FIX AUTOCENTRES","ufCrm9SalesVolume":0,"ufCrm9SalesTrxn":23,"ufCrm9EarningsLocalCurrency":1,"ufCrm9CommissionAmount":1,"ufCrm7ResponsiblePerson":null},{"id":2703,"ufCrm9StatementMonth":"202408 Aug","ufCrm9Mid":2101657331,"ufCrm9Dba":"WE FIX AUTOCENTRES","ufCrm9SalesVolume":0,"ufCrm9SalesTrxn":45,"ufCrm9EarningsLocalCurrency":1,"ufCrm9CommissionAmount":1,"ufCrm7ResponsiblePerson":null}]},"next":250,"total":16162,"time":{"start":1733230653.426086,"finish":1733230653.914205,"duration":0.48811912536621094,"processing":0.36828017234802246,"date_start":"2024-12-03T15:57:33+03:00","date_finish":"2024-12-03T15:57:33+03:00","operating_reset_at":1733231253,"operating":10.543208837509155}}}