{"url":"https:\/\/5tel.bitrix24.uk\/rest\/13\/bq7arhlt29j4yu6c\/crm.item.list.json","info":{"url":"https:\/\/5tel.bitrix24.uk\/rest\/13\/bq7arhlt29j4yu6c\/crm.item.list.json","content_type":"application\/json; charset=utf-8","http_code":200,"header_size":1031,"request_size":510,"filetime":-1,"ssl_verify_result":0,"redirect_count":0,"total_time":1.098144,"namelookup_time":0.004024,"connect_time":0.165373,"pretransfer_time":0.373315,"size_upload":306,"size_download":12101,"speed_download":11019,"speed_upload":278,"download_content_length":-1,"upload_content_length":306,"starttransfer_time":1.098106,"redirect_time":0,"redirect_url":"","primary_ip":"52.29.77.149","certinfo":[],"primary_port":443,"local_ip":"192.168.29.236","local_port":64800,"http_version":3,"protocol":2,"ssl_verifyresult":0,"scheme":"HTTPS","appconnect_time_us":373170,"connect_time_us":165373,"namelookup_time_us":4024,"pretransfer_time_us":373315,"redirect_time_us":0,"starttransfer_time_us":1098106,"total_time_us":1098144,"effective_method":"POST"},"params":{"method":"crm.item.list","params":{"entityTypeId":1052,"filter":[],"select":["ID","ufCrm9StatementMonth","ufCrm9Mid","ufCrm9Dba","ufCrm9SalesVolume","ufCrm9SalesTrxn","ufCrm9CommissionAmount","ufCrm7ResponsiblePerson","ufCrm9EarningsLocalCurrency"],"start":350}},"result":{"result":{"items":[{"id":2905,"ufCrm9StatementMonth":"202408 Aug","ufCrm9Mid":2101685059,"ufCrm9Dba":"CHERON","ufCrm9SalesVolume":0,"ufCrm9SalesTrxn":0,"ufCrm9EarningsLocalCurrency":11,"ufCrm9CommissionAmount":11,"ufCrm7ResponsiblePerson":null},{"id":2907,"ufCrm9StatementMonth":"202408 Aug","ufCrm9Mid":2101685059,"ufCrm9Dba":"CHERON","ufCrm9SalesVolume":1,"ufCrm9SalesTrxn":130,"ufCrm9EarningsLocalCurrency":6,"ufCrm9CommissionAmount":6,"ufCrm7ResponsiblePerson":null},{"id":2909,"ufCrm9StatementMonth":"202408 Aug","ufCrm9Mid":2101685059,"ufCrm9Dba":"CHERON","ufCrm9SalesVolume":1,"ufCrm9SalesTrxn":84,"ufCrm9EarningsLocalCurrency":5,"ufCrm9CommissionAmount":5,"ufCrm7ResponsiblePerson":null},{"id":2911,"ufCrm9StatementMonth":"202408 Aug","ufCrm9Mid":2101685059,"ufCrm9Dba":"CHERON","ufCrm9SalesVolume":162.87,"ufCrm9SalesTrxn":21,"ufCrm9EarningsLocalCurrency":1,"ufCrm9CommissionAmount":1,"ufCrm7ResponsiblePerson":null},{"id":2913,"ufCrm9StatementMonth":"202408 Aug","ufCrm9Mid":2101685059,"ufCrm9Dba":"CHERON","ufCrm9SalesVolume":552.59,"ufCrm9SalesTrxn":58,"ufCrm9EarningsLocalCurrency":1,"ufCrm9CommissionAmount":1,"ufCrm7ResponsiblePerson":null},{"id":2915,"ufCrm9StatementMonth":"202408 Aug","ufCrm9Mid":2101685059,"ufCrm9Dba":"CHERON","ufCrm9SalesVolume":233.98,"ufCrm9SalesTrxn":31,"ufCrm9EarningsLocalCurrency":0,"ufCrm9CommissionAmount":0,"ufCrm7ResponsiblePerson":null},{"id":2917,"ufCrm9StatementMonth":"202408 Aug","ufCrm9Mid":2101685059,"ufCrm9Dba":"CHERON","ufCrm9SalesVolume":7.98,"ufCrm9SalesTrxn":1,"ufCrm9EarningsLocalCurrency":0,"ufCrm9CommissionAmount":0,"ufCrm7ResponsiblePerson":null},{"id":2919,"ufCrm9StatementMonth":"202408 Aug","ufCrm9Mid":2101685059,"ufCrm9Dba":"CHERON","ufCrm9SalesVolume":2,"ufCrm9SalesTrxn":211,"ufCrm9EarningsLocalCurrency":12,"ufCrm9CommissionAmount":12,"ufCrm7ResponsiblePerson":null},{"id":2921,"ufCrm9StatementMonth":"202408 Aug","ufCrm9Mid":2101685059,"ufCrm9Dba":"CHERON","ufCrm9SalesVolume":2,"ufCrm9SalesTrxn":171,"ufCrm9EarningsLocalCurrency":10,"ufCrm9CommissionAmount":10,"ufCrm7ResponsiblePerson":null},{"id":2923,"ufCrm9StatementMonth":"202408 Aug","ufCrm9Mid":2101685059,"ufCrm9Dba":"CHERON","ufCrm9SalesVolume":40.97,"ufCrm9SalesTrxn":1,"ufCrm9EarningsLocalCurrency":0,"ufCrm9CommissionAmount":0,"ufCrm7ResponsiblePerson":null},{"id":2925,"ufCrm9StatementMonth":"202408 Aug","ufCrm9Mid":2101685059,"ufCrm9Dba":"CHERON","ufCrm9SalesVolume":2,"ufCrm9SalesTrxn":274,"ufCrm9EarningsLocalCurrency":1,"ufCrm9CommissionAmount":1,"ufCrm7ResponsiblePerson":null},{"id":2927,"ufCrm9StatementMonth":"202408 Aug","ufCrm9Mid":2101685059,"ufCrm9Dba":"CHERON","ufCrm9SalesVolume":3,"ufCrm9SalesTrxn":504,"ufCrm9EarningsLocalCurrency":3,"ufCrm9CommissionAmount":3,"ufCrm7ResponsiblePerson":null},{"id":2929,"ufCrm9StatementMonth":"202408 Aug","ufCrm9Mid":2101685059,"ufCrm9Dba":"CHERON","ufCrm9SalesVolume":0,"ufCrm9SalesTrxn":60,"ufCrm9EarningsLocalCurrency":1,"ufCrm9CommissionAmount":1,"ufCrm7ResponsiblePerson":null},{"id":2931,"ufCrm9StatementMonth":"202408 Aug","ufCrm9Mid":2101685059,"ufCrm9Dba":"CHERON","ufCrm9SalesVolume":0,"ufCrm9SalesTrxn":287,"ufCrm9EarningsLocalCurrency":4,"ufCrm9CommissionAmount":4,"ufCrm7ResponsiblePerson":null},{"id":2933,"ufCrm9StatementMonth":"202408 Aug","ufCrm9Mid":2101685059,"ufCrm9Dba":"CHERON","ufCrm9SalesVolume":0,"ufCrm9SalesTrxn":1,"ufCrm9EarningsLocalCurrency":0,"ufCrm9CommissionAmount":0,"ufCrm7ResponsiblePerson":null},{"id":2935,"ufCrm9StatementMonth":"202408 Aug","ufCrm9Mid":2101685059,"ufCrm9Dba":"CHERON","ufCrm9SalesVolume":0,"ufCrm9SalesTrxn":728,"ufCrm9EarningsLocalCurrency":11,"ufCrm9CommissionAmount":11,"ufCrm7ResponsiblePerson":null},{"id":2937,"ufCrm9StatementMonth":"202408 Aug","ufCrm9Mid":2101685059,"ufCrm9Dba":"CHERON","ufCrm9SalesVolume":0,"ufCrm9SalesTrxn":216,"ufCrm9EarningsLocalCurrency":3,"ufCrm9CommissionAmount":3,"ufCrm7ResponsiblePerson":null},{"id":2939,"ufCrm9StatementMonth":"202408 Aug","ufCrm9Mid":2101686907,"ufCrm9Dba":"NATHAN STORE","ufCrm9SalesVolume":2.4,"ufCrm9SalesTrxn":1,"ufCrm9EarningsLocalCurrency":0,"ufCrm9CommissionAmount":0,"ufCrm7ResponsiblePerson":null},{"id":2941,"ufCrm9StatementMonth":"202408 Aug","ufCrm9Mid":2101686907,"ufCrm9Dba":"NATHAN STORE","ufCrm9SalesVolume":0,"ufCrm9SalesTrxn":15,"ufCrm9EarningsLocalCurrency":0,"ufCrm9CommissionAmount":0,"ufCrm7ResponsiblePerson":null},{"id":2943,"ufCrm9StatementMonth":"202408 Aug","ufCrm9Mid":2101686907,"ufCrm9Dba":"NATHAN STORE","ufCrm9SalesVolume":1,"ufCrm9SalesTrxn":144,"ufCrm9EarningsLocalCurrency":1,"ufCrm9CommissionAmount":1,"ufCrm7ResponsiblePerson":null},{"id":2945,"ufCrm9StatementMonth":"202408 Aug","ufCrm9Mid":2101686907,"ufCrm9Dba":"NATHAN STORE","ufCrm9SalesVolume":9.99,"ufCrm9SalesTrxn":1,"ufCrm9EarningsLocalCurrency":0,"ufCrm9CommissionAmount":0,"ufCrm7ResponsiblePerson":null},{"id":2947,"ufCrm9StatementMonth":"202408 Aug","ufCrm9Mid":2101686907,"ufCrm9Dba":"NATHAN STORE","ufCrm9SalesVolume":0,"ufCrm9SalesTrxn":0,"ufCrm9EarningsLocalCurrency":0,"ufCrm9CommissionAmount":0,"ufCrm7ResponsiblePerson":null},{"id":2949,"ufCrm9StatementMonth":"202408 Aug","ufCrm9Mid":2101686907,"ufCrm9Dba":"NATHAN STORE","ufCrm9SalesVolume":21.69,"ufCrm9SalesTrxn":1,"ufCrm9EarningsLocalCurrency":0,"ufCrm9CommissionAmount":0,"ufCrm7ResponsiblePerson":null},{"id":2951,"ufCrm9StatementMonth":"202408 Aug","ufCrm9Mid":2101686907,"ufCrm9Dba":"NATHAN STORE","ufCrm9SalesVolume":444.13,"ufCrm9SalesTrxn":36,"ufCrm9EarningsLocalCurrency":1,"ufCrm9CommissionAmount":1,"ufCrm7ResponsiblePerson":null},{"id":2953,"ufCrm9StatementMonth":"202408 Aug","ufCrm9Mid":2101686907,"ufCrm9Dba":"NATHAN STORE","ufCrm9SalesVolume":114.76,"ufCrm9SalesTrxn":8,"ufCrm9EarningsLocalCurrency":1,"ufCrm9CommissionAmount":1,"ufCrm7ResponsiblePerson":null},{"id":2955,"ufCrm9StatementMonth":"202408 Aug","ufCrm9Mid":2101686907,"ufCrm9Dba":"NATHAN STORE","ufCrm9SalesVolume":2.04,"ufCrm9SalesTrxn":1,"ufCrm9EarningsLocalCurrency":0,"ufCrm9CommissionAmount":0,"ufCrm7ResponsiblePerson":null},{"id":2957,"ufCrm9StatementMonth":"202408 Aug","ufCrm9Mid":2101686907,"ufCrm9Dba":"NATHAN STORE","ufCrm9SalesVolume":139.4,"ufCrm9SalesTrxn":13,"ufCrm9EarningsLocalCurrency":0,"ufCrm9CommissionAmount":0,"ufCrm7ResponsiblePerson":null},{"id":2959,"ufCrm9StatementMonth":"202408 Aug","ufCrm9Mid":2101686907,"ufCrm9Dba":"NATHAN STORE","ufCrm9SalesVolume":54.05,"ufCrm9SalesTrxn":2,"ufCrm9EarningsLocalCurrency":0,"ufCrm9CommissionAmount":0,"ufCrm7ResponsiblePerson":null},{"id":2961,"ufCrm9StatementMonth":"202408 Aug","ufCrm9Mid":2101686907,"ufCrm9Dba":"NATHAN STORE","ufCrm9SalesVolume":17.98,"ufCrm9SalesTrxn":1,"ufCrm9EarningsLocalCurrency":0,"ufCrm9CommissionAmount":0,"ufCrm7ResponsiblePerson":null},{"id":2963,"ufCrm9StatementMonth":"202408 Aug","ufCrm9Mid":2101686907,"ufCrm9Dba":"NATHAN STORE","ufCrm9SalesVolume":5,"ufCrm9SalesTrxn":455,"ufCrm9EarningsLocalCurrency":6,"ufCrm9CommissionAmount":6,"ufCrm7ResponsiblePerson":null},{"id":2965,"ufCrm9StatementMonth":"202408 Aug","ufCrm9Mid":2101686907,"ufCrm9Dba":"NATHAN STORE","ufCrm9SalesVolume":0,"ufCrm9SalesTrxn":36,"ufCrm9EarningsLocalCurrency":1,"ufCrm9CommissionAmount":1,"ufCrm7ResponsiblePerson":null},{"id":2967,"ufCrm9StatementMonth":"202408 Aug","ufCrm9Mid":2101686907,"ufCrm9Dba":"NATHAN STORE","ufCrm9SalesVolume":0,"ufCrm9SalesTrxn":163,"ufCrm9EarningsLocalCurrency":2,"ufCrm9CommissionAmount":2,"ufCrm7ResponsiblePerson":null},{"id":2969,"ufCrm9StatementMonth":"202408 Aug","ufCrm9Mid":2101686907,"ufCrm9Dba":"NATHAN STORE","ufCrm9SalesVolume":0,"ufCrm9SalesTrxn":456,"ufCrm9EarningsLocalCurrency":7,"ufCrm9CommissionAmount":7,"ufCrm7ResponsiblePerson":null},{"id":2971,"ufCrm9StatementMonth":"202408 Aug","ufCrm9Mid":2101690290,"ufCrm9Dba":"BEST FOOD MEGA","ufCrm9SalesVolume":21,"ufCrm9SalesTrxn":1,"ufCrm9EarningsLocalCurrency":39,"ufCrm9CommissionAmount":39,"ufCrm7ResponsiblePerson":null},{"id":2973,"ufCrm9StatementMonth":"202408 Aug","ufCrm9Mid":2101690290,"ufCrm9Dba":"BEST FOOD MEGA","ufCrm9SalesVolume":177.03,"ufCrm9SalesTrxn":7,"ufCrm9EarningsLocalCurrency":1,"ufCrm9CommissionAmount":1,"ufCrm7ResponsiblePerson":null},{"id":2975,"ufCrm9StatementMonth":"202408 Aug","ufCrm9Mid":2101690290,"ufCrm9Dba":"BEST FOOD MEGA","ufCrm9SalesVolume":1,"ufCrm9SalesTrxn":45,"ufCrm9EarningsLocalCurrency":6,"ufCrm9CommissionAmount":6,"ufCrm7ResponsiblePerson":null},{"id":2977,"ufCrm9StatementMonth":"202408 Aug","ufCrm9Mid":2101690290,"ufCrm9Dba":"BEST FOOD MEGA","ufCrm9SalesVolume":345.32,"ufCrm9SalesTrxn":14,"ufCrm9EarningsLocalCurrency":2,"ufCrm9CommissionAmount":2,"ufCrm7ResponsiblePerson":null},{"id":2979,"ufCrm9StatementMonth":"202408 Aug","ufCrm9Mid":2101690290,"ufCrm9Dba":"BEST FOOD MEGA","ufCrm9SalesVolume":72.97,"ufCrm9SalesTrxn":3,"ufCrm9EarningsLocalCurrency":0,"ufCrm9CommissionAmount":0,"ufCrm7ResponsiblePerson":null},{"id":2981,"ufCrm9StatementMonth":"202408 Aug","ufCrm9Mid":2101690290,"ufCrm9Dba":"BEST FOOD MEGA","ufCrm9SalesVolume":2,"ufCrm9SalesTrxn":71,"ufCrm9EarningsLocalCurrency":5,"ufCrm9CommissionAmount":5,"ufCrm7ResponsiblePerson":null},{"id":2983,"ufCrm9StatementMonth":"202408 Aug","ufCrm9Mid":2101690290,"ufCrm9Dba":"BEST FOOD MEGA","ufCrm9SalesVolume":38,"ufCrm9SalesTrxn":2,"ufCrm9EarningsLocalCurrency":10,"ufCrm9CommissionAmount":10,"ufCrm7ResponsiblePerson":null},{"id":2985,"ufCrm9StatementMonth":"202408 Aug","ufCrm9Mid":2101690290,"ufCrm9Dba":"BEST FOOD MEGA","ufCrm9SalesVolume":39.98,"ufCrm9SalesTrxn":5,"ufCrm9EarningsLocalCurrency":0,"ufCrm9CommissionAmount":0,"ufCrm7ResponsiblePerson":null},{"id":2987,"ufCrm9StatementMonth":"202408 Aug","ufCrm9Mid":2101690290,"ufCrm9Dba":"BEST FOOD MEGA","ufCrm9SalesVolume":0,"ufCrm9SalesTrxn":0,"ufCrm9EarningsLocalCurrency":18,"ufCrm9CommissionAmount":18,"ufCrm7ResponsiblePerson":null},{"id":2989,"ufCrm9StatementMonth":"202408 Aug","ufCrm9Mid":2101690290,"ufCrm9Dba":"BEST FOOD MEGA","ufCrm9SalesVolume":325.83,"ufCrm9SalesTrxn":16,"ufCrm9EarningsLocalCurrency":2,"ufCrm9CommissionAmount":2,"ufCrm7ResponsiblePerson":null},{"id":2991,"ufCrm9StatementMonth":"202408 Aug","ufCrm9Mid":2101690290,"ufCrm9Dba":"BEST FOOD MEGA","ufCrm9SalesVolume":1,"ufCrm9SalesTrxn":94,"ufCrm9EarningsLocalCurrency":8,"ufCrm9CommissionAmount":8,"ufCrm7ResponsiblePerson":null},{"id":2993,"ufCrm9StatementMonth":"202408 Aug","ufCrm9Mid":2101690290,"ufCrm9Dba":"BEST FOOD MEGA","ufCrm9SalesVolume":13,"ufCrm9SalesTrxn":594,"ufCrm9EarningsLocalCurrency":24,"ufCrm9CommissionAmount":24,"ufCrm7ResponsiblePerson":null},{"id":2995,"ufCrm9StatementMonth":"202408 Aug","ufCrm9Mid":2101690290,"ufCrm9Dba":"BEST FOOD MEGA","ufCrm9SalesVolume":114,"ufCrm9SalesTrxn":6,"ufCrm9EarningsLocalCurrency":88,"ufCrm9CommissionAmount":88,"ufCrm7ResponsiblePerson":null},{"id":2997,"ufCrm9StatementMonth":"202408 Aug","ufCrm9Mid":2101690290,"ufCrm9Dba":"BEST FOOD MEGA","ufCrm9SalesVolume":346.86,"ufCrm9SalesTrxn":20,"ufCrm9EarningsLocalCurrency":2,"ufCrm9CommissionAmount":2,"ufCrm7ResponsiblePerson":null},{"id":2999,"ufCrm9StatementMonth":"202408 Aug","ufCrm9Mid":2101690290,"ufCrm9Dba":"BEST FOOD MEGA","ufCrm9SalesVolume":0,"ufCrm9SalesTrxn":1,"ufCrm9EarningsLocalCurrency":16,"ufCrm9CommissionAmount":16,"ufCrm7ResponsiblePerson":null},{"id":3001,"ufCrm9StatementMonth":"202408 Aug","ufCrm9Mid":2101690290,"ufCrm9Dba":"BEST FOOD MEGA","ufCrm9SalesVolume":0,"ufCrm9SalesTrxn":2,"ufCrm9EarningsLocalCurrency":43,"ufCrm9CommissionAmount":43,"ufCrm7ResponsiblePerson":null},{"id":3003,"ufCrm9StatementMonth":"202408 Aug","ufCrm9Mid":2101690290,"ufCrm9Dba":"BEST FOOD MEGA","ufCrm9SalesVolume":0,"ufCrm9SalesTrxn":6,"ufCrm9EarningsLocalCurrency":105,"ufCrm9CommissionAmount":105,"ufCrm7ResponsiblePerson":null}]},"next":400,"total":16162,"time":{"start":1733232323.890435,"finish":1733232324.335333,"duration":0.4448981285095215,"processing":0.41124510765075684,"date_start":"2024-12-03T16:25:23+03:00","date_finish":"2024-12-03T16:25:24+03:00","operating_reset_at":1733232923,"operating":4.124930143356323}}}