{"url":"https:\/\/5tel.bitrix24.uk\/rest\/13\/bq7arhlt29j4yu6c\/crm.item.list.json","info":{"url":"https:\/\/5tel.bitrix24.uk\/rest\/13\/bq7arhlt29j4yu6c\/crm.item.list.json","content_type":"application\/json; charset=utf-8","http_code":200,"header_size":1031,"request_size":510,"filetime":-1,"ssl_verify_result":0,"redirect_count":0,"total_time":0.989207,"namelookup_time":0.006815,"connect_time":0.196388,"pretransfer_time":0.410059,"size_upload":306,"size_download":12124,"speed_download":12256,"speed_upload":309,"download_content_length":-1,"upload_content_length":306,"starttransfer_time":0.989163,"redirect_time":0,"redirect_url":"","primary_ip":"52.29.77.149","certinfo":[],"primary_port":443,"local_ip":"192.168.29.236","local_port":64780,"http_version":3,"protocol":2,"ssl_verifyresult":0,"scheme":"HTTPS","appconnect_time_us":409943,"connect_time_us":196388,"namelookup_time_us":6815,"pretransfer_time_us":410059,"redirect_time_us":0,"starttransfer_time_us":989163,"total_time_us":989207,"effective_method":"POST"},"params":{"method":"crm.item.list","params":{"entityTypeId":1052,"filter":[],"select":["ID","ufCrm9StatementMonth","ufCrm9Mid","ufCrm9Dba","ufCrm9SalesVolume","ufCrm9SalesTrxn","ufCrm9CommissionAmount","ufCrm7ResponsiblePerson","ufCrm9EarningsLocalCurrency"],"start":300}},"result":{"result":{"items":[{"id":2805,"ufCrm9StatementMonth":"202408 Aug","ufCrm9Mid":2101675965,"ufCrm9Dba":"LANGDON NEWS","ufCrm9SalesVolume":210.82,"ufCrm9SalesTrxn":25,"ufCrm9EarningsLocalCurrency":1,"ufCrm9CommissionAmount":1,"ufCrm7ResponsiblePerson":null},{"id":2807,"ufCrm9StatementMonth":"202408 Aug","ufCrm9Mid":2101675965,"ufCrm9Dba":"LANGDON NEWS","ufCrm9SalesVolume":105.45,"ufCrm9SalesTrxn":14,"ufCrm9EarningsLocalCurrency":0,"ufCrm9CommissionAmount":0,"ufCrm7ResponsiblePerson":null},{"id":2809,"ufCrm9StatementMonth":"202408 Aug","ufCrm9Mid":2101675965,"ufCrm9Dba":"LANGDON NEWS","ufCrm9SalesVolume":4.88,"ufCrm9SalesTrxn":1,"ufCrm9EarningsLocalCurrency":0,"ufCrm9CommissionAmount":0,"ufCrm7ResponsiblePerson":null},{"id":2811,"ufCrm9StatementMonth":"202408 Aug","ufCrm9Mid":2101675965,"ufCrm9Dba":"LANGDON NEWS","ufCrm9SalesVolume":3.28,"ufCrm9SalesTrxn":1,"ufCrm9EarningsLocalCurrency":0,"ufCrm9CommissionAmount":0,"ufCrm7ResponsiblePerson":null},{"id":2813,"ufCrm9StatementMonth":"202408 Aug","ufCrm9Mid":2101675965,"ufCrm9Dba":"LANGDON NEWS","ufCrm9SalesVolume":0,"ufCrm9SalesTrxn":0,"ufCrm9EarningsLocalCurrency":0,"ufCrm9CommissionAmount":0,"ufCrm7ResponsiblePerson":null},{"id":2815,"ufCrm9StatementMonth":"202408 Aug","ufCrm9Mid":2101675965,"ufCrm9Dba":"LANGDON NEWS","ufCrm9SalesVolume":101.4,"ufCrm9SalesTrxn":9,"ufCrm9EarningsLocalCurrency":1,"ufCrm9CommissionAmount":1,"ufCrm7ResponsiblePerson":null},{"id":2817,"ufCrm9StatementMonth":"202408 Aug","ufCrm9Mid":2101675965,"ufCrm9Dba":"LANGDON NEWS","ufCrm9SalesVolume":57,"ufCrm9SalesTrxn":6,"ufCrm9EarningsLocalCurrency":43,"ufCrm9CommissionAmount":43,"ufCrm7ResponsiblePerson":null},{"id":2819,"ufCrm9StatementMonth":"202408 Aug","ufCrm9Mid":2101675965,"ufCrm9Dba":"LANGDON NEWS","ufCrm9SalesVolume":10.43,"ufCrm9SalesTrxn":1,"ufCrm9EarningsLocalCurrency":0,"ufCrm9CommissionAmount":0,"ufCrm7ResponsiblePerson":null},{"id":2821,"ufCrm9StatementMonth":"202408 Aug","ufCrm9Mid":2101675965,"ufCrm9Dba":"LANGDON NEWS","ufCrm9SalesVolume":70.31,"ufCrm9SalesTrxn":3,"ufCrm9EarningsLocalCurrency":0,"ufCrm9CommissionAmount":0,"ufCrm7ResponsiblePerson":null},{"id":2823,"ufCrm9StatementMonth":"202408 Aug","ufCrm9Mid":2101675965,"ufCrm9Dba":"LANGDON NEWS","ufCrm9SalesVolume":1,"ufCrm9SalesTrxn":77,"ufCrm9EarningsLocalCurrency":3,"ufCrm9CommissionAmount":3,"ufCrm7ResponsiblePerson":null},{"id":2825,"ufCrm9StatementMonth":"202408 Aug","ufCrm9Mid":2101675965,"ufCrm9Dba":"LANGDON NEWS","ufCrm9SalesVolume":6,"ufCrm9SalesTrxn":633,"ufCrm9EarningsLocalCurrency":5,"ufCrm9CommissionAmount":5,"ufCrm7ResponsiblePerson":null},{"id":2827,"ufCrm9StatementMonth":"202408 Aug","ufCrm9Mid":2101675965,"ufCrm9Dba":"LANGDON NEWS","ufCrm9SalesVolume":2.05,"ufCrm9SalesTrxn":1,"ufCrm9EarningsLocalCurrency":0,"ufCrm9CommissionAmount":0,"ufCrm7ResponsiblePerson":null},{"id":2829,"ufCrm9StatementMonth":"202408 Aug","ufCrm9Mid":2101675965,"ufCrm9Dba":"LANGDON NEWS","ufCrm9SalesVolume":2,"ufCrm9SalesTrxn":218,"ufCrm9EarningsLocalCurrency":2,"ufCrm9CommissionAmount":2,"ufCrm7ResponsiblePerson":null},{"id":2831,"ufCrm9StatementMonth":"202408 Aug","ufCrm9Mid":2101675965,"ufCrm9Dba":"LANGDON NEWS","ufCrm9SalesVolume":239.7,"ufCrm9SalesTrxn":22,"ufCrm9EarningsLocalCurrency":1,"ufCrm9CommissionAmount":1,"ufCrm7ResponsiblePerson":null},{"id":2833,"ufCrm9StatementMonth":"202408 Aug","ufCrm9Mid":2101675965,"ufCrm9Dba":"LANGDON NEWS","ufCrm9SalesVolume":41.12,"ufCrm9SalesTrxn":6,"ufCrm9EarningsLocalCurrency":0,"ufCrm9CommissionAmount":0,"ufCrm7ResponsiblePerson":null},{"id":2835,"ufCrm9StatementMonth":"202408 Aug","ufCrm9Mid":2101675965,"ufCrm9Dba":"LANGDON NEWS","ufCrm9SalesVolume":78,"ufCrm9SalesTrxn":8,"ufCrm9EarningsLocalCurrency":100,"ufCrm9CommissionAmount":100,"ufCrm7ResponsiblePerson":null},{"id":2837,"ufCrm9StatementMonth":"202408 Aug","ufCrm9Mid":2101676494,"ufCrm9Dba":"CHOIZE","ufCrm9SalesVolume":368.8,"ufCrm9SalesTrxn":15,"ufCrm9EarningsLocalCurrency":1,"ufCrm9CommissionAmount":0.3,"ufCrm7ResponsiblePerson":null},{"id":2839,"ufCrm9StatementMonth":"202408 Aug","ufCrm9Mid":2101676494,"ufCrm9Dba":"CHOIZE","ufCrm9SalesVolume":10,"ufCrm9SalesTrxn":1,"ufCrm9EarningsLocalCurrency":0,"ufCrm9CommissionAmount":0,"ufCrm7ResponsiblePerson":null},{"id":2841,"ufCrm9StatementMonth":"202408 Aug","ufCrm9Mid":2101676494,"ufCrm9Dba":"CHOIZE","ufCrm9SalesVolume":18.2,"ufCrm9SalesTrxn":1,"ufCrm9EarningsLocalCurrency":0,"ufCrm9CommissionAmount":0,"ufCrm7ResponsiblePerson":null},{"id":2843,"ufCrm9StatementMonth":"202408 Aug","ufCrm9Mid":2101676494,"ufCrm9Dba":"CHOIZE","ufCrm9SalesVolume":0,"ufCrm9SalesTrxn":8,"ufCrm9EarningsLocalCurrency":0,"ufCrm9CommissionAmount":0,"ufCrm7ResponsiblePerson":null},{"id":2845,"ufCrm9StatementMonth":"202408 Aug","ufCrm9Mid":2101676494,"ufCrm9Dba":"CHOIZE","ufCrm9SalesVolume":2,"ufCrm9SalesTrxn":133,"ufCrm9EarningsLocalCurrency":1,"ufCrm9CommissionAmount":0.3,"ufCrm7ResponsiblePerson":null},{"id":2847,"ufCrm9StatementMonth":"202408 Aug","ufCrm9Mid":2101676494,"ufCrm9Dba":"CHOIZE","ufCrm9SalesVolume":0,"ufCrm9SalesTrxn":0,"ufCrm9EarningsLocalCurrency":5,"ufCrm9CommissionAmount":1.5,"ufCrm7ResponsiblePerson":null},{"id":2849,"ufCrm9StatementMonth":"202408 Aug","ufCrm9Mid":2101676494,"ufCrm9Dba":"CHOIZE","ufCrm9SalesVolume":119.2,"ufCrm9SalesTrxn":7,"ufCrm9EarningsLocalCurrency":0,"ufCrm9CommissionAmount":0,"ufCrm7ResponsiblePerson":null},{"id":2851,"ufCrm9StatementMonth":"202408 Aug","ufCrm9Mid":2101676494,"ufCrm9Dba":"CHOIZE","ufCrm9SalesVolume":20,"ufCrm9SalesTrxn":1,"ufCrm9EarningsLocalCurrency":0,"ufCrm9CommissionAmount":0,"ufCrm7ResponsiblePerson":null},{"id":2853,"ufCrm9StatementMonth":"202408 Aug","ufCrm9Mid":2101676494,"ufCrm9Dba":"CHOIZE","ufCrm9SalesVolume":2,"ufCrm9SalesTrxn":149,"ufCrm9EarningsLocalCurrency":6,"ufCrm9CommissionAmount":1.8,"ufCrm7ResponsiblePerson":null},{"id":2855,"ufCrm9StatementMonth":"202408 Aug","ufCrm9Mid":2101676494,"ufCrm9Dba":"CHOIZE","ufCrm9SalesVolume":18.4,"ufCrm9SalesTrxn":1,"ufCrm9EarningsLocalCurrency":0,"ufCrm9CommissionAmount":0,"ufCrm7ResponsiblePerson":null},{"id":2857,"ufCrm9StatementMonth":"202408 Aug","ufCrm9Mid":2101676494,"ufCrm9Dba":"CHOIZE","ufCrm9SalesVolume":0,"ufCrm9SalesTrxn":1,"ufCrm9EarningsLocalCurrency":0,"ufCrm9CommissionAmount":0,"ufCrm7ResponsiblePerson":null},{"id":2859,"ufCrm9StatementMonth":"202408 Aug","ufCrm9Mid":2101676494,"ufCrm9Dba":"CHOIZE","ufCrm9SalesVolume":0,"ufCrm9SalesTrxn":16,"ufCrm9EarningsLocalCurrency":0,"ufCrm9CommissionAmount":0,"ufCrm7ResponsiblePerson":null},{"id":2861,"ufCrm9StatementMonth":"202408 Aug","ufCrm9Mid":2101676494,"ufCrm9Dba":"CHOIZE","ufCrm9SalesVolume":0,"ufCrm9SalesTrxn":141,"ufCrm9EarningsLocalCurrency":2,"ufCrm9CommissionAmount":0.6,"ufCrm7ResponsiblePerson":null},{"id":2863,"ufCrm9StatementMonth":"202408 Aug","ufCrm9Mid":2101676494,"ufCrm9Dba":"CHOIZE","ufCrm9SalesVolume":0,"ufCrm9SalesTrxn":154,"ufCrm9EarningsLocalCurrency":2,"ufCrm9CommissionAmount":0.6,"ufCrm7ResponsiblePerson":null},{"id":2865,"ufCrm9StatementMonth":"202408 Aug","ufCrm9Mid":2101678126,"ufCrm9Dba":"KHUSHBOO","ufCrm9SalesVolume":0,"ufCrm9SalesTrxn":0,"ufCrm9EarningsLocalCurrency":1,"ufCrm9CommissionAmount":1,"ufCrm7ResponsiblePerson":null},{"id":2867,"ufCrm9StatementMonth":"202408 Aug","ufCrm9Mid":2101683215,"ufCrm9Dba":"PRO TECH MOTORS","ufCrm9SalesVolume":240,"ufCrm9SalesTrxn":1,"ufCrm9EarningsLocalCurrency":0,"ufCrm9CommissionAmount":0,"ufCrm7ResponsiblePerson":null},{"id":2869,"ufCrm9StatementMonth":"202408 Aug","ufCrm9Mid":2101683215,"ufCrm9Dba":"PRO TECH MOTORS","ufCrm9SalesVolume":1,"ufCrm9SalesTrxn":6,"ufCrm9EarningsLocalCurrency":2,"ufCrm9CommissionAmount":2,"ufCrm7ResponsiblePerson":null},{"id":2871,"ufCrm9StatementMonth":"202408 Aug","ufCrm9Mid":2101683215,"ufCrm9Dba":"PRO TECH MOTORS","ufCrm9SalesVolume":9,"ufCrm9SalesTrxn":55,"ufCrm9EarningsLocalCurrency":3,"ufCrm9CommissionAmount":3,"ufCrm7ResponsiblePerson":null},{"id":2873,"ufCrm9StatementMonth":"202408 Aug","ufCrm9Mid":2101683215,"ufCrm9Dba":"PRO TECH MOTORS","ufCrm9SalesVolume":0,"ufCrm9SalesTrxn":0,"ufCrm9EarningsLocalCurrency":4,"ufCrm9CommissionAmount":4,"ufCrm7ResponsiblePerson":null},{"id":2875,"ufCrm9StatementMonth":"202408 Aug","ufCrm9Mid":2101683215,"ufCrm9Dba":"PRO TECH MOTORS","ufCrm9SalesVolume":40,"ufCrm9SalesTrxn":1,"ufCrm9EarningsLocalCurrency":0,"ufCrm9CommissionAmount":0,"ufCrm7ResponsiblePerson":null},{"id":2877,"ufCrm9StatementMonth":"202408 Aug","ufCrm9Mid":2101683215,"ufCrm9Dba":"PRO TECH MOTORS","ufCrm9SalesVolume":360,"ufCrm9SalesTrxn":1,"ufCrm9EarningsLocalCurrency":2,"ufCrm9CommissionAmount":2,"ufCrm7ResponsiblePerson":null},{"id":2879,"ufCrm9StatementMonth":"202408 Aug","ufCrm9Mid":2101683215,"ufCrm9Dba":"PRO TECH MOTORS","ufCrm9SalesVolume":40,"ufCrm9SalesTrxn":1,"ufCrm9EarningsLocalCurrency":0,"ufCrm9CommissionAmount":0,"ufCrm7ResponsiblePerson":null},{"id":2881,"ufCrm9StatementMonth":"202408 Aug","ufCrm9Mid":2101683215,"ufCrm9Dba":"PRO TECH MOTORS","ufCrm9SalesVolume":9,"ufCrm9SalesTrxn":38,"ufCrm9EarningsLocalCurrency":16,"ufCrm9CommissionAmount":16,"ufCrm7ResponsiblePerson":null},{"id":2883,"ufCrm9StatementMonth":"202408 Aug","ufCrm9Mid":2101683215,"ufCrm9Dba":"PRO TECH MOTORS","ufCrm9SalesVolume":280,"ufCrm9SalesTrxn":1,"ufCrm9EarningsLocalCurrency":1,"ufCrm9CommissionAmount":1,"ufCrm7ResponsiblePerson":null},{"id":2885,"ufCrm9StatementMonth":"202408 Aug","ufCrm9Mid":2101683215,"ufCrm9Dba":"PRO TECH MOTORS","ufCrm9SalesVolume":80,"ufCrm9SalesTrxn":2,"ufCrm9EarningsLocalCurrency":0,"ufCrm9CommissionAmount":0,"ufCrm7ResponsiblePerson":null},{"id":2887,"ufCrm9StatementMonth":"202408 Aug","ufCrm9Mid":2101683215,"ufCrm9Dba":"PRO TECH MOTORS","ufCrm9SalesVolume":730,"ufCrm9SalesTrxn":2,"ufCrm9EarningsLocalCurrency":0,"ufCrm9CommissionAmount":0,"ufCrm7ResponsiblePerson":null},{"id":2889,"ufCrm9StatementMonth":"202408 Aug","ufCrm9Mid":2101683215,"ufCrm9Dba":"PRO TECH MOTORS","ufCrm9SalesVolume":275,"ufCrm9SalesTrxn":2,"ufCrm9EarningsLocalCurrency":0,"ufCrm9CommissionAmount":0,"ufCrm7ResponsiblePerson":null},{"id":2891,"ufCrm9StatementMonth":"202408 Aug","ufCrm9Mid":2101683215,"ufCrm9Dba":"PRO TECH MOTORS","ufCrm9SalesVolume":4,"ufCrm9SalesTrxn":23,"ufCrm9EarningsLocalCurrency":7,"ufCrm9CommissionAmount":7,"ufCrm7ResponsiblePerson":null},{"id":2893,"ufCrm9StatementMonth":"202408 Aug","ufCrm9Mid":2101683215,"ufCrm9Dba":"PRO TECH MOTORS","ufCrm9SalesVolume":13,"ufCrm9SalesTrxn":71,"ufCrm9EarningsLocalCurrency":2,"ufCrm9CommissionAmount":2,"ufCrm7ResponsiblePerson":null},{"id":2895,"ufCrm9StatementMonth":"202408 Aug","ufCrm9Mid":2101683215,"ufCrm9Dba":"PRO TECH MOTORS","ufCrm9SalesVolume":0,"ufCrm9SalesTrxn":40,"ufCrm9EarningsLocalCurrency":1,"ufCrm9CommissionAmount":1,"ufCrm7ResponsiblePerson":null},{"id":2897,"ufCrm9StatementMonth":"202408 Aug","ufCrm9Mid":2101683215,"ufCrm9Dba":"PRO TECH MOTORS","ufCrm9SalesVolume":0,"ufCrm9SalesTrxn":60,"ufCrm9EarningsLocalCurrency":1,"ufCrm9CommissionAmount":1,"ufCrm7ResponsiblePerson":null},{"id":2899,"ufCrm9StatementMonth":"202408 Aug","ufCrm9Mid":2101683215,"ufCrm9Dba":"PRO TECH MOTORS","ufCrm9SalesVolume":0,"ufCrm9SalesTrxn":78,"ufCrm9EarningsLocalCurrency":2,"ufCrm9CommissionAmount":2,"ufCrm7ResponsiblePerson":null},{"id":2901,"ufCrm9StatementMonth":"202408 Aug","ufCrm9Mid":2101683215,"ufCrm9Dba":"PRO TECH MOTORS","ufCrm9SalesVolume":0,"ufCrm9SalesTrxn":28,"ufCrm9EarningsLocalCurrency":1,"ufCrm9CommissionAmount":1,"ufCrm7ResponsiblePerson":null},{"id":2903,"ufCrm9StatementMonth":"202408 Aug","ufCrm9Mid":2101685059,"ufCrm9Dba":"CHERON","ufCrm9SalesVolume":11.96,"ufCrm9SalesTrxn":2,"ufCrm9EarningsLocalCurrency":0,"ufCrm9CommissionAmount":0,"ufCrm7ResponsiblePerson":null}]},"next":350,"total":16162,"time":{"start":1733232322.432256,"finish":1733232322.810837,"duration":0.37858104705810547,"processing":0.3556199073791504,"date_start":"2024-12-03T16:25:22+03:00","date_finish":"2024-12-03T16:25:22+03:00","operating_reset_at":1733232922,"operating":3.713714122772217}}}