{"url":"https:\/\/5tel.bitrix24.uk\/rest\/13\/bq7arhlt29j4yu6c\/crm.item.list.json","info":{"url":"https:\/\/5tel.bitrix24.uk\/rest\/13\/bq7arhlt29j4yu6c\/crm.item.list.json","content_type":"application\/json; charset=utf-8","http_code":200,"header_size":1031,"request_size":497,"filetime":-1,"ssl_verify_result":0,"redirect_count":0,"total_time":1.07157,"namelookup_time":0.034541,"connect_time":0.245917,"pretransfer_time":0.463293,"size_upload":293,"size_download":11837,"speed_download":11046,"speed_upload":273,"download_content_length":-1,"upload_content_length":293,"starttransfer_time":1.071531,"redirect_time":0,"redirect_url":"","primary_ip":"52.29.77.149","certinfo":[],"primary_port":443,"local_ip":"192.168.29.236","local_port":59646,"http_version":3,"protocol":2,"ssl_verifyresult":0,"scheme":"HTTPS","appconnect_time_us":463153,"connect_time_us":245917,"namelookup_time_us":34541,"pretransfer_time_us":463293,"redirect_time_us":0,"starttransfer_time_us":1071531,"total_time_us":1071570,"effective_method":"POST"},"params":{"method":"crm.item.list","params":{"entityTypeId":1052,"filter":[],"select":["ID","ufCrm9StatementMonth","ufCrm9Mid","ufCrm9Dba","ufCrm9SalesVolume","ufCrm9SalesTrxn","ufCrm9CommissionAmount","assignedById","ufCrm9EarningsLocalCurrency"],"start":0}},"result":{"result":{"items":[{"id":2205,"ufCrm9StatementMonth":"202408 Aug","ufCrm9Mid":2101470122,"ufCrm9Dba":"ATKINS PHARMACY","ufCrm9SalesVolume":0,"ufCrm9SalesTrxn":0,"ufCrm9EarningsLocalCurrency":0,"ufCrm9CommissionAmount":0,"assignedById":17},{"id":2207,"ufCrm9StatementMonth":"202408 Aug","ufCrm9Mid":2101496360,"ufCrm9Dba":"J C WISE LIMITED","ufCrm9SalesVolume":253.62,"ufCrm9SalesTrxn":15,"ufCrm9EarningsLocalCurrency":1,"ufCrm9CommissionAmount":1,"assignedById":17},{"id":2209,"ufCrm9StatementMonth":"202408 Aug","ufCrm9Mid":2101496360,"ufCrm9Dba":"J C WISE LIMITED","ufCrm9SalesVolume":31.83,"ufCrm9SalesTrxn":4,"ufCrm9EarningsLocalCurrency":0,"ufCrm9CommissionAmount":0,"assignedById":17},{"id":2211,"ufCrm9StatementMonth":"202408 Aug","ufCrm9Mid":2101496360,"ufCrm9Dba":"J C WISE LIMITED","ufCrm9SalesVolume":0,"ufCrm9SalesTrxn":993,"ufCrm9EarningsLocalCurrency":23,"ufCrm9CommissionAmount":23,"assignedById":17},{"id":2213,"ufCrm9StatementMonth":"202408 Aug","ufCrm9Mid":2101496360,"ufCrm9Dba":"J C WISE LIMITED","ufCrm9SalesVolume":528.9,"ufCrm9SalesTrxn":39,"ufCrm9EarningsLocalCurrency":0,"ufCrm9CommissionAmount":0,"assignedById":17},{"id":2215,"ufCrm9StatementMonth":"202408 Aug","ufCrm9Mid":2101496360,"ufCrm9Dba":"J C WISE LIMITED","ufCrm9SalesVolume":12.74,"ufCrm9SalesTrxn":1,"ufCrm9EarningsLocalCurrency":0,"ufCrm9CommissionAmount":0,"assignedById":17},{"id":2217,"ufCrm9StatementMonth":"202408 Aug","ufCrm9Mid":2101496360,"ufCrm9Dba":"J C WISE LIMITED","ufCrm9SalesVolume":8,"ufCrm9SalesTrxn":725,"ufCrm9EarningsLocalCurrency":14,"ufCrm9CommissionAmount":14,"assignedById":17},{"id":2219,"ufCrm9StatementMonth":"202408 Aug","ufCrm9Mid":2101496360,"ufCrm9Dba":"J C WISE LIMITED","ufCrm9SalesVolume":0,"ufCrm9SalesTrxn":0,"ufCrm9EarningsLocalCurrency":1,"ufCrm9CommissionAmount":1,"assignedById":17},{"id":2221,"ufCrm9StatementMonth":"202408 Aug","ufCrm9Mid":2101496360,"ufCrm9Dba":"J C WISE LIMITED","ufCrm9SalesVolume":68.79,"ufCrm9SalesTrxn":5,"ufCrm9EarningsLocalCurrency":0,"ufCrm9CommissionAmount":0,"assignedById":17},{"id":2223,"ufCrm9StatementMonth":"202408 Aug","ufCrm9Mid":2101496360,"ufCrm9Dba":"J C WISE LIMITED","ufCrm9SalesVolume":1,"ufCrm9SalesTrxn":90,"ufCrm9EarningsLocalCurrency":5,"ufCrm9CommissionAmount":5,"assignedById":17},{"id":2225,"ufCrm9StatementMonth":"202408 Aug","ufCrm9Mid":2101496360,"ufCrm9Dba":"J C WISE LIMITED","ufCrm9SalesVolume":321.39,"ufCrm9SalesTrxn":37,"ufCrm9EarningsLocalCurrency":0,"ufCrm9CommissionAmount":0,"assignedById":17},{"id":2227,"ufCrm9StatementMonth":"202408 Aug","ufCrm9Mid":2101496360,"ufCrm9Dba":"J C WISE LIMITED","ufCrm9SalesVolume":24.79,"ufCrm9SalesTrxn":1,"ufCrm9EarningsLocalCurrency":0,"ufCrm9CommissionAmount":0,"assignedById":17},{"id":2229,"ufCrm9StatementMonth":"202408 Aug","ufCrm9Mid":2101496360,"ufCrm9Dba":"J C WISE LIMITED","ufCrm9SalesVolume":130.52,"ufCrm9SalesTrxn":15,"ufCrm9EarningsLocalCurrency":1,"ufCrm9CommissionAmount":1,"assignedById":17},{"id":2231,"ufCrm9StatementMonth":"202408 Aug","ufCrm9Mid":2101496360,"ufCrm9Dba":"J C WISE LIMITED","ufCrm9SalesVolume":405.33,"ufCrm9SalesTrxn":35,"ufCrm9EarningsLocalCurrency":2,"ufCrm9CommissionAmount":2,"assignedById":17},{"id":2233,"ufCrm9StatementMonth":"202408 Aug","ufCrm9Mid":2101496360,"ufCrm9Dba":"J C WISE LIMITED","ufCrm9SalesVolume":11,"ufCrm9SalesTrxn":958,"ufCrm9EarningsLocalCurrency":22,"ufCrm9CommissionAmount":22,"assignedById":17},{"id":2235,"ufCrm9StatementMonth":"202408 Aug","ufCrm9Mid":2101496360,"ufCrm9Dba":"J C WISE LIMITED","ufCrm9SalesVolume":10.67,"ufCrm9SalesTrxn":2,"ufCrm9EarningsLocalCurrency":0,"ufCrm9CommissionAmount":0,"assignedById":17},{"id":2237,"ufCrm9StatementMonth":"202408 Aug","ufCrm9Mid":2101496360,"ufCrm9Dba":"J C WISE LIMITED","ufCrm9SalesVolume":48.42,"ufCrm9SalesTrxn":5,"ufCrm9EarningsLocalCurrency":0,"ufCrm9CommissionAmount":0,"assignedById":17},{"id":2239,"ufCrm9StatementMonth":"202408 Aug","ufCrm9Mid":2101496360,"ufCrm9Dba":"J C WISE LIMITED","ufCrm9SalesVolume":0,"ufCrm9SalesTrxn":94,"ufCrm9EarningsLocalCurrency":2,"ufCrm9CommissionAmount":2,"assignedById":17},{"id":2241,"ufCrm9StatementMonth":"202408 Aug","ufCrm9Mid":2101496360,"ufCrm9Dba":"J C WISE LIMITED","ufCrm9SalesVolume":0,"ufCrm9SalesTrxn":763,"ufCrm9EarningsLocalCurrency":18,"ufCrm9CommissionAmount":18,"assignedById":17},{"id":2243,"ufCrm9StatementMonth":"202408 Aug","ufCrm9Mid":2101496360,"ufCrm9Dba":"J C WISE LIMITED","ufCrm9SalesVolume":0,"ufCrm9SalesTrxn":41,"ufCrm9EarningsLocalCurrency":1,"ufCrm9CommissionAmount":1,"assignedById":17},{"id":2245,"ufCrm9StatementMonth":"202408 Aug","ufCrm9Mid":2101496360,"ufCrm9Dba":"J C WISE LIMITED","ufCrm9SalesVolume":38.14,"ufCrm9SalesTrxn":4,"ufCrm9EarningsLocalCurrency":0,"ufCrm9CommissionAmount":0,"assignedById":17},{"id":2247,"ufCrm9StatementMonth":"202408 Aug","ufCrm9Mid":2101496360,"ufCrm9Dba":"J C WISE LIMITED","ufCrm9SalesVolume":81.67,"ufCrm9SalesTrxn":6,"ufCrm9EarningsLocalCurrency":0,"ufCrm9CommissionAmount":0,"assignedById":17},{"id":2249,"ufCrm9StatementMonth":"202408 Aug","ufCrm9Mid":2101498203,"ufCrm9Dba":"ARKLE PHARMACY","ufCrm9SalesVolume":51.27,"ufCrm9SalesTrxn":6,"ufCrm9EarningsLocalCurrency":0,"ufCrm9CommissionAmount":0,"assignedById":17},{"id":2251,"ufCrm9StatementMonth":"202408 Aug","ufCrm9Mid":2101498203,"ufCrm9Dba":"ARKLE PHARMACY","ufCrm9SalesVolume":12,"ufCrm9SalesTrxn":1,"ufCrm9EarningsLocalCurrency":23,"ufCrm9CommissionAmount":23,"assignedById":17},{"id":2253,"ufCrm9StatementMonth":"202408 Aug","ufCrm9Mid":2101498203,"ufCrm9Dba":"ARKLE PHARMACY","ufCrm9SalesVolume":255.84,"ufCrm9SalesTrxn":9,"ufCrm9EarningsLocalCurrency":1,"ufCrm9CommissionAmount":1,"assignedById":17},{"id":2255,"ufCrm9StatementMonth":"202408 Aug","ufCrm9Mid":2101498203,"ufCrm9Dba":"ARKLE PHARMACY","ufCrm9SalesVolume":18.57,"ufCrm9SalesTrxn":1,"ufCrm9EarningsLocalCurrency":0,"ufCrm9CommissionAmount":0,"assignedById":17},{"id":2257,"ufCrm9StatementMonth":"202408 Aug","ufCrm9Mid":2101498203,"ufCrm9Dba":"ARKLE PHARMACY","ufCrm9SalesVolume":8,"ufCrm9SalesTrxn":792,"ufCrm9EarningsLocalCurrency":15,"ufCrm9CommissionAmount":15,"assignedById":17},{"id":2259,"ufCrm9StatementMonth":"202408 Aug","ufCrm9Mid":2101498203,"ufCrm9Dba":"ARKLE PHARMACY","ufCrm9SalesVolume":51.1,"ufCrm9SalesTrxn":4,"ufCrm9EarningsLocalCurrency":0,"ufCrm9CommissionAmount":0,"assignedById":17},{"id":2261,"ufCrm9StatementMonth":"202408 Aug","ufCrm9Mid":2101498203,"ufCrm9Dba":"ARKLE PHARMACY","ufCrm9SalesVolume":0,"ufCrm9SalesTrxn":0,"ufCrm9EarningsLocalCurrency":1,"ufCrm9CommissionAmount":1,"assignedById":17},{"id":2263,"ufCrm9StatementMonth":"202408 Aug","ufCrm9Mid":2101498203,"ufCrm9Dba":"ARKLE PHARMACY","ufCrm9SalesVolume":4,"ufCrm9SalesTrxn":126,"ufCrm9EarningsLocalCurrency":18,"ufCrm9CommissionAmount":18,"assignedById":17},{"id":2265,"ufCrm9StatementMonth":"202408 Aug","ufCrm9Mid":2101498203,"ufCrm9Dba":"ARKLE PHARMACY","ufCrm9SalesVolume":88.49,"ufCrm9SalesTrxn":11,"ufCrm9EarningsLocalCurrency":0,"ufCrm9CommissionAmount":0,"assignedById":17},{"id":2267,"ufCrm9StatementMonth":"202408 Aug","ufCrm9Mid":2101498203,"ufCrm9Dba":"ARKLE PHARMACY","ufCrm9SalesVolume":14.72,"ufCrm9SalesTrxn":1,"ufCrm9EarningsLocalCurrency":0,"ufCrm9CommissionAmount":0,"assignedById":17},{"id":2269,"ufCrm9StatementMonth":"202408 Aug","ufCrm9Mid":2101498203,"ufCrm9Dba":"ARKLE PHARMACY","ufCrm9SalesVolume":67.77,"ufCrm9SalesTrxn":7,"ufCrm9EarningsLocalCurrency":0,"ufCrm9CommissionAmount":0,"assignedById":17},{"id":2271,"ufCrm9StatementMonth":"202408 Aug","ufCrm9Mid":2101498203,"ufCrm9Dba":"ARKLE PHARMACY","ufCrm9SalesVolume":240,"ufCrm9SalesTrxn":1,"ufCrm9EarningsLocalCurrency":0,"ufCrm9CommissionAmount":0,"assignedById":17},{"id":2273,"ufCrm9StatementMonth":"202408 Aug","ufCrm9Mid":2101498203,"ufCrm9Dba":"ARKLE PHARMACY","ufCrm9SalesVolume":993.74,"ufCrm9SalesTrxn":79,"ufCrm9EarningsLocalCurrency":4,"ufCrm9CommissionAmount":4,"assignedById":17},{"id":2275,"ufCrm9StatementMonth":"202408 Aug","ufCrm9Mid":2101498203,"ufCrm9Dba":"ARKLE PHARMACY","ufCrm9SalesVolume":250,"ufCrm9SalesTrxn":1,"ufCrm9EarningsLocalCurrency":0,"ufCrm9CommissionAmount":0,"assignedById":17},{"id":2277,"ufCrm9StatementMonth":"202408 Aug","ufCrm9Mid":2101498203,"ufCrm9Dba":"ARKLE PHARMACY","ufCrm9SalesVolume":401.67,"ufCrm9SalesTrxn":12,"ufCrm9EarningsLocalCurrency":2,"ufCrm9CommissionAmount":2,"assignedById":17},{"id":2279,"ufCrm9StatementMonth":"202408 Aug","ufCrm9Mid":2101498203,"ufCrm9Dba":"ARKLE PHARMACY","ufCrm9SalesVolume":391.31,"ufCrm9SalesTrxn":28,"ufCrm9EarningsLocalCurrency":2,"ufCrm9CommissionAmount":2,"assignedById":17},{"id":2281,"ufCrm9StatementMonth":"202408 Aug","ufCrm9Mid":2101498203,"ufCrm9Dba":"ARKLE PHARMACY","ufCrm9SalesVolume":0,"ufCrm9SalesTrxn":128,"ufCrm9EarningsLocalCurrency":3,"ufCrm9CommissionAmount":3,"assignedById":17},{"id":2283,"ufCrm9StatementMonth":"202408 Aug","ufCrm9Mid":2101498203,"ufCrm9Dba":"ARKLE PHARMACY","ufCrm9SalesVolume":0,"ufCrm9SalesTrxn":826,"ufCrm9EarningsLocalCurrency":19,"ufCrm9CommissionAmount":19,"assignedById":17},{"id":2285,"ufCrm9StatementMonth":"202408 Aug","ufCrm9Mid":2101498203,"ufCrm9Dba":"ARKLE PHARMACY","ufCrm9SalesVolume":0,"ufCrm9SalesTrxn":1,"ufCrm9EarningsLocalCurrency":27,"ufCrm9CommissionAmount":27,"assignedById":17},{"id":2287,"ufCrm9StatementMonth":"202408 Aug","ufCrm9Mid":2101498203,"ufCrm9Dba":"ARKLE PHARMACY","ufCrm9SalesVolume":0,"ufCrm9SalesTrxn":96,"ufCrm9EarningsLocalCurrency":2,"ufCrm9CommissionAmount":2,"assignedById":17},{"id":2289,"ufCrm9StatementMonth":"202408 Aug","ufCrm9Mid":2101498203,"ufCrm9Dba":"ARKLE PHARMACY","ufCrm9SalesVolume":3,"ufCrm9SalesTrxn":4,"ufCrm9EarningsLocalCurrency":2,"ufCrm9CommissionAmount":0.4,"assignedById":17},{"id":2291,"ufCrm9StatementMonth":"202408 Aug","ufCrm9Mid":2101502056,"ufCrm9Dba":"BARKINGSIDE FOOD STORE","ufCrm9SalesVolume":4,"ufCrm9SalesTrxn":475,"ufCrm9EarningsLocalCurrency":16,"ufCrm9CommissionAmount":16,"assignedById":17},{"id":2293,"ufCrm9StatementMonth":"202408 Aug","ufCrm9Mid":2101502056,"ufCrm9Dba":"BARKINGSIDE FOOD STORE","ufCrm9SalesVolume":28.34,"ufCrm9SalesTrxn":4,"ufCrm9EarningsLocalCurrency":0,"ufCrm9CommissionAmount":0,"assignedById":17},{"id":2295,"ufCrm9StatementMonth":"202408 Aug","ufCrm9Mid":2101502056,"ufCrm9Dba":"BARKINGSIDE FOOD STORE","ufCrm9SalesVolume":29.24,"ufCrm9SalesTrxn":2,"ufCrm9EarningsLocalCurrency":0,"ufCrm9CommissionAmount":0,"assignedById":17},{"id":2297,"ufCrm9StatementMonth":"202408 Aug","ufCrm9Mid":2101502056,"ufCrm9Dba":"BARKINGSIDE FOOD STORE","ufCrm9SalesVolume":50.67,"ufCrm9SalesTrxn":3,"ufCrm9EarningsLocalCurrency":0,"ufCrm9CommissionAmount":0,"assignedById":17},{"id":2299,"ufCrm9StatementMonth":"202408 Aug","ufCrm9Mid":2101502056,"ufCrm9Dba":"BARKINGSIDE FOOD STORE","ufCrm9SalesVolume":93.97,"ufCrm9SalesTrxn":1,"ufCrm9EarningsLocalCurrency":1,"ufCrm9CommissionAmount":1,"assignedById":17},{"id":2301,"ufCrm9StatementMonth":"202408 Aug","ufCrm9Mid":2101502056,"ufCrm9Dba":"BARKINGSIDE FOOD STORE","ufCrm9SalesVolume":591.42,"ufCrm9SalesTrxn":44,"ufCrm9EarningsLocalCurrency":3,"ufCrm9CommissionAmount":3,"assignedById":17},{"id":2303,"ufCrm9StatementMonth":"202408 Aug","ufCrm9Mid":2101502056,"ufCrm9Dba":"BARKINGSIDE FOOD STORE","ufCrm9SalesVolume":0,"ufCrm9SalesTrxn":5,"ufCrm9EarningsLocalCurrency":120,"ufCrm9CommissionAmount":120,"assignedById":17}]},"next":50,"total":16162,"time":{"start":1733233904.423309,"finish":1733233904.834225,"duration":0.4109158515930176,"processing":0.3790559768676758,"date_start":"2024-12-03T16:51:44+03:00","date_finish":"2024-12-03T16:51:44+03:00","operating_reset_at":1733234504,"operating":1.2782390117645264}}}