{"url":"https:\/\/5tel.bitrix24.uk\/rest\/13\/bq7arhlt29j4yu6c\/crm.item.list.json","info":{"url":"https:\/\/5tel.bitrix24.uk\/rest\/13\/bq7arhlt29j4yu6c\/crm.item.list.json","content_type":"application\/json; charset=utf-8","http_code":200,"header_size":1031,"request_size":510,"filetime":-1,"ssl_verify_result":0,"redirect_count":0,"total_time":1.210138,"namelookup_time":0.001908,"connect_time":0.24145,"pretransfer_time":0.46449,"size_upload":306,"size_download":12534,"speed_download":10357,"speed_upload":252,"download_content_length":-1,"upload_content_length":306,"starttransfer_time":1.210092,"redirect_time":0,"redirect_url":"","primary_ip":"52.29.77.149","certinfo":[],"primary_port":443,"local_ip":"192.168.29.236","local_port":64897,"http_version":3,"protocol":2,"ssl_verifyresult":0,"scheme":"HTTPS","appconnect_time_us":464361,"connect_time_us":241450,"namelookup_time_us":1908,"pretransfer_time_us":464490,"redirect_time_us":0,"starttransfer_time_us":1210092,"total_time_us":1210138,"effective_method":"POST"},"params":{"method":"crm.item.list","params":{"entityTypeId":1052,"filter":[],"select":["ID","ufCrm9StatementMonth","ufCrm9Mid","ufCrm9Dba","ufCrm9SalesVolume","ufCrm9SalesTrxn","ufCrm9CommissionAmount","ufCrm7ResponsiblePerson","ufCrm9EarningsLocalCurrency"],"start":550}},"result":{"result":{"items":[{"id":3305,"ufCrm9StatementMonth":"202408 Aug","ufCrm9Mid":2101734046,"ufCrm9Dba":"POUND RING","ufCrm9SalesVolume":30.4,"ufCrm9SalesTrxn":8,"ufCrm9EarningsLocalCurrency":0,"ufCrm9CommissionAmount":0,"ufCrm7ResponsiblePerson":null},{"id":3307,"ufCrm9StatementMonth":"202408 Aug","ufCrm9Mid":2101734046,"ufCrm9Dba":"POUND RING","ufCrm9SalesVolume":4,"ufCrm9SalesTrxn":692,"ufCrm9EarningsLocalCurrency":5,"ufCrm9CommissionAmount":5,"ufCrm7ResponsiblePerson":null},{"id":3309,"ufCrm9StatementMonth":"202408 Aug","ufCrm9Mid":2101734046,"ufCrm9Dba":"POUND RING","ufCrm9SalesVolume":54.2,"ufCrm9SalesTrxn":3,"ufCrm9EarningsLocalCurrency":0,"ufCrm9CommissionAmount":0,"ufCrm7ResponsiblePerson":null},{"id":3311,"ufCrm9StatementMonth":"202408 Aug","ufCrm9Mid":2101734046,"ufCrm9Dba":"POUND RING","ufCrm9SalesVolume":67.94,"ufCrm9SalesTrxn":9,"ufCrm9EarningsLocalCurrency":0,"ufCrm9CommissionAmount":0,"ufCrm7ResponsiblePerson":null},{"id":3313,"ufCrm9StatementMonth":"202408 Aug","ufCrm9Mid":2101734046,"ufCrm9Dba":"POUND RING","ufCrm9SalesVolume":0,"ufCrm9SalesTrxn":0,"ufCrm9EarningsLocalCurrency":11,"ufCrm9CommissionAmount":11,"ufCrm7ResponsiblePerson":null},{"id":3315,"ufCrm9StatementMonth":"202408 Aug","ufCrm9Mid":2101734046,"ufCrm9Dba":"POUND RING","ufCrm9SalesVolume":2,"ufCrm9SalesTrxn":344,"ufCrm9EarningsLocalCurrency":1,"ufCrm9CommissionAmount":1,"ufCrm7ResponsiblePerson":null},{"id":3317,"ufCrm9StatementMonth":"202408 Aug","ufCrm9Mid":2101734046,"ufCrm9Dba":"POUND RING","ufCrm9SalesVolume":84.43,"ufCrm9SalesTrxn":12,"ufCrm9EarningsLocalCurrency":0,"ufCrm9CommissionAmount":0,"ufCrm7ResponsiblePerson":null},{"id":3319,"ufCrm9StatementMonth":"202408 Aug","ufCrm9Mid":2101734046,"ufCrm9Dba":"POUND RING","ufCrm9SalesVolume":2.88,"ufCrm9SalesTrxn":1,"ufCrm9EarningsLocalCurrency":0,"ufCrm9CommissionAmount":0,"ufCrm7ResponsiblePerson":null},{"id":3321,"ufCrm9StatementMonth":"202408 Aug","ufCrm9Mid":2101734046,"ufCrm9Dba":"POUND RING","ufCrm9SalesVolume":50.92,"ufCrm9SalesTrxn":5,"ufCrm9EarningsLocalCurrency":0,"ufCrm9CommissionAmount":0,"ufCrm7ResponsiblePerson":null},{"id":3323,"ufCrm9StatementMonth":"202408 Aug","ufCrm9Mid":2101734046,"ufCrm9Dba":"POUND RING","ufCrm9SalesVolume":71.7,"ufCrm9SalesTrxn":8,"ufCrm9EarningsLocalCurrency":0,"ufCrm9CommissionAmount":0,"ufCrm7ResponsiblePerson":null},{"id":3325,"ufCrm9StatementMonth":"202408 Aug","ufCrm9Mid":2101734046,"ufCrm9Dba":"POUND RING","ufCrm9SalesVolume":188.04,"ufCrm9SalesTrxn":11,"ufCrm9EarningsLocalCurrency":1,"ufCrm9CommissionAmount":1,"ufCrm7ResponsiblePerson":null},{"id":3327,"ufCrm9StatementMonth":"202408 Aug","ufCrm9Mid":2101734046,"ufCrm9Dba":"POUND RING","ufCrm9SalesVolume":552.46,"ufCrm9SalesTrxn":82,"ufCrm9EarningsLocalCurrency":1,"ufCrm9CommissionAmount":1,"ufCrm7ResponsiblePerson":null},{"id":3329,"ufCrm9StatementMonth":"202408 Aug","ufCrm9Mid":2101734046,"ufCrm9Dba":"POUND RING","ufCrm9SalesVolume":295.71,"ufCrm9SalesTrxn":47,"ufCrm9EarningsLocalCurrency":1,"ufCrm9CommissionAmount":1,"ufCrm7ResponsiblePerson":null},{"id":3331,"ufCrm9StatementMonth":"202408 Aug","ufCrm9Mid":2101734046,"ufCrm9Dba":"POUND RING","ufCrm9SalesVolume":14.97,"ufCrm9SalesTrxn":2,"ufCrm9EarningsLocalCurrency":0,"ufCrm9CommissionAmount":0,"ufCrm7ResponsiblePerson":null},{"id":3333,"ufCrm9StatementMonth":"202408 Aug","ufCrm9Mid":2101734046,"ufCrm9Dba":"POUND RING","ufCrm9SalesVolume":0,"ufCrm9SalesTrxn":86,"ufCrm9EarningsLocalCurrency":1,"ufCrm9CommissionAmount":1,"ufCrm7ResponsiblePerson":null},{"id":3335,"ufCrm9StatementMonth":"202408 Aug","ufCrm9Mid":2101734046,"ufCrm9Dba":"POUND RING","ufCrm9SalesVolume":0,"ufCrm9SalesTrxn":720,"ufCrm9EarningsLocalCurrency":11,"ufCrm9CommissionAmount":11,"ufCrm7ResponsiblePerson":null},{"id":3337,"ufCrm9StatementMonth":"202408 Aug","ufCrm9Mid":2101734046,"ufCrm9Dba":"POUND RING","ufCrm9SalesVolume":0,"ufCrm9SalesTrxn":61,"ufCrm9EarningsLocalCurrency":1,"ufCrm9CommissionAmount":1,"ufCrm7ResponsiblePerson":null},{"id":3339,"ufCrm9StatementMonth":"202408 Aug","ufCrm9Mid":2101735643,"ufCrm9Dba":"M AND S LATE SHOP","ufCrm9SalesVolume":51.74,"ufCrm9SalesTrxn":7,"ufCrm9EarningsLocalCurrency":0,"ufCrm9CommissionAmount":0,"ufCrm7ResponsiblePerson":null},{"id":3341,"ufCrm9StatementMonth":"202408 Aug","ufCrm9Mid":2101735643,"ufCrm9Dba":"M AND S LATE SHOP","ufCrm9SalesVolume":87.62,"ufCrm9SalesTrxn":5,"ufCrm9EarningsLocalCurrency":0,"ufCrm9CommissionAmount":0,"ufCrm7ResponsiblePerson":null},{"id":3343,"ufCrm9StatementMonth":"202408 Aug","ufCrm9Mid":2101735643,"ufCrm9Dba":"M AND S LATE SHOP","ufCrm9SalesVolume":4,"ufCrm9SalesTrxn":494,"ufCrm9EarningsLocalCurrency":4,"ufCrm9CommissionAmount":4,"ufCrm7ResponsiblePerson":null},{"id":3345,"ufCrm9StatementMonth":"202408 Aug","ufCrm9Mid":2101735643,"ufCrm9Dba":"M AND S LATE SHOP","ufCrm9SalesVolume":0,"ufCrm9SalesTrxn":0,"ufCrm9EarningsLocalCurrency":0,"ufCrm9CommissionAmount":0,"ufCrm7ResponsiblePerson":null},{"id":3347,"ufCrm9StatementMonth":"202408 Aug","ufCrm9Mid":2101735643,"ufCrm9Dba":"M AND S LATE SHOP","ufCrm9SalesVolume":315.07,"ufCrm9SalesTrxn":34,"ufCrm9EarningsLocalCurrency":1,"ufCrm9CommissionAmount":1,"ufCrm7ResponsiblePerson":null},{"id":3349,"ufCrm9StatementMonth":"202408 Aug","ufCrm9Mid":2101735643,"ufCrm9Dba":"M AND S LATE SHOP","ufCrm9SalesVolume":46.76,"ufCrm9SalesTrxn":4,"ufCrm9EarningsLocalCurrency":0,"ufCrm9CommissionAmount":0,"ufCrm7ResponsiblePerson":null},{"id":3351,"ufCrm9StatementMonth":"202408 Aug","ufCrm9Mid":2101735643,"ufCrm9Dba":"M AND S LATE SHOP","ufCrm9SalesVolume":20.59,"ufCrm9SalesTrxn":2,"ufCrm9EarningsLocalCurrency":0,"ufCrm9CommissionAmount":0,"ufCrm7ResponsiblePerson":null},{"id":3353,"ufCrm9StatementMonth":"202408 Aug","ufCrm9Mid":2101735643,"ufCrm9Dba":"M AND S LATE SHOP","ufCrm9SalesVolume":3.84,"ufCrm9SalesTrxn":1,"ufCrm9EarningsLocalCurrency":0,"ufCrm9CommissionAmount":0,"ufCrm7ResponsiblePerson":null},{"id":3355,"ufCrm9StatementMonth":"202408 Aug","ufCrm9Mid":2101735643,"ufCrm9Dba":"M AND S LATE SHOP","ufCrm9SalesVolume":122.61,"ufCrm9SalesTrxn":6,"ufCrm9EarningsLocalCurrency":0,"ufCrm9CommissionAmount":0,"ufCrm7ResponsiblePerson":null},{"id":3357,"ufCrm9StatementMonth":"202408 Aug","ufCrm9Mid":2101735643,"ufCrm9Dba":"M AND S LATE SHOP","ufCrm9SalesVolume":8,"ufCrm9SalesTrxn":882,"ufCrm9EarningsLocalCurrency":11,"ufCrm9CommissionAmount":11,"ufCrm7ResponsiblePerson":null},{"id":3359,"ufCrm9StatementMonth":"202408 Aug","ufCrm9Mid":2101735663,"ufCrm9Dba":"BEST SPICY HOUSE","ufCrm9SalesVolume":4,"ufCrm9SalesTrxn":469,"ufCrm9EarningsLocalCurrency":-13,"ufCrm9CommissionAmount":0,"ufCrm7ResponsiblePerson":null},{"id":3361,"ufCrm9StatementMonth":"202408 Aug","ufCrm9Mid":2101735663,"ufCrm9Dba":"BEST SPICY HOUSE","ufCrm9SalesVolume":24,"ufCrm9SalesTrxn":3,"ufCrm9EarningsLocalCurrency":0,"ufCrm9CommissionAmount":0,"ufCrm7ResponsiblePerson":null},{"id":3363,"ufCrm9StatementMonth":"202408 Aug","ufCrm9Mid":2101735663,"ufCrm9Dba":"BEST SPICY HOUSE","ufCrm9SalesVolume":61.3,"ufCrm9SalesTrxn":7,"ufCrm9EarningsLocalCurrency":0,"ufCrm9CommissionAmount":0,"ufCrm7ResponsiblePerson":null},{"id":3365,"ufCrm9StatementMonth":"202408 Aug","ufCrm9Mid":2101735663,"ufCrm9Dba":"BEST SPICY HOUSE","ufCrm9SalesVolume":570,"ufCrm9SalesTrxn":50,"ufCrm9EarningsLocalCurrency":2,"ufCrm9CommissionAmount":0.6,"ufCrm7ResponsiblePerson":null},{"id":3367,"ufCrm9StatementMonth":"202408 Aug","ufCrm9Mid":2101735663,"ufCrm9Dba":"BEST SPICY HOUSE","ufCrm9SalesVolume":0,"ufCrm9SalesTrxn":259,"ufCrm9EarningsLocalCurrency":4,"ufCrm9CommissionAmount":1.2,"ufCrm7ResponsiblePerson":null},{"id":3369,"ufCrm9StatementMonth":"202408 Aug","ufCrm9Mid":2101735663,"ufCrm9Dba":"BEST SPICY HOUSE","ufCrm9SalesVolume":2,"ufCrm9SalesTrxn":244,"ufCrm9EarningsLocalCurrency":4,"ufCrm9CommissionAmount":1.2,"ufCrm7ResponsiblePerson":null},{"id":3371,"ufCrm9StatementMonth":"202408 Aug","ufCrm9Mid":2101735663,"ufCrm9Dba":"BEST SPICY HOUSE","ufCrm9SalesVolume":429.1,"ufCrm9SalesTrxn":30,"ufCrm9EarningsLocalCurrency":-1,"ufCrm9CommissionAmount":0,"ufCrm7ResponsiblePerson":null},{"id":3373,"ufCrm9StatementMonth":"202408 Aug","ufCrm9Mid":2101735663,"ufCrm9Dba":"BEST SPICY HOUSE","ufCrm9SalesVolume":8,"ufCrm9SalesTrxn":1,"ufCrm9EarningsLocalCurrency":5,"ufCrm9CommissionAmount":1.5,"ufCrm7ResponsiblePerson":null},{"id":3375,"ufCrm9StatementMonth":"202408 Aug","ufCrm9Mid":2101735663,"ufCrm9Dba":"BEST SPICY HOUSE","ufCrm9SalesVolume":21.75,"ufCrm9SalesTrxn":3,"ufCrm9EarningsLocalCurrency":0,"ufCrm9CommissionAmount":0,"ufCrm7ResponsiblePerson":null},{"id":3377,"ufCrm9StatementMonth":"202408 Aug","ufCrm9Mid":2101735663,"ufCrm9Dba":"BEST SPICY HOUSE","ufCrm9SalesVolume":0,"ufCrm9SalesTrxn":0,"ufCrm9EarningsLocalCurrency":3,"ufCrm9CommissionAmount":0.9,"ufCrm7ResponsiblePerson":null},{"id":3379,"ufCrm9StatementMonth":"202408 Aug","ufCrm9Mid":2101735663,"ufCrm9Dba":"BEST SPICY HOUSE","ufCrm9SalesVolume":290.17,"ufCrm9SalesTrxn":35,"ufCrm9EarningsLocalCurrency":1,"ufCrm9CommissionAmount":0.3,"ufCrm7ResponsiblePerson":null},{"id":3381,"ufCrm9StatementMonth":"202408 Aug","ufCrm9Mid":2101735663,"ufCrm9Dba":"BEST SPICY HOUSE","ufCrm9SalesVolume":55.5,"ufCrm9SalesTrxn":8,"ufCrm9EarningsLocalCurrency":0,"ufCrm9CommissionAmount":0,"ufCrm7ResponsiblePerson":null},{"id":3383,"ufCrm9StatementMonth":"202408 Aug","ufCrm9Mid":2101735663,"ufCrm9Dba":"BEST SPICY HOUSE","ufCrm9SalesVolume":152.49,"ufCrm9SalesTrxn":27,"ufCrm9EarningsLocalCurrency":1,"ufCrm9CommissionAmount":0.3,"ufCrm7ResponsiblePerson":null},{"id":3385,"ufCrm9StatementMonth":"202408 Aug","ufCrm9Mid":2101735663,"ufCrm9Dba":"BEST SPICY HOUSE","ufCrm9SalesVolume":22,"ufCrm9SalesTrxn":3,"ufCrm9EarningsLocalCurrency":16,"ufCrm9CommissionAmount":4.8,"ufCrm7ResponsiblePerson":null},{"id":3387,"ufCrm9StatementMonth":"202408 Aug","ufCrm9Mid":2101735663,"ufCrm9Dba":"BEST SPICY HOUSE","ufCrm9SalesVolume":19.15,"ufCrm9SalesTrxn":4,"ufCrm9EarningsLocalCurrency":0,"ufCrm9CommissionAmount":0,"ufCrm7ResponsiblePerson":null},{"id":3389,"ufCrm9StatementMonth":"202408 Aug","ufCrm9Mid":2101735663,"ufCrm9Dba":"BEST SPICY HOUSE","ufCrm9SalesVolume":0,"ufCrm9SalesTrxn":485,"ufCrm9EarningsLocalCurrency":7,"ufCrm9CommissionAmount":2.1,"ufCrm7ResponsiblePerson":null},{"id":3391,"ufCrm9StatementMonth":"202408 Aug","ufCrm9Mid":2101735663,"ufCrm9Dba":"BEST SPICY HOUSE","ufCrm9SalesVolume":0,"ufCrm9SalesTrxn":1,"ufCrm9EarningsLocalCurrency":19,"ufCrm9CommissionAmount":5.7,"ufCrm7ResponsiblePerson":null},{"id":3393,"ufCrm9StatementMonth":"202408 Aug","ufCrm9Mid":2101735663,"ufCrm9Dba":"BEST SPICY HOUSE","ufCrm9SalesVolume":0,"ufCrm9SalesTrxn":3,"ufCrm9EarningsLocalCurrency":47,"ufCrm9CommissionAmount":14.1,"ufCrm7ResponsiblePerson":null},{"id":3395,"ufCrm9StatementMonth":"202408 Aug","ufCrm9Mid":2101735663,"ufCrm9Dba":"BEST SPICY HOUSE","ufCrm9SalesVolume":55.4,"ufCrm9SalesTrxn":10,"ufCrm9EarningsLocalCurrency":0,"ufCrm9CommissionAmount":0,"ufCrm7ResponsiblePerson":null},{"id":3397,"ufCrm9StatementMonth":"202408 Aug","ufCrm9Mid":2101742990,"ufCrm9Dba":"COST CUTTER","ufCrm9SalesVolume":51.2,"ufCrm9SalesTrxn":5,"ufCrm9EarningsLocalCurrency":0,"ufCrm9CommissionAmount":0,"ufCrm7ResponsiblePerson":null},{"id":3399,"ufCrm9StatementMonth":"202408 Aug","ufCrm9Mid":2101742990,"ufCrm9Dba":"COST CUTTER","ufCrm9SalesVolume":7.52,"ufCrm9SalesTrxn":1,"ufCrm9EarningsLocalCurrency":0,"ufCrm9CommissionAmount":0,"ufCrm7ResponsiblePerson":null},{"id":3401,"ufCrm9StatementMonth":"202408 Aug","ufCrm9Mid":2101742990,"ufCrm9Dba":"COST CUTTER","ufCrm9SalesVolume":168.85,"ufCrm9SalesTrxn":25,"ufCrm9EarningsLocalCurrency":1,"ufCrm9CommissionAmount":1,"ufCrm7ResponsiblePerson":null},{"id":3403,"ufCrm9StatementMonth":"202408 Aug","ufCrm9Mid":2101742990,"ufCrm9Dba":"COST CUTTER","ufCrm9SalesVolume":28.98,"ufCrm9SalesTrxn":3,"ufCrm9EarningsLocalCurrency":0,"ufCrm9CommissionAmount":0,"ufCrm7ResponsiblePerson":null}]},"next":600,"total":16162,"time":{"start":1733232331.115471,"finish":1733232331.538192,"duration":0.42272114753723145,"processing":0.3870120048522949,"date_start":"2024-12-03T16:25:31+03:00","date_finish":"2024-12-03T16:25:31+03:00","operating_reset_at":1733232931,"operating":5.624066114425659}}}