{"url":"https:\/\/5tel.bitrix24.uk\/rest\/13\/bq7arhlt29j4yu6c\/crm.item.list.json","info":{"url":"https:\/\/5tel.bitrix24.uk\/rest\/13\/bq7arhlt29j4yu6c\/crm.item.list.json","content_type":"application\/json; charset=utf-8","http_code":200,"header_size":1031,"request_size":510,"filetime":-1,"ssl_verify_result":0,"redirect_count":0,"total_time":1.056715,"namelookup_time":0.004309,"connect_time":0.179132,"pretransfer_time":0.431606,"size_upload":306,"size_download":12421,"speed_download":11754,"speed_upload":289,"download_content_length":-1,"upload_content_length":306,"starttransfer_time":1.056676,"redirect_time":0,"redirect_url":"","primary_ip":"52.29.77.149","certinfo":[],"primary_port":443,"local_ip":"192.168.29.236","local_port":64870,"http_version":3,"protocol":2,"ssl_verifyresult":0,"scheme":"HTTPS","appconnect_time_us":431463,"connect_time_us":179132,"namelookup_time_us":4309,"pretransfer_time_us":431606,"redirect_time_us":0,"starttransfer_time_us":1056676,"total_time_us":1056715,"effective_method":"POST"},"params":{"method":"crm.item.list","params":{"entityTypeId":1052,"filter":[],"select":["ID","ufCrm9StatementMonth","ufCrm9Mid","ufCrm9Dba","ufCrm9SalesVolume","ufCrm9SalesTrxn","ufCrm9CommissionAmount","ufCrm7ResponsiblePerson","ufCrm9EarningsLocalCurrency"],"start":500}},"result":{"result":{"items":[{"id":3205,"ufCrm9StatementMonth":"202408 Aug","ufCrm9Mid":2101727352,"ufCrm9Dba":"VILLAGE FOODS MARKET","ufCrm9SalesVolume":443.01,"ufCrm9SalesTrxn":61,"ufCrm9EarningsLocalCurrency":1,"ufCrm9CommissionAmount":1,"ufCrm7ResponsiblePerson":null},{"id":3207,"ufCrm9StatementMonth":"202408 Aug","ufCrm9Mid":2101727352,"ufCrm9Dba":"VILLAGE FOODS MARKET","ufCrm9SalesVolume":423.61,"ufCrm9SalesTrxn":68,"ufCrm9EarningsLocalCurrency":2,"ufCrm9CommissionAmount":2,"ufCrm7ResponsiblePerson":null},{"id":3209,"ufCrm9StatementMonth":"202408 Aug","ufCrm9Mid":2101727352,"ufCrm9Dba":"VILLAGE FOODS MARKET","ufCrm9SalesVolume":1,"ufCrm9SalesTrxn":134,"ufCrm9EarningsLocalCurrency":0,"ufCrm9CommissionAmount":0,"ufCrm7ResponsiblePerson":null},{"id":3211,"ufCrm9StatementMonth":"202408 Aug","ufCrm9Mid":2101727352,"ufCrm9Dba":"VILLAGE FOODS MARKET","ufCrm9SalesVolume":202.9,"ufCrm9SalesTrxn":25,"ufCrm9EarningsLocalCurrency":1,"ufCrm9CommissionAmount":1,"ufCrm7ResponsiblePerson":null},{"id":3213,"ufCrm9StatementMonth":"202408 Aug","ufCrm9Mid":2101727352,"ufCrm9Dba":"VILLAGE FOODS MARKET","ufCrm9SalesVolume":368.55,"ufCrm9SalesTrxn":59,"ufCrm9EarningsLocalCurrency":1,"ufCrm9CommissionAmount":1,"ufCrm7ResponsiblePerson":null},{"id":3215,"ufCrm9StatementMonth":"202408 Aug","ufCrm9Mid":2101727352,"ufCrm9Dba":"VILLAGE FOODS MARKET","ufCrm9SalesVolume":76.01,"ufCrm9SalesTrxn":10,"ufCrm9EarningsLocalCurrency":0,"ufCrm9CommissionAmount":0,"ufCrm7ResponsiblePerson":null},{"id":3217,"ufCrm9StatementMonth":"202408 Aug","ufCrm9Mid":2101733474,"ufCrm9Dba":"BEST IN LATE SHOP","ufCrm9SalesVolume":391.57,"ufCrm9SalesTrxn":46,"ufCrm9EarningsLocalCurrency":2,"ufCrm9CommissionAmount":0.6,"ufCrm7ResponsiblePerson":null},{"id":3219,"ufCrm9StatementMonth":"202408 Aug","ufCrm9Mid":2101733474,"ufCrm9Dba":"BEST IN LATE SHOP","ufCrm9SalesVolume":13.22,"ufCrm9SalesTrxn":5,"ufCrm9EarningsLocalCurrency":0,"ufCrm9CommissionAmount":0,"ufCrm7ResponsiblePerson":null},{"id":3221,"ufCrm9StatementMonth":"202408 Aug","ufCrm9Mid":2101733474,"ufCrm9Dba":"BEST IN LATE SHOP","ufCrm9SalesVolume":246.88,"ufCrm9SalesTrxn":12,"ufCrm9EarningsLocalCurrency":0,"ufCrm9CommissionAmount":0,"ufCrm7ResponsiblePerson":null},{"id":3223,"ufCrm9StatementMonth":"202408 Aug","ufCrm9Mid":2101733474,"ufCrm9Dba":"BEST IN LATE SHOP","ufCrm9SalesVolume":10,"ufCrm9SalesTrxn":1,"ufCrm9EarningsLocalCurrency":3,"ufCrm9CommissionAmount":0.9,"ufCrm7ResponsiblePerson":null},{"id":3225,"ufCrm9StatementMonth":"202408 Aug","ufCrm9Mid":2101733474,"ufCrm9Dba":"BEST IN LATE SHOP","ufCrm9SalesVolume":0,"ufCrm9SalesTrxn":0,"ufCrm9EarningsLocalCurrency":1,"ufCrm9CommissionAmount":0.3,"ufCrm7ResponsiblePerson":null},{"id":3227,"ufCrm9StatementMonth":"202408 Aug","ufCrm9Mid":2101733474,"ufCrm9Dba":"BEST IN LATE SHOP","ufCrm9SalesVolume":1,"ufCrm9SalesTrxn":123,"ufCrm9EarningsLocalCurrency":1,"ufCrm9CommissionAmount":0.3,"ufCrm7ResponsiblePerson":null},{"id":3229,"ufCrm9StatementMonth":"202408 Aug","ufCrm9Mid":2101733474,"ufCrm9Dba":"BEST IN LATE SHOP","ufCrm9SalesVolume":445.35,"ufCrm9SalesTrxn":39,"ufCrm9EarningsLocalCurrency":0,"ufCrm9CommissionAmount":0,"ufCrm7ResponsiblePerson":null},{"id":3231,"ufCrm9StatementMonth":"202408 Aug","ufCrm9Mid":2101733474,"ufCrm9Dba":"BEST IN LATE SHOP","ufCrm9SalesVolume":146.69,"ufCrm9SalesTrxn":33,"ufCrm9EarningsLocalCurrency":1,"ufCrm9CommissionAmount":0.3,"ufCrm7ResponsiblePerson":null},{"id":3233,"ufCrm9StatementMonth":"202408 Aug","ufCrm9Mid":2101733474,"ufCrm9Dba":"BEST IN LATE SHOP","ufCrm9SalesVolume":34,"ufCrm9SalesTrxn":3,"ufCrm9EarningsLocalCurrency":24,"ufCrm9CommissionAmount":7.2,"ufCrm7ResponsiblePerson":null},{"id":3235,"ufCrm9StatementMonth":"202408 Aug","ufCrm9Mid":2101733690,"ufCrm9Dba":"FRESH ONE","ufCrm9SalesVolume":705.12,"ufCrm9SalesTrxn":58,"ufCrm9EarningsLocalCurrency":3,"ufCrm9CommissionAmount":3,"ufCrm7ResponsiblePerson":null},{"id":3237,"ufCrm9StatementMonth":"202408 Aug","ufCrm9Mid":2101733690,"ufCrm9Dba":"FRESH ONE","ufCrm9SalesVolume":0.79,"ufCrm9SalesTrxn":1,"ufCrm9EarningsLocalCurrency":0,"ufCrm9CommissionAmount":0,"ufCrm7ResponsiblePerson":null},{"id":3239,"ufCrm9StatementMonth":"202408 Aug","ufCrm9Mid":2101733690,"ufCrm9Dba":"FRESH ONE","ufCrm9SalesVolume":2.58,"ufCrm9SalesTrxn":1,"ufCrm9EarningsLocalCurrency":0,"ufCrm9CommissionAmount":0,"ufCrm7ResponsiblePerson":null},{"id":3241,"ufCrm9StatementMonth":"202408 Aug","ufCrm9Mid":2101733690,"ufCrm9Dba":"FRESH ONE","ufCrm9SalesVolume":199.27,"ufCrm9SalesTrxn":27,"ufCrm9EarningsLocalCurrency":1,"ufCrm9CommissionAmount":1,"ufCrm7ResponsiblePerson":null},{"id":3243,"ufCrm9StatementMonth":"202408 Aug","ufCrm9Mid":2101733690,"ufCrm9Dba":"FRESH ONE","ufCrm9SalesVolume":46,"ufCrm9SalesTrxn":5,"ufCrm9EarningsLocalCurrency":32,"ufCrm9CommissionAmount":32,"ufCrm7ResponsiblePerson":null},{"id":3245,"ufCrm9StatementMonth":"202408 Aug","ufCrm9Mid":2101733690,"ufCrm9Dba":"FRESH ONE","ufCrm9SalesVolume":235.94,"ufCrm9SalesTrxn":20,"ufCrm9EarningsLocalCurrency":1,"ufCrm9CommissionAmount":1,"ufCrm7ResponsiblePerson":null},{"id":3247,"ufCrm9StatementMonth":"202408 Aug","ufCrm9Mid":2101733690,"ufCrm9Dba":"FRESH ONE","ufCrm9SalesVolume":23,"ufCrm9SalesTrxn":2,"ufCrm9EarningsLocalCurrency":6,"ufCrm9CommissionAmount":6,"ufCrm7ResponsiblePerson":null},{"id":3249,"ufCrm9StatementMonth":"202408 Aug","ufCrm9Mid":2101733690,"ufCrm9Dba":"FRESH ONE","ufCrm9SalesVolume":0,"ufCrm9SalesTrxn":0,"ufCrm9EarningsLocalCurrency":0,"ufCrm9CommissionAmount":0,"ufCrm7ResponsiblePerson":null},{"id":3251,"ufCrm9StatementMonth":"202408 Aug","ufCrm9Mid":2101733690,"ufCrm9Dba":"FRESH ONE","ufCrm9SalesVolume":1,"ufCrm9SalesTrxn":221,"ufCrm9EarningsLocalCurrency":2,"ufCrm9CommissionAmount":2,"ufCrm7ResponsiblePerson":null},{"id":3253,"ufCrm9StatementMonth":"202408 Aug","ufCrm9Mid":2101733690,"ufCrm9Dba":"FRESH ONE","ufCrm9SalesVolume":28.52,"ufCrm9SalesTrxn":2,"ufCrm9EarningsLocalCurrency":0,"ufCrm9CommissionAmount":0,"ufCrm7ResponsiblePerson":null},{"id":3255,"ufCrm9StatementMonth":"202408 Aug","ufCrm9Mid":2101733690,"ufCrm9Dba":"FRESH ONE","ufCrm9SalesVolume":1,"ufCrm9SalesTrxn":111,"ufCrm9EarningsLocalCurrency":1,"ufCrm9CommissionAmount":1,"ufCrm7ResponsiblePerson":null},{"id":3257,"ufCrm9StatementMonth":"202408 Aug","ufCrm9Mid":2101733690,"ufCrm9Dba":"FRESH ONE","ufCrm9SalesVolume":18.27,"ufCrm9SalesTrxn":2,"ufCrm9EarningsLocalCurrency":0,"ufCrm9CommissionAmount":0,"ufCrm7ResponsiblePerson":null},{"id":3259,"ufCrm9StatementMonth":"202408 Aug","ufCrm9Mid":2101733690,"ufCrm9Dba":"FRESH ONE","ufCrm9SalesVolume":302.33,"ufCrm9SalesTrxn":48,"ufCrm9EarningsLocalCurrency":1,"ufCrm9CommissionAmount":1,"ufCrm7ResponsiblePerson":null},{"id":3261,"ufCrm9StatementMonth":"202408 Aug","ufCrm9Mid":2101733690,"ufCrm9Dba":"FRESH ONE","ufCrm9SalesVolume":209.63,"ufCrm9SalesTrxn":15,"ufCrm9EarningsLocalCurrency":0,"ufCrm9CommissionAmount":0,"ufCrm7ResponsiblePerson":null},{"id":3263,"ufCrm9StatementMonth":"202408 Aug","ufCrm9Mid":2101733768,"ufCrm9Dba":"QP PETROLEUM","ufCrm9SalesVolume":2,"ufCrm9SalesTrxn":105,"ufCrm9EarningsLocalCurrency":7,"ufCrm9CommissionAmount":7,"ufCrm7ResponsiblePerson":null},{"id":3265,"ufCrm9StatementMonth":"202408 Aug","ufCrm9Mid":2101733768,"ufCrm9Dba":"QP PETROLEUM","ufCrm9SalesVolume":368.35,"ufCrm9SalesTrxn":14,"ufCrm9EarningsLocalCurrency":1,"ufCrm9CommissionAmount":1,"ufCrm7ResponsiblePerson":null},{"id":3267,"ufCrm9StatementMonth":"202408 Aug","ufCrm9Mid":2101733768,"ufCrm9Dba":"QP PETROLEUM","ufCrm9SalesVolume":445.6,"ufCrm9SalesTrxn":10,"ufCrm9EarningsLocalCurrency":2,"ufCrm9CommissionAmount":2,"ufCrm7ResponsiblePerson":null},{"id":3269,"ufCrm9StatementMonth":"202408 Aug","ufCrm9Mid":2101733768,"ufCrm9Dba":"QP PETROLEUM","ufCrm9SalesVolume":146.75,"ufCrm9SalesTrxn":3,"ufCrm9EarningsLocalCurrency":1,"ufCrm9CommissionAmount":1,"ufCrm7ResponsiblePerson":null},{"id":3271,"ufCrm9StatementMonth":"202408 Aug","ufCrm9Mid":2101733768,"ufCrm9Dba":"QP PETROLEUM","ufCrm9SalesVolume":4,"ufCrm9SalesTrxn":170,"ufCrm9EarningsLocalCurrency":18,"ufCrm9CommissionAmount":18,"ufCrm7ResponsiblePerson":null},{"id":3273,"ufCrm9StatementMonth":"202408 Aug","ufCrm9Mid":2101733768,"ufCrm9Dba":"QP PETROLEUM","ufCrm9SalesVolume":34.16,"ufCrm9SalesTrxn":1,"ufCrm9EarningsLocalCurrency":0,"ufCrm9CommissionAmount":0,"ufCrm7ResponsiblePerson":null},{"id":3275,"ufCrm9StatementMonth":"202408 Aug","ufCrm9Mid":2101733768,"ufCrm9Dba":"QP PETROLEUM","ufCrm9SalesVolume":0,"ufCrm9SalesTrxn":0,"ufCrm9EarningsLocalCurrency":16,"ufCrm9CommissionAmount":16,"ufCrm7ResponsiblePerson":null},{"id":3277,"ufCrm9StatementMonth":"202408 Aug","ufCrm9Mid":2101733768,"ufCrm9Dba":"QP PETROLEUM","ufCrm9SalesVolume":7,"ufCrm9SalesTrxn":395,"ufCrm9EarningsLocalCurrency":8,"ufCrm9CommissionAmount":8,"ufCrm7ResponsiblePerson":null},{"id":3279,"ufCrm9StatementMonth":"202408 Aug","ufCrm9Mid":2101733768,"ufCrm9Dba":"QP PETROLEUM","ufCrm9SalesVolume":375.62,"ufCrm9SalesTrxn":10,"ufCrm9EarningsLocalCurrency":1,"ufCrm9CommissionAmount":1,"ufCrm7ResponsiblePerson":null},{"id":3281,"ufCrm9StatementMonth":"202408 Aug","ufCrm9Mid":2101733768,"ufCrm9Dba":"QP PETROLEUM","ufCrm9SalesVolume":45.25,"ufCrm9SalesTrxn":3,"ufCrm9EarningsLocalCurrency":0,"ufCrm9CommissionAmount":0,"ufCrm7ResponsiblePerson":null},{"id":3283,"ufCrm9StatementMonth":"202408 Aug","ufCrm9Mid":2101733768,"ufCrm9Dba":"QP PETROLEUM","ufCrm9SalesVolume":2,"ufCrm9SalesTrxn":173,"ufCrm9EarningsLocalCurrency":3,"ufCrm9CommissionAmount":3,"ufCrm7ResponsiblePerson":null},{"id":3285,"ufCrm9StatementMonth":"202408 Aug","ufCrm9Mid":2101733768,"ufCrm9Dba":"QP PETROLEUM","ufCrm9SalesVolume":281.54,"ufCrm9SalesTrxn":16,"ufCrm9EarningsLocalCurrency":1,"ufCrm9CommissionAmount":1,"ufCrm7ResponsiblePerson":null},{"id":3287,"ufCrm9StatementMonth":"202408 Aug","ufCrm9Mid":2101733768,"ufCrm9Dba":"QP PETROLEUM","ufCrm9SalesVolume":21.29,"ufCrm9SalesTrxn":2,"ufCrm9EarningsLocalCurrency":0,"ufCrm9CommissionAmount":0,"ufCrm7ResponsiblePerson":null},{"id":3289,"ufCrm9StatementMonth":"202408 Aug","ufCrm9Mid":2101733768,"ufCrm9Dba":"QP PETROLEUM","ufCrm9SalesVolume":99.46,"ufCrm9SalesTrxn":3,"ufCrm9EarningsLocalCurrency":0,"ufCrm9CommissionAmount":0,"ufCrm7ResponsiblePerson":null},{"id":3291,"ufCrm9StatementMonth":"202408 Aug","ufCrm9Mid":2101733768,"ufCrm9Dba":"QP PETROLEUM","ufCrm9SalesVolume":1,"ufCrm9SalesTrxn":39,"ufCrm9EarningsLocalCurrency":-2,"ufCrm9CommissionAmount":-2,"ufCrm7ResponsiblePerson":null},{"id":3293,"ufCrm9StatementMonth":"202408 Aug","ufCrm9Mid":2101733768,"ufCrm9Dba":"QP PETROLEUM","ufCrm9SalesVolume":104,"ufCrm9SalesTrxn":7,"ufCrm9EarningsLocalCurrency":73,"ufCrm9CommissionAmount":73,"ufCrm7ResponsiblePerson":null},{"id":3295,"ufCrm9StatementMonth":"202408 Aug","ufCrm9Mid":2101733768,"ufCrm9Dba":"QP PETROLEUM","ufCrm9SalesVolume":65,"ufCrm9SalesTrxn":4,"ufCrm9EarningsLocalCurrency":17,"ufCrm9CommissionAmount":17,"ufCrm7ResponsiblePerson":null},{"id":3297,"ufCrm9StatementMonth":"202408 Aug","ufCrm9Mid":2101734046,"ufCrm9Dba":"POUND RING","ufCrm9SalesVolume":31.73,"ufCrm9SalesTrxn":1,"ufCrm9EarningsLocalCurrency":0,"ufCrm9CommissionAmount":0,"ufCrm7ResponsiblePerson":null},{"id":3299,"ufCrm9StatementMonth":"202408 Aug","ufCrm9Mid":2101734046,"ufCrm9Dba":"POUND RING","ufCrm9SalesVolume":193.05,"ufCrm9SalesTrxn":21,"ufCrm9EarningsLocalCurrency":1,"ufCrm9CommissionAmount":1,"ufCrm7ResponsiblePerson":null},{"id":3301,"ufCrm9StatementMonth":"202408 Aug","ufCrm9Mid":2101734046,"ufCrm9Dba":"POUND RING","ufCrm9SalesVolume":6.98,"ufCrm9SalesTrxn":1,"ufCrm9EarningsLocalCurrency":0,"ufCrm9CommissionAmount":0,"ufCrm7ResponsiblePerson":null},{"id":3303,"ufCrm9StatementMonth":"202408 Aug","ufCrm9Mid":2101734046,"ufCrm9Dba":"POUND RING","ufCrm9SalesVolume":0,"ufCrm9SalesTrxn":390,"ufCrm9EarningsLocalCurrency":6,"ufCrm9CommissionAmount":6,"ufCrm7ResponsiblePerson":null}]},"next":550,"total":16162,"time":{"start":1733232329.082145,"finish":1733232329.491123,"duration":0.4089779853820801,"processing":0.38048386573791504,"date_start":"2024-12-03T16:25:29+03:00","date_finish":"2024-12-03T16:25:29+03:00","operating_reset_at":1733232929,"operating":5.237076997756958}}}