{"url":"https:\/\/5tel.bitrix24.uk\/rest\/13\/bq7arhlt29j4yu6c\/crm.item.list.json","info":{"url":"https:\/\/5tel.bitrix24.uk\/rest\/13\/bq7arhlt29j4yu6c\/crm.item.list.json","content_type":"application\/json; charset=utf-8","http_code":200,"header_size":1031,"request_size":510,"filetime":-1,"ssl_verify_result":0,"redirect_count":0,"total_time":1.041194,"namelookup_time":0.001938,"connect_time":0.162286,"pretransfer_time":0.386521,"size_upload":306,"size_download":12118,"speed_download":11638,"speed_upload":293,"download_content_length":-1,"upload_content_length":306,"starttransfer_time":1.041156,"redirect_time":0,"redirect_url":"","primary_ip":"52.29.77.149","certinfo":[],"primary_port":443,"local_ip":"192.168.29.236","local_port":64551,"http_version":3,"protocol":2,"ssl_verifyresult":0,"scheme":"HTTPS","appconnect_time_us":386401,"connect_time_us":162286,"namelookup_time_us":1938,"pretransfer_time_us":386521,"redirect_time_us":0,"starttransfer_time_us":1041156,"total_time_us":1041194,"effective_method":"POST"},"params":{"method":"crm.item.list","params":{"entityTypeId":1052,"filter":[],"select":["ID","ufCrm9StatementMonth","ufCrm9Mid","ufCrm9Dba","ufCrm9SalesVolume","ufCrm9SalesTrxn","ufCrm9CommissionAmount","ufCrm7ResponsiblePerson","ufCrm9EarningsLocalCurrency"],"start":100}},"result":{"result":{"items":[{"id":2405,"ufCrm9StatementMonth":"202408 Aug","ufCrm9Mid":2101590074,"ufCrm9Dba":"BIKERS WEAR","ufCrm9SalesVolume":4,"ufCrm9SalesTrxn":52,"ufCrm9EarningsLocalCurrency":0,"ufCrm9CommissionAmount":0,"ufCrm7ResponsiblePerson":null},{"id":2407,"ufCrm9StatementMonth":"202408 Aug","ufCrm9Mid":2101590074,"ufCrm9Dba":"BIKERS WEAR","ufCrm9SalesVolume":0,"ufCrm9SalesTrxn":0,"ufCrm9EarningsLocalCurrency":1,"ufCrm9CommissionAmount":1,"ufCrm7ResponsiblePerson":null},{"id":2409,"ufCrm9StatementMonth":"202408 Aug","ufCrm9Mid":2101590074,"ufCrm9Dba":"BIKERS WEAR","ufCrm9SalesVolume":480,"ufCrm9SalesTrxn":1,"ufCrm9EarningsLocalCurrency":2,"ufCrm9CommissionAmount":2,"ufCrm7ResponsiblePerson":null},{"id":2411,"ufCrm9StatementMonth":"202408 Aug","ufCrm9Mid":2101590074,"ufCrm9Dba":"BIKERS WEAR","ufCrm9SalesVolume":420,"ufCrm9SalesTrxn":3,"ufCrm9EarningsLocalCurrency":1,"ufCrm9CommissionAmount":1,"ufCrm7ResponsiblePerson":null},{"id":2413,"ufCrm9StatementMonth":"202408 Aug","ufCrm9Mid":2101590074,"ufCrm9Dba":"BIKERS WEAR","ufCrm9SalesVolume":5,"ufCrm9SalesTrxn":33,"ufCrm9EarningsLocalCurrency":4,"ufCrm9CommissionAmount":4,"ufCrm7ResponsiblePerson":null},{"id":2415,"ufCrm9StatementMonth":"202408 Aug","ufCrm9Mid":2101590074,"ufCrm9Dba":"BIKERS WEAR","ufCrm9SalesVolume":1,"ufCrm9SalesTrxn":6,"ufCrm9EarningsLocalCurrency":5,"ufCrm9CommissionAmount":5,"ufCrm7ResponsiblePerson":null},{"id":2417,"ufCrm9StatementMonth":"202408 Aug","ufCrm9Mid":2101590074,"ufCrm9Dba":"BIKERS WEAR","ufCrm9SalesVolume":2,"ufCrm9SalesTrxn":1,"ufCrm9EarningsLocalCurrency":0,"ufCrm9CommissionAmount":0,"ufCrm7ResponsiblePerson":null},{"id":2419,"ufCrm9StatementMonth":"202408 Aug","ufCrm9Mid":2101590074,"ufCrm9Dba":"BIKERS WEAR","ufCrm9SalesVolume":237.49,"ufCrm9SalesTrxn":2,"ufCrm9EarningsLocalCurrency":0,"ufCrm9CommissionAmount":0,"ufCrm7ResponsiblePerson":null},{"id":2421,"ufCrm9StatementMonth":"202408 Aug","ufCrm9Mid":2101590074,"ufCrm9Dba":"BIKERS WEAR","ufCrm9SalesVolume":300,"ufCrm9SalesTrxn":1,"ufCrm9EarningsLocalCurrency":1,"ufCrm9CommissionAmount":1,"ufCrm7ResponsiblePerson":null},{"id":2423,"ufCrm9StatementMonth":"202408 Aug","ufCrm9Mid":2101590074,"ufCrm9Dba":"BIKERS WEAR","ufCrm9SalesVolume":1,"ufCrm9SalesTrxn":11,"ufCrm9EarningsLocalCurrency":1,"ufCrm9CommissionAmount":1,"ufCrm7ResponsiblePerson":null},{"id":2425,"ufCrm9StatementMonth":"202408 Aug","ufCrm9Mid":2101590074,"ufCrm9Dba":"BIKERS WEAR","ufCrm9SalesVolume":84.98,"ufCrm9SalesTrxn":2,"ufCrm9EarningsLocalCurrency":0,"ufCrm9CommissionAmount":0,"ufCrm7ResponsiblePerson":null},{"id":2427,"ufCrm9StatementMonth":"202408 Aug","ufCrm9Mid":2101590074,"ufCrm9Dba":"BIKERS WEAR","ufCrm9SalesVolume":7,"ufCrm9SalesTrxn":104,"ufCrm9EarningsLocalCurrency":4,"ufCrm9CommissionAmount":4,"ufCrm7ResponsiblePerson":null},{"id":2429,"ufCrm9StatementMonth":"202408 Aug","ufCrm9Mid":2101590074,"ufCrm9Dba":"BIKERS WEAR","ufCrm9SalesVolume":705,"ufCrm9SalesTrxn":2,"ufCrm9EarningsLocalCurrency":2,"ufCrm9CommissionAmount":2,"ufCrm7ResponsiblePerson":null},{"id":2431,"ufCrm9StatementMonth":"202408 Aug","ufCrm9Mid":2101590074,"ufCrm9Dba":"BIKERS WEAR","ufCrm9SalesVolume":62,"ufCrm9SalesTrxn":2,"ufCrm9EarningsLocalCurrency":0,"ufCrm9CommissionAmount":0,"ufCrm7ResponsiblePerson":null},{"id":2433,"ufCrm9StatementMonth":"202408 Aug","ufCrm9Mid":2101597445,"ufCrm9Dba":"WOOD STREET CAFE","ufCrm9SalesVolume":0,"ufCrm9SalesTrxn":0,"ufCrm9EarningsLocalCurrency":0,"ufCrm9CommissionAmount":0,"ufCrm7ResponsiblePerson":null},{"id":2435,"ufCrm9StatementMonth":"202408 Aug","ufCrm9Mid":2101612855,"ufCrm9Dba":"PRIDE OF YORK","ufCrm9SalesVolume":0,"ufCrm9SalesTrxn":0,"ufCrm9EarningsLocalCurrency":0,"ufCrm9CommissionAmount":0,"ufCrm7ResponsiblePerson":null},{"id":2437,"ufCrm9StatementMonth":"202408 Aug","ufCrm9Mid":2101612861,"ufCrm9Dba":"HOUSE OF SPELLS","ufCrm9SalesVolume":36.95,"ufCrm9SalesTrxn":3,"ufCrm9EarningsLocalCurrency":0,"ufCrm9CommissionAmount":0,"ufCrm7ResponsiblePerson":null},{"id":2439,"ufCrm9StatementMonth":"202408 Aug","ufCrm9Mid":2101612861,"ufCrm9Dba":"HOUSE OF SPELLS","ufCrm9SalesVolume":39.99,"ufCrm9SalesTrxn":1,"ufCrm9EarningsLocalCurrency":0,"ufCrm9CommissionAmount":0,"ufCrm7ResponsiblePerson":null},{"id":2441,"ufCrm9StatementMonth":"202408 Aug","ufCrm9Mid":2101612861,"ufCrm9Dba":"HOUSE OF SPELLS","ufCrm9SalesVolume":0,"ufCrm9SalesTrxn":0,"ufCrm9EarningsLocalCurrency":0,"ufCrm9CommissionAmount":0,"ufCrm7ResponsiblePerson":null},{"id":2443,"ufCrm9StatementMonth":"202408 Aug","ufCrm9Mid":2101612861,"ufCrm9Dba":"HOUSE OF SPELLS","ufCrm9SalesVolume":156.16,"ufCrm9SalesTrxn":2,"ufCrm9EarningsLocalCurrency":0,"ufCrm9CommissionAmount":0,"ufCrm7ResponsiblePerson":null},{"id":2445,"ufCrm9StatementMonth":"202408 Aug","ufCrm9Mid":2101612861,"ufCrm9Dba":"HOUSE OF SPELLS","ufCrm9SalesVolume":243.42,"ufCrm9SalesTrxn":7,"ufCrm9EarningsLocalCurrency":0,"ufCrm9CommissionAmount":0,"ufCrm7ResponsiblePerson":null},{"id":2447,"ufCrm9StatementMonth":"202408 Aug","ufCrm9Mid":2101612861,"ufCrm9Dba":"HOUSE OF SPELLS","ufCrm9SalesVolume":25.97,"ufCrm9SalesTrxn":1,"ufCrm9EarningsLocalCurrency":0,"ufCrm9CommissionAmount":0,"ufCrm7ResponsiblePerson":null},{"id":2449,"ufCrm9StatementMonth":"202408 Aug","ufCrm9Mid":2101612861,"ufCrm9Dba":"HOUSE OF SPELLS","ufCrm9SalesVolume":204.44,"ufCrm9SalesTrxn":10,"ufCrm9EarningsLocalCurrency":0,"ufCrm9CommissionAmount":0,"ufCrm7ResponsiblePerson":null},{"id":2451,"ufCrm9StatementMonth":"202408 Aug","ufCrm9Mid":2101612861,"ufCrm9Dba":"HOUSE OF SPELLS","ufCrm9SalesVolume":185.09,"ufCrm9SalesTrxn":4,"ufCrm9EarningsLocalCurrency":0,"ufCrm9CommissionAmount":0,"ufCrm7ResponsiblePerson":null},{"id":2453,"ufCrm9StatementMonth":"202408 Aug","ufCrm9Mid":2101612861,"ufCrm9Dba":"HOUSE OF SPELLS","ufCrm9SalesVolume":76.15,"ufCrm9SalesTrxn":5,"ufCrm9EarningsLocalCurrency":0,"ufCrm9CommissionAmount":0,"ufCrm7ResponsiblePerson":null},{"id":2455,"ufCrm9StatementMonth":"202408 Aug","ufCrm9Mid":2101612861,"ufCrm9Dba":"HOUSE OF SPELLS","ufCrm9SalesVolume":0,"ufCrm9SalesTrxn":2,"ufCrm9EarningsLocalCurrency":0,"ufCrm9CommissionAmount":0,"ufCrm7ResponsiblePerson":null},{"id":2457,"ufCrm9StatementMonth":"202408 Aug","ufCrm9Mid":2101612861,"ufCrm9Dba":"HOUSE OF SPELLS","ufCrm9SalesVolume":0,"ufCrm9SalesTrxn":13,"ufCrm9EarningsLocalCurrency":0,"ufCrm9CommissionAmount":0,"ufCrm7ResponsiblePerson":null},{"id":2459,"ufCrm9StatementMonth":"202408 Aug","ufCrm9Mid":2101612861,"ufCrm9Dba":"HOUSE OF SPELLS","ufCrm9SalesVolume":0,"ufCrm9SalesTrxn":6,"ufCrm9EarningsLocalCurrency":0,"ufCrm9CommissionAmount":0,"ufCrm7ResponsiblePerson":null},{"id":2461,"ufCrm9StatementMonth":"202408 Aug","ufCrm9Mid":2101612866,"ufCrm9Dba":"ALOHOMORA","ufCrm9SalesVolume":39.17,"ufCrm9SalesTrxn":2,"ufCrm9EarningsLocalCurrency":0,"ufCrm9CommissionAmount":0,"ufCrm7ResponsiblePerson":null},{"id":2463,"ufCrm9StatementMonth":"202408 Aug","ufCrm9Mid":2101612866,"ufCrm9Dba":"ALOHOMORA","ufCrm9SalesVolume":4.99,"ufCrm9SalesTrxn":1,"ufCrm9EarningsLocalCurrency":0,"ufCrm9CommissionAmount":0,"ufCrm7ResponsiblePerson":null},{"id":2465,"ufCrm9StatementMonth":"202408 Aug","ufCrm9Mid":2101612866,"ufCrm9Dba":"ALOHOMORA","ufCrm9SalesVolume":2,"ufCrm9SalesTrxn":115,"ufCrm9EarningsLocalCurrency":4,"ufCrm9CommissionAmount":4,"ufCrm7ResponsiblePerson":null},{"id":2467,"ufCrm9StatementMonth":"202408 Aug","ufCrm9Mid":2101612866,"ufCrm9Dba":"ALOHOMORA","ufCrm9SalesVolume":0,"ufCrm9SalesTrxn":0,"ufCrm9EarningsLocalCurrency":1,"ufCrm9CommissionAmount":1,"ufCrm7ResponsiblePerson":null},{"id":2469,"ufCrm9StatementMonth":"202408 Aug","ufCrm9Mid":2101612866,"ufCrm9Dba":"ALOHOMORA","ufCrm9SalesVolume":2,"ufCrm9SalesTrxn":122,"ufCrm9EarningsLocalCurrency":3,"ufCrm9CommissionAmount":3,"ufCrm7ResponsiblePerson":null},{"id":2471,"ufCrm9StatementMonth":"202408 Aug","ufCrm9Mid":2101612866,"ufCrm9Dba":"ALOHOMORA","ufCrm9SalesVolume":2,"ufCrm9SalesTrxn":106,"ufCrm9EarningsLocalCurrency":4,"ufCrm9CommissionAmount":4,"ufCrm7ResponsiblePerson":null},{"id":2473,"ufCrm9StatementMonth":"202408 Aug","ufCrm9Mid":2101612866,"ufCrm9Dba":"ALOHOMORA","ufCrm9SalesVolume":416.79,"ufCrm9SalesTrxn":18,"ufCrm9EarningsLocalCurrency":1,"ufCrm9CommissionAmount":1,"ufCrm7ResponsiblePerson":null},{"id":2475,"ufCrm9StatementMonth":"202408 Aug","ufCrm9Mid":2101612866,"ufCrm9Dba":"ALOHOMORA","ufCrm9SalesVolume":19.96,"ufCrm9SalesTrxn":3,"ufCrm9EarningsLocalCurrency":0,"ufCrm9CommissionAmount":0,"ufCrm7ResponsiblePerson":null},{"id":2477,"ufCrm9StatementMonth":"202408 Aug","ufCrm9Mid":2101612866,"ufCrm9Dba":"ALOHOMORA","ufCrm9SalesVolume":1,"ufCrm9SalesTrxn":59,"ufCrm9EarningsLocalCurrency":2,"ufCrm9CommissionAmount":2,"ufCrm7ResponsiblePerson":null},{"id":2479,"ufCrm9StatementMonth":"202408 Aug","ufCrm9Mid":2101612866,"ufCrm9Dba":"ALOHOMORA","ufCrm9SalesVolume":1,"ufCrm9SalesTrxn":106,"ufCrm9EarningsLocalCurrency":3,"ufCrm9CommissionAmount":0.6,"ufCrm7ResponsiblePerson":null},{"id":2481,"ufCrm9StatementMonth":"202408 Aug","ufCrm9Mid":2101612866,"ufCrm9Dba":"ALOHOMORA","ufCrm9SalesVolume":1,"ufCrm9SalesTrxn":60,"ufCrm9EarningsLocalCurrency":2,"ufCrm9CommissionAmount":0.4,"ufCrm7ResponsiblePerson":null},{"id":2483,"ufCrm9StatementMonth":"202408 Aug","ufCrm9Mid":2101612866,"ufCrm9Dba":"ALOHOMORA","ufCrm9SalesVolume":4,"ufCrm9SalesTrxn":189,"ufCrm9EarningsLocalCurrency":7,"ufCrm9CommissionAmount":7,"ufCrm7ResponsiblePerson":null},{"id":2485,"ufCrm9StatementMonth":"202408 Aug","ufCrm9Mid":2101612866,"ufCrm9Dba":"ALOHOMORA","ufCrm9SalesVolume":5,"ufCrm9SalesTrxn":216,"ufCrm9EarningsLocalCurrency":10,"ufCrm9CommissionAmount":10,"ufCrm7ResponsiblePerson":null},{"id":2487,"ufCrm9StatementMonth":"202408 Aug","ufCrm9Mid":2101612866,"ufCrm9Dba":"ALOHOMORA","ufCrm9SalesVolume":39.99,"ufCrm9SalesTrxn":1,"ufCrm9EarningsLocalCurrency":0,"ufCrm9CommissionAmount":0,"ufCrm7ResponsiblePerson":null},{"id":2489,"ufCrm9StatementMonth":"202408 Aug","ufCrm9Mid":2101612866,"ufCrm9Dba":"ALOHOMORA","ufCrm9SalesVolume":10,"ufCrm9SalesTrxn":575,"ufCrm9EarningsLocalCurrency":6,"ufCrm9CommissionAmount":6,"ufCrm7ResponsiblePerson":null},{"id":2491,"ufCrm9StatementMonth":"202408 Aug","ufCrm9Mid":2101612866,"ufCrm9Dba":"ALOHOMORA","ufCrm9SalesVolume":5,"ufCrm9SalesTrxn":305,"ufCrm9EarningsLocalCurrency":2,"ufCrm9CommissionAmount":2,"ufCrm7ResponsiblePerson":null},{"id":2493,"ufCrm9StatementMonth":"202408 Aug","ufCrm9Mid":2101612866,"ufCrm9Dba":"ALOHOMORA","ufCrm9SalesVolume":0,"ufCrm9SalesTrxn":109,"ufCrm9EarningsLocalCurrency":2,"ufCrm9CommissionAmount":2,"ufCrm7ResponsiblePerson":null},{"id":2495,"ufCrm9StatementMonth":"202408 Aug","ufCrm9Mid":2101612866,"ufCrm9Dba":"ALOHOMORA","ufCrm9SalesVolume":0,"ufCrm9SalesTrxn":315,"ufCrm9EarningsLocalCurrency":5,"ufCrm9CommissionAmount":5,"ufCrm7ResponsiblePerson":null},{"id":2497,"ufCrm9StatementMonth":"202408 Aug","ufCrm9Mid":2101612866,"ufCrm9Dba":"ALOHOMORA","ufCrm9SalesVolume":0,"ufCrm9SalesTrxn":792,"ufCrm9EarningsLocalCurrency":12,"ufCrm9CommissionAmount":12,"ufCrm7ResponsiblePerson":null},{"id":2499,"ufCrm9StatementMonth":"202408 Aug","ufCrm9Mid":2101612866,"ufCrm9Dba":"ALOHOMORA","ufCrm9SalesVolume":0,"ufCrm9SalesTrxn":1,"ufCrm9EarningsLocalCurrency":0,"ufCrm9CommissionAmount":0,"ufCrm7ResponsiblePerson":null},{"id":2501,"ufCrm9StatementMonth":"202408 Aug","ufCrm9Mid":2101612866,"ufCrm9Dba":"ALOHOMORA","ufCrm9SalesVolume":0,"ufCrm9SalesTrxn":286,"ufCrm9EarningsLocalCurrency":4,"ufCrm9CommissionAmount":4,"ufCrm7ResponsiblePerson":null},{"id":2503,"ufCrm9StatementMonth":"202408 Aug","ufCrm9Mid":2101612866,"ufCrm9Dba":"ALOHOMORA","ufCrm9SalesVolume":664.51,"ufCrm9SalesTrxn":31,"ufCrm9EarningsLocalCurrency":1,"ufCrm9CommissionAmount":0.2,"ufCrm7ResponsiblePerson":null}]},"next":150,"total":16162,"time":{"start":1733232303.94784,"finish":1733232304.359657,"duration":0.4118170738220215,"processing":0.38309693336486816,"date_start":"2024-12-03T16:25:03+03:00","date_finish":"2024-12-03T16:25:04+03:00","operating_reset_at":1733232903,"operating":2.1363532543182373}}}