{"url":"https:\/\/5tel.bitrix24.uk\/rest\/13\/bq7arhlt29j4yu6c\/crm.item.list.json","info":{"url":"https:\/\/5tel.bitrix24.uk\/rest\/13\/bq7arhlt29j4yu6c\/crm.item.list.json","content_type":"application\/json; charset=utf-8","http_code":200,"header_size":1031,"request_size":510,"filetime":-1,"ssl_verify_result":0,"redirect_count":0,"total_time":1.063238,"namelookup_time":0.001628,"connect_time":0.176065,"pretransfer_time":0.392372,"size_upload":306,"size_download":12199,"speed_download":11473,"speed_upload":287,"download_content_length":-1,"upload_content_length":306,"starttransfer_time":1.063203,"redirect_time":0,"redirect_url":"","primary_ip":"52.29.77.149","certinfo":[],"primary_port":443,"local_ip":"192.168.29.236","local_port":64847,"http_version":3,"protocol":2,"ssl_verifyresult":0,"scheme":"HTTPS","appconnect_time_us":392250,"connect_time_us":176065,"namelookup_time_us":1628,"pretransfer_time_us":392372,"redirect_time_us":0,"starttransfer_time_us":1063203,"total_time_us":1063238,"effective_method":"POST"},"params":{"method":"crm.item.list","params":{"entityTypeId":1052,"filter":[],"select":["ID","ufCrm9StatementMonth","ufCrm9Mid","ufCrm9Dba","ufCrm9SalesVolume","ufCrm9SalesTrxn","ufCrm9CommissionAmount","ufCrm7ResponsiblePerson","ufCrm9EarningsLocalCurrency"],"start":450}},"result":{"result":{"items":[{"id":3105,"ufCrm9StatementMonth":"202408 Aug","ufCrm9Mid":2101719700,"ufCrm9Dba":"MANJAROS","ufCrm9SalesVolume":2,"ufCrm9SalesTrxn":84,"ufCrm9EarningsLocalCurrency":5,"ufCrm9CommissionAmount":2.5,"ufCrm7ResponsiblePerson":null},{"id":3107,"ufCrm9StatementMonth":"202408 Aug","ufCrm9Mid":2101719700,"ufCrm9Dba":"MANJAROS","ufCrm9SalesVolume":93.9,"ufCrm9SalesTrxn":6,"ufCrm9EarningsLocalCurrency":1,"ufCrm9CommissionAmount":0.5,"ufCrm7ResponsiblePerson":null},{"id":3109,"ufCrm9StatementMonth":"202408 Aug","ufCrm9Mid":2101719700,"ufCrm9Dba":"MANJAROS","ufCrm9SalesVolume":20,"ufCrm9SalesTrxn":884,"ufCrm9EarningsLocalCurrency":8,"ufCrm9CommissionAmount":4,"ufCrm7ResponsiblePerson":null},{"id":3111,"ufCrm9StatementMonth":"202408 Aug","ufCrm9Mid":2101719700,"ufCrm9Dba":"MANJAROS","ufCrm9SalesVolume":233,"ufCrm9SalesTrxn":5,"ufCrm9EarningsLocalCurrency":3,"ufCrm9CommissionAmount":1.5,"ufCrm7ResponsiblePerson":null},{"id":3113,"ufCrm9StatementMonth":"202408 Aug","ufCrm9Mid":2101719700,"ufCrm9Dba":"MANJAROS","ufCrm9SalesVolume":0,"ufCrm9SalesTrxn":0,"ufCrm9EarningsLocalCurrency":-2,"ufCrm9CommissionAmount":-1,"ufCrm7ResponsiblePerson":null},{"id":3115,"ufCrm9StatementMonth":"202408 Aug","ufCrm9Mid":2101719700,"ufCrm9Dba":"MANJAROS","ufCrm9SalesVolume":0,"ufCrm9SalesTrxn":0,"ufCrm9EarningsLocalCurrency":-3,"ufCrm9CommissionAmount":-1.5,"ufCrm7ResponsiblePerson":null},{"id":3117,"ufCrm9StatementMonth":"202408 Aug","ufCrm9Mid":2101719700,"ufCrm9Dba":"MANJAROS","ufCrm9SalesVolume":0,"ufCrm9SalesTrxn":0,"ufCrm9EarningsLocalCurrency":-5,"ufCrm9CommissionAmount":-2.5,"ufCrm7ResponsiblePerson":null},{"id":3119,"ufCrm9StatementMonth":"202408 Aug","ufCrm9Mid":2101721479,"ufCrm9Dba":"BIRCH ST STORE","ufCrm9SalesVolume":483.43,"ufCrm9SalesTrxn":54,"ufCrm9EarningsLocalCurrency":1,"ufCrm9CommissionAmount":1,"ufCrm7ResponsiblePerson":null},{"id":3121,"ufCrm9StatementMonth":"202408 Aug","ufCrm9Mid":2101721479,"ufCrm9Dba":"BIRCH ST STORE","ufCrm9SalesVolume":17.19,"ufCrm9SalesTrxn":1,"ufCrm9EarningsLocalCurrency":0,"ufCrm9CommissionAmount":0,"ufCrm7ResponsiblePerson":null},{"id":3123,"ufCrm9StatementMonth":"202408 Aug","ufCrm9Mid":2101721479,"ufCrm9Dba":"BIRCH ST STORE","ufCrm9SalesVolume":0,"ufCrm9SalesTrxn":8,"ufCrm9EarningsLocalCurrency":0,"ufCrm9CommissionAmount":0,"ufCrm7ResponsiblePerson":null},{"id":3125,"ufCrm9StatementMonth":"202408 Aug","ufCrm9Mid":2101721479,"ufCrm9Dba":"BIRCH ST STORE","ufCrm9SalesVolume":14,"ufCrm9SalesTrxn":1,"ufCrm9EarningsLocalCurrency":19,"ufCrm9CommissionAmount":19,"ufCrm7ResponsiblePerson":null},{"id":3127,"ufCrm9StatementMonth":"202408 Aug","ufCrm9Mid":2101721479,"ufCrm9Dba":"BIRCH ST STORE","ufCrm9SalesVolume":7,"ufCrm9SalesTrxn":866,"ufCrm9EarningsLocalCurrency":6,"ufCrm9CommissionAmount":6,"ufCrm7ResponsiblePerson":null},{"id":3129,"ufCrm9StatementMonth":"202408 Aug","ufCrm9Mid":2101721479,"ufCrm9Dba":"BIRCH ST STORE","ufCrm9SalesVolume":0,"ufCrm9SalesTrxn":0,"ufCrm9EarningsLocalCurrency":0,"ufCrm9CommissionAmount":0,"ufCrm7ResponsiblePerson":null},{"id":3131,"ufCrm9StatementMonth":"202408 Aug","ufCrm9Mid":2101721479,"ufCrm9Dba":"BIRCH ST STORE","ufCrm9SalesVolume":4.14,"ufCrm9SalesTrxn":1,"ufCrm9EarningsLocalCurrency":0,"ufCrm9CommissionAmount":0,"ufCrm7ResponsiblePerson":null},{"id":3133,"ufCrm9StatementMonth":"202408 Aug","ufCrm9Mid":2101721479,"ufCrm9Dba":"BIRCH ST STORE","ufCrm9SalesVolume":53.11,"ufCrm9SalesTrxn":8,"ufCrm9EarningsLocalCurrency":0,"ufCrm9CommissionAmount":0,"ufCrm7ResponsiblePerson":null},{"id":3135,"ufCrm9StatementMonth":"202408 Aug","ufCrm9Mid":2101721479,"ufCrm9Dba":"BIRCH ST STORE","ufCrm9SalesVolume":3,"ufCrm9SalesTrxn":1,"ufCrm9EarningsLocalCurrency":0,"ufCrm9CommissionAmount":0,"ufCrm7ResponsiblePerson":null},{"id":3137,"ufCrm9StatementMonth":"202408 Aug","ufCrm9Mid":2101721479,"ufCrm9Dba":"BIRCH ST STORE","ufCrm9SalesVolume":0,"ufCrm9SalesTrxn":56,"ufCrm9EarningsLocalCurrency":1,"ufCrm9CommissionAmount":1,"ufCrm7ResponsiblePerson":null},{"id":3139,"ufCrm9StatementMonth":"202408 Aug","ufCrm9Mid":2101721479,"ufCrm9Dba":"BIRCH ST STORE","ufCrm9SalesVolume":0,"ufCrm9SalesTrxn":897,"ufCrm9EarningsLocalCurrency":13,"ufCrm9CommissionAmount":13,"ufCrm7ResponsiblePerson":null},{"id":3141,"ufCrm9StatementMonth":"202408 Aug","ufCrm9Mid":2101721479,"ufCrm9Dba":"BIRCH ST STORE","ufCrm9SalesVolume":0,"ufCrm9SalesTrxn":1,"ufCrm9EarningsLocalCurrency":24,"ufCrm9CommissionAmount":24,"ufCrm7ResponsiblePerson":null},{"id":3143,"ufCrm9StatementMonth":"202408 Aug","ufCrm9Mid":2101721479,"ufCrm9Dba":"BIRCH ST STORE","ufCrm9SalesVolume":31.57,"ufCrm9SalesTrxn":4,"ufCrm9EarningsLocalCurrency":0,"ufCrm9CommissionAmount":0,"ufCrm7ResponsiblePerson":null},{"id":3145,"ufCrm9StatementMonth":"202408 Aug","ufCrm9Mid":2101722453,"ufCrm9Dba":"MANJAROS","ufCrm9SalesVolume":701.31,"ufCrm9SalesTrxn":18,"ufCrm9EarningsLocalCurrency":5,"ufCrm9CommissionAmount":2.5,"ufCrm7ResponsiblePerson":null},{"id":3147,"ufCrm9StatementMonth":"202408 Aug","ufCrm9Mid":2101722453,"ufCrm9Dba":"MANJAROS","ufCrm9SalesVolume":8,"ufCrm9SalesTrxn":225,"ufCrm9EarningsLocalCurrency":15,"ufCrm9CommissionAmount":7.5,"ufCrm7ResponsiblePerson":null},{"id":3149,"ufCrm9StatementMonth":"202408 Aug","ufCrm9Mid":2101722453,"ufCrm9Dba":"MANJAROS","ufCrm9SalesVolume":0,"ufCrm9SalesTrxn":0,"ufCrm9EarningsLocalCurrency":-6,"ufCrm9CommissionAmount":-3,"ufCrm7ResponsiblePerson":null},{"id":3151,"ufCrm9StatementMonth":"202408 Aug","ufCrm9Mid":2101722453,"ufCrm9Dba":"MANJAROS","ufCrm9SalesVolume":485.5,"ufCrm9SalesTrxn":6,"ufCrm9EarningsLocalCurrency":6,"ufCrm9CommissionAmount":3,"ufCrm7ResponsiblePerson":null},{"id":3153,"ufCrm9StatementMonth":"202408 Aug","ufCrm9Mid":2101722453,"ufCrm9Dba":"MANJAROS","ufCrm9SalesVolume":336,"ufCrm9SalesTrxn":3,"ufCrm9EarningsLocalCurrency":1,"ufCrm9CommissionAmount":0.5,"ufCrm7ResponsiblePerson":null},{"id":3155,"ufCrm9StatementMonth":"202408 Aug","ufCrm9Mid":2101722453,"ufCrm9Dba":"MANJAROS","ufCrm9SalesVolume":0,"ufCrm9SalesTrxn":0,"ufCrm9EarningsLocalCurrency":16,"ufCrm9CommissionAmount":16,"ufCrm7ResponsiblePerson":null},{"id":3157,"ufCrm9StatementMonth":"202408 Aug","ufCrm9Mid":2101722453,"ufCrm9Dba":"MANJAROS","ufCrm9SalesVolume":1,"ufCrm9SalesTrxn":1,"ufCrm9EarningsLocalCurrency":0,"ufCrm9CommissionAmount":0,"ufCrm7ResponsiblePerson":null},{"id":3159,"ufCrm9StatementMonth":"202408 Aug","ufCrm9Mid":2101722453,"ufCrm9Dba":"MANJAROS","ufCrm9SalesVolume":21,"ufCrm9SalesTrxn":737,"ufCrm9EarningsLocalCurrency":16,"ufCrm9CommissionAmount":8,"ufCrm7ResponsiblePerson":null},{"id":3161,"ufCrm9StatementMonth":"202408 Aug","ufCrm9Mid":2101722453,"ufCrm9Dba":"MANJAROS","ufCrm9SalesVolume":136.13,"ufCrm9SalesTrxn":4,"ufCrm9EarningsLocalCurrency":1,"ufCrm9CommissionAmount":0.5,"ufCrm7ResponsiblePerson":null},{"id":3163,"ufCrm9StatementMonth":"202408 Aug","ufCrm9Mid":2101722453,"ufCrm9Dba":"MANJAROS","ufCrm9SalesVolume":34.02,"ufCrm9SalesTrxn":2,"ufCrm9EarningsLocalCurrency":0,"ufCrm9CommissionAmount":0,"ufCrm7ResponsiblePerson":null},{"id":3165,"ufCrm9StatementMonth":"202408 Aug","ufCrm9Mid":2101722453,"ufCrm9Dba":"MANJAROS","ufCrm9SalesVolume":131.65,"ufCrm9SalesTrxn":3,"ufCrm9EarningsLocalCurrency":1,"ufCrm9CommissionAmount":0.5,"ufCrm7ResponsiblePerson":null},{"id":3167,"ufCrm9StatementMonth":"202408 Aug","ufCrm9Mid":2101722453,"ufCrm9Dba":"MANJAROS","ufCrm9SalesVolume":105.34,"ufCrm9SalesTrxn":2,"ufCrm9EarningsLocalCurrency":1,"ufCrm9CommissionAmount":0.5,"ufCrm7ResponsiblePerson":null},{"id":3169,"ufCrm9StatementMonth":"202408 Aug","ufCrm9Mid":2101722453,"ufCrm9Dba":"MANJAROS","ufCrm9SalesVolume":354.4,"ufCrm9SalesTrxn":8,"ufCrm9EarningsLocalCurrency":1,"ufCrm9CommissionAmount":0.5,"ufCrm7ResponsiblePerson":null},{"id":3171,"ufCrm9StatementMonth":"202408 Aug","ufCrm9Mid":2101722453,"ufCrm9Dba":"MANJAROS","ufCrm9SalesVolume":0,"ufCrm9SalesTrxn":0,"ufCrm9EarningsLocalCurrency":-2,"ufCrm9CommissionAmount":-1,"ufCrm7ResponsiblePerson":null},{"id":3173,"ufCrm9StatementMonth":"202408 Aug","ufCrm9Mid":2101722453,"ufCrm9Dba":"MANJAROS","ufCrm9SalesVolume":0,"ufCrm9SalesTrxn":0,"ufCrm9EarningsLocalCurrency":-10,"ufCrm9CommissionAmount":-5,"ufCrm7ResponsiblePerson":null},{"id":3175,"ufCrm9StatementMonth":"202408 Aug","ufCrm9Mid":2101722453,"ufCrm9Dba":"MANJAROS","ufCrm9SalesVolume":3,"ufCrm9SalesTrxn":101,"ufCrm9EarningsLocalCurrency":6,"ufCrm9CommissionAmount":3,"ufCrm7ResponsiblePerson":null},{"id":3177,"ufCrm9StatementMonth":"202408 Aug","ufCrm9Mid":2101722453,"ufCrm9Dba":"MANJAROS","ufCrm9SalesVolume":630.76,"ufCrm9SalesTrxn":13,"ufCrm9EarningsLocalCurrency":8,"ufCrm9CommissionAmount":4,"ufCrm7ResponsiblePerson":null},{"id":3179,"ufCrm9StatementMonth":"202408 Aug","ufCrm9Mid":2101722453,"ufCrm9Dba":"MANJAROS","ufCrm9SalesVolume":1,"ufCrm9SalesTrxn":27,"ufCrm9EarningsLocalCurrency":3,"ufCrm9CommissionAmount":1.5,"ufCrm7ResponsiblePerson":null},{"id":3181,"ufCrm9StatementMonth":"202408 Aug","ufCrm9Mid":2101722453,"ufCrm9Dba":"MANJAROS","ufCrm9SalesVolume":37,"ufCrm9SalesTrxn":1,"ufCrm9EarningsLocalCurrency":15,"ufCrm9CommissionAmount":7.5,"ufCrm7ResponsiblePerson":null},{"id":3183,"ufCrm9StatementMonth":"202408 Aug","ufCrm9Mid":2101722453,"ufCrm9Dba":"MANJAROS","ufCrm9SalesVolume":0,"ufCrm9SalesTrxn":0,"ufCrm9EarningsLocalCurrency":-2,"ufCrm9CommissionAmount":-1,"ufCrm7ResponsiblePerson":null},{"id":3185,"ufCrm9StatementMonth":"202408 Aug","ufCrm9Mid":2101727352,"ufCrm9Dba":"VILLAGE FOODS MARKET","ufCrm9SalesVolume":4.99,"ufCrm9SalesTrxn":1,"ufCrm9EarningsLocalCurrency":0,"ufCrm9CommissionAmount":0,"ufCrm7ResponsiblePerson":null},{"id":3187,"ufCrm9StatementMonth":"202408 Aug","ufCrm9Mid":2101727352,"ufCrm9Dba":"VILLAGE FOODS MARKET","ufCrm9SalesVolume":59.9,"ufCrm9SalesTrxn":9,"ufCrm9EarningsLocalCurrency":0,"ufCrm9CommissionAmount":0,"ufCrm7ResponsiblePerson":null},{"id":3189,"ufCrm9StatementMonth":"202408 Aug","ufCrm9Mid":2101727352,"ufCrm9Dba":"VILLAGE FOODS MARKET","ufCrm9SalesVolume":29,"ufCrm9SalesTrxn":3,"ufCrm9EarningsLocalCurrency":32,"ufCrm9CommissionAmount":32,"ufCrm7ResponsiblePerson":null},{"id":3191,"ufCrm9StatementMonth":"202408 Aug","ufCrm9Mid":2101727352,"ufCrm9Dba":"VILLAGE FOODS MARKET","ufCrm9SalesVolume":85.57,"ufCrm9SalesTrxn":8,"ufCrm9EarningsLocalCurrency":0,"ufCrm9CommissionAmount":0,"ufCrm7ResponsiblePerson":null},{"id":3193,"ufCrm9StatementMonth":"202408 Aug","ufCrm9Mid":2101727352,"ufCrm9Dba":"VILLAGE FOODS MARKET","ufCrm9SalesVolume":11.88,"ufCrm9SalesTrxn":3,"ufCrm9EarningsLocalCurrency":0,"ufCrm9CommissionAmount":0,"ufCrm7ResponsiblePerson":null},{"id":3195,"ufCrm9StatementMonth":"202408 Aug","ufCrm9Mid":2101727352,"ufCrm9Dba":"VILLAGE FOODS MARKET","ufCrm9SalesVolume":0,"ufCrm9SalesTrxn":0,"ufCrm9EarningsLocalCurrency":12,"ufCrm9CommissionAmount":12,"ufCrm7ResponsiblePerson":null},{"id":3197,"ufCrm9StatementMonth":"202408 Aug","ufCrm9Mid":2101727352,"ufCrm9Dba":"VILLAGE FOODS MARKET","ufCrm9SalesVolume":28,"ufCrm9SalesTrxn":4,"ufCrm9EarningsLocalCurrency":19,"ufCrm9CommissionAmount":19,"ufCrm7ResponsiblePerson":null},{"id":3199,"ufCrm9StatementMonth":"202408 Aug","ufCrm9Mid":2101727352,"ufCrm9Dba":"VILLAGE FOODS MARKET","ufCrm9SalesVolume":3,"ufCrm9SalesTrxn":434,"ufCrm9EarningsLocalCurrency":1,"ufCrm9CommissionAmount":1,"ufCrm7ResponsiblePerson":null},{"id":3201,"ufCrm9StatementMonth":"202408 Aug","ufCrm9Mid":2101727352,"ufCrm9Dba":"VILLAGE FOODS MARKET","ufCrm9SalesVolume":48.35,"ufCrm9SalesTrxn":8,"ufCrm9EarningsLocalCurrency":0,"ufCrm9CommissionAmount":0,"ufCrm7ResponsiblePerson":null},{"id":3203,"ufCrm9StatementMonth":"202408 Aug","ufCrm9Mid":2101727352,"ufCrm9Dba":"VILLAGE FOODS MARKET","ufCrm9SalesVolume":27.08,"ufCrm9SalesTrxn":1,"ufCrm9EarningsLocalCurrency":0,"ufCrm9CommissionAmount":0,"ufCrm7ResponsiblePerson":null}]},"next":500,"total":16162,"time":{"start":1733232327.2977,"finish":1733232327.743797,"duration":0.44609713554382324,"processing":0.4105539321899414,"date_start":"2024-12-03T16:25:27+03:00","date_finish":"2024-12-03T16:25:27+03:00","operating_reset_at":1733232927,"operating":4.856614112854004}}}