{"url":"https:\/\/5tel.bitrix24.uk\/rest\/13\/bq7arhlt29j4yu6c\/crm.item.list.json","info":{"url":"https:\/\/5tel.bitrix24.uk\/rest\/13\/bq7arhlt29j4yu6c\/crm.item.list.json","content_type":"application\/json; charset=utf-8","http_code":200,"header_size":1031,"request_size":510,"filetime":-1,"ssl_verify_result":0,"redirect_count":0,"total_time":1.212732,"namelookup_time":0.002888,"connect_time":0.174445,"pretransfer_time":0.404603,"size_upload":306,"size_download":12562,"speed_download":10358,"speed_upload":252,"download_content_length":-1,"upload_content_length":306,"starttransfer_time":1.212692,"redirect_time":0,"redirect_url":"","primary_ip":"52.29.77.149","certinfo":[],"primary_port":443,"local_ip":"192.168.29.236","local_port":64823,"http_version":3,"protocol":2,"ssl_verifyresult":0,"scheme":"HTTPS","appconnect_time_us":404426,"connect_time_us":174445,"namelookup_time_us":2888,"pretransfer_time_us":404603,"redirect_time_us":0,"starttransfer_time_us":1212692,"total_time_us":1212732,"effective_method":"POST"},"params":{"method":"crm.item.list","params":{"entityTypeId":1052,"filter":[],"select":["ID","ufCrm9StatementMonth","ufCrm9Mid","ufCrm9Dba","ufCrm9SalesVolume","ufCrm9SalesTrxn","ufCrm9CommissionAmount","ufCrm7ResponsiblePerson","ufCrm9EarningsLocalCurrency"],"start":400}},"result":{"result":{"items":[{"id":3005,"ufCrm9StatementMonth":"202408 Aug","ufCrm9Mid":2101690290,"ufCrm9Dba":"BEST FOOD MEGA","ufCrm9SalesVolume":0,"ufCrm9SalesTrxn":637,"ufCrm9EarningsLocalCurrency":10,"ufCrm9CommissionAmount":10,"ufCrm7ResponsiblePerson":null},{"id":3007,"ufCrm9StatementMonth":"202408 Aug","ufCrm9Mid":2101690290,"ufCrm9Dba":"BEST FOOD MEGA","ufCrm9SalesVolume":4,"ufCrm9SalesTrxn":135,"ufCrm9EarningsLocalCurrency":26,"ufCrm9CommissionAmount":26,"ufCrm7ResponsiblePerson":null},{"id":3009,"ufCrm9StatementMonth":"202408 Aug","ufCrm9Mid":2101692738,"ufCrm9Dba":"SP CONVENIENCE STORE","ufCrm9SalesVolume":200.47,"ufCrm9SalesTrxn":27,"ufCrm9EarningsLocalCurrency":1,"ufCrm9CommissionAmount":1,"ufCrm7ResponsiblePerson":null},{"id":3011,"ufCrm9StatementMonth":"202408 Aug","ufCrm9Mid":2101692738,"ufCrm9Dba":"SP CONVENIENCE STORE","ufCrm9SalesVolume":160.57,"ufCrm9SalesTrxn":7,"ufCrm9EarningsLocalCurrency":1,"ufCrm9CommissionAmount":1,"ufCrm7ResponsiblePerson":null},{"id":3013,"ufCrm9StatementMonth":"202408 Aug","ufCrm9Mid":2101692738,"ufCrm9Dba":"SP CONVENIENCE STORE","ufCrm9SalesVolume":24.97,"ufCrm9SalesTrxn":1,"ufCrm9EarningsLocalCurrency":0,"ufCrm9CommissionAmount":0,"ufCrm7ResponsiblePerson":null},{"id":3015,"ufCrm9StatementMonth":"202408 Aug","ufCrm9Mid":2101692738,"ufCrm9Dba":"SP CONVENIENCE STORE","ufCrm9SalesVolume":13,"ufCrm9SalesTrxn":1,"ufCrm9EarningsLocalCurrency":10,"ufCrm9CommissionAmount":10,"ufCrm7ResponsiblePerson":null},{"id":3017,"ufCrm9StatementMonth":"202408 Aug","ufCrm9Mid":2101692738,"ufCrm9Dba":"SP CONVENIENCE STORE","ufCrm9SalesVolume":0,"ufCrm9SalesTrxn":0,"ufCrm9EarningsLocalCurrency":6,"ufCrm9CommissionAmount":6,"ufCrm7ResponsiblePerson":null},{"id":3019,"ufCrm9StatementMonth":"202408 Aug","ufCrm9Mid":2101692738,"ufCrm9Dba":"SP CONVENIENCE STORE","ufCrm9SalesVolume":2,"ufCrm9SalesTrxn":185,"ufCrm9EarningsLocalCurrency":4,"ufCrm9CommissionAmount":4,"ufCrm7ResponsiblePerson":null},{"id":3021,"ufCrm9StatementMonth":"202408 Aug","ufCrm9Mid":2101692738,"ufCrm9Dba":"SP CONVENIENCE STORE","ufCrm9SalesVolume":267.62,"ufCrm9SalesTrxn":7,"ufCrm9EarningsLocalCurrency":1,"ufCrm9CommissionAmount":1,"ufCrm7ResponsiblePerson":null},{"id":3023,"ufCrm9StatementMonth":"202408 Aug","ufCrm9Mid":2101692738,"ufCrm9Dba":"SP CONVENIENCE STORE","ufCrm9SalesVolume":14.4,"ufCrm9SalesTrxn":3,"ufCrm9EarningsLocalCurrency":0,"ufCrm9CommissionAmount":0,"ufCrm7ResponsiblePerson":null},{"id":3025,"ufCrm9StatementMonth":"202408 Aug","ufCrm9Mid":2101692738,"ufCrm9Dba":"SP CONVENIENCE STORE","ufCrm9SalesVolume":551.26,"ufCrm9SalesTrxn":57,"ufCrm9EarningsLocalCurrency":1,"ufCrm9CommissionAmount":1,"ufCrm7ResponsiblePerson":null},{"id":3027,"ufCrm9StatementMonth":"202408 Aug","ufCrm9Mid":2101692738,"ufCrm9Dba":"SP CONVENIENCE STORE","ufCrm9SalesVolume":2.64,"ufCrm9SalesTrxn":1,"ufCrm9EarningsLocalCurrency":0,"ufCrm9CommissionAmount":0,"ufCrm7ResponsiblePerson":null},{"id":3029,"ufCrm9StatementMonth":"202408 Aug","ufCrm9Mid":2101692738,"ufCrm9Dba":"SP CONVENIENCE STORE","ufCrm9SalesVolume":26.2,"ufCrm9SalesTrxn":3,"ufCrm9EarningsLocalCurrency":0,"ufCrm9CommissionAmount":0,"ufCrm7ResponsiblePerson":null},{"id":3031,"ufCrm9StatementMonth":"202408 Aug","ufCrm9Mid":2101692738,"ufCrm9Dba":"SP CONVENIENCE STORE","ufCrm9SalesVolume":44,"ufCrm9SalesTrxn":4,"ufCrm9EarningsLocalCurrency":56,"ufCrm9CommissionAmount":56,"ufCrm7ResponsiblePerson":null},{"id":3033,"ufCrm9StatementMonth":"202408 Aug","ufCrm9Mid":2101692738,"ufCrm9Dba":"SP CONVENIENCE STORE","ufCrm9SalesVolume":0,"ufCrm9SalesTrxn":1,"ufCrm9EarningsLocalCurrency":0,"ufCrm9CommissionAmount":0,"ufCrm7ResponsiblePerson":null},{"id":3035,"ufCrm9StatementMonth":"202408 Aug","ufCrm9Mid":2101692738,"ufCrm9Dba":"SP CONVENIENCE STORE","ufCrm9SalesVolume":0,"ufCrm9SalesTrxn":193,"ufCrm9EarningsLocalCurrency":3,"ufCrm9CommissionAmount":3,"ufCrm7ResponsiblePerson":null},{"id":3037,"ufCrm9StatementMonth":"202408 Aug","ufCrm9Mid":2101692738,"ufCrm9Dba":"SP CONVENIENCE STORE","ufCrm9SalesVolume":0,"ufCrm9SalesTrxn":1,"ufCrm9EarningsLocalCurrency":24,"ufCrm9CommissionAmount":24,"ufCrm7ResponsiblePerson":null},{"id":3039,"ufCrm9StatementMonth":"202408 Aug","ufCrm9Mid":2101692738,"ufCrm9Dba":"SP CONVENIENCE STORE","ufCrm9SalesVolume":0,"ufCrm9SalesTrxn":4,"ufCrm9EarningsLocalCurrency":69,"ufCrm9CommissionAmount":69,"ufCrm7ResponsiblePerson":null},{"id":3041,"ufCrm9StatementMonth":"202408 Aug","ufCrm9Mid":2101692738,"ufCrm9Dba":"SP CONVENIENCE STORE","ufCrm9SalesVolume":0,"ufCrm9SalesTrxn":60,"ufCrm9EarningsLocalCurrency":1,"ufCrm9CommissionAmount":1,"ufCrm7ResponsiblePerson":null},{"id":3043,"ufCrm9StatementMonth":"202408 Aug","ufCrm9Mid":2101695505,"ufCrm9Dba":"PRIMOS MEXICAN","ufCrm9SalesVolume":0,"ufCrm9SalesTrxn":0,"ufCrm9EarningsLocalCurrency":11,"ufCrm9CommissionAmount":11,"ufCrm7ResponsiblePerson":null},{"id":3045,"ufCrm9StatementMonth":"202408 Aug","ufCrm9Mid":2101695740,"ufCrm9Dba":"BLACK HORSE POST OFFICE","ufCrm9SalesVolume":3.49,"ufCrm9SalesTrxn":1,"ufCrm9EarningsLocalCurrency":0,"ufCrm9CommissionAmount":0,"ufCrm7ResponsiblePerson":null},{"id":3047,"ufCrm9StatementMonth":"202408 Aug","ufCrm9Mid":2101695740,"ufCrm9Dba":"BLACK HORSE POST OFFICE","ufCrm9SalesVolume":34.16,"ufCrm9SalesTrxn":2,"ufCrm9EarningsLocalCurrency":0,"ufCrm9CommissionAmount":0,"ufCrm7ResponsiblePerson":null},{"id":3049,"ufCrm9StatementMonth":"202408 Aug","ufCrm9Mid":2101695740,"ufCrm9Dba":"BLACK HORSE POST OFFICE","ufCrm9SalesVolume":75.16,"ufCrm9SalesTrxn":6,"ufCrm9EarningsLocalCurrency":0,"ufCrm9CommissionAmount":0,"ufCrm7ResponsiblePerson":null},{"id":3051,"ufCrm9StatementMonth":"202408 Aug","ufCrm9Mid":2101695740,"ufCrm9Dba":"BLACK HORSE POST OFFICE","ufCrm9SalesVolume":7.16,"ufCrm9SalesTrxn":2,"ufCrm9EarningsLocalCurrency":0,"ufCrm9CommissionAmount":0,"ufCrm7ResponsiblePerson":null},{"id":3053,"ufCrm9StatementMonth":"202408 Aug","ufCrm9Mid":2101695740,"ufCrm9Dba":"BLACK HORSE POST OFFICE","ufCrm9SalesVolume":0,"ufCrm9SalesTrxn":0,"ufCrm9EarningsLocalCurrency":11,"ufCrm9CommissionAmount":11,"ufCrm7ResponsiblePerson":null},{"id":3055,"ufCrm9StatementMonth":"202408 Aug","ufCrm9Mid":2101695740,"ufCrm9Dba":"BLACK HORSE POST OFFICE","ufCrm9SalesVolume":226.54,"ufCrm9SalesTrxn":8,"ufCrm9EarningsLocalCurrency":1,"ufCrm9CommissionAmount":1,"ufCrm7ResponsiblePerson":null},{"id":3057,"ufCrm9StatementMonth":"202408 Aug","ufCrm9Mid":2101695740,"ufCrm9Dba":"BLACK HORSE POST OFFICE","ufCrm9SalesVolume":7,"ufCrm9SalesTrxn":1,"ufCrm9EarningsLocalCurrency":2,"ufCrm9CommissionAmount":2,"ufCrm7ResponsiblePerson":null},{"id":3059,"ufCrm9StatementMonth":"202408 Aug","ufCrm9Mid":2101695740,"ufCrm9Dba":"BLACK HORSE POST OFFICE","ufCrm9SalesVolume":35.74,"ufCrm9SalesTrxn":3,"ufCrm9EarningsLocalCurrency":0,"ufCrm9CommissionAmount":0,"ufCrm7ResponsiblePerson":null},{"id":3061,"ufCrm9StatementMonth":"202408 Aug","ufCrm9Mid":2101695740,"ufCrm9Dba":"BLACK HORSE POST OFFICE","ufCrm9SalesVolume":295.1,"ufCrm9SalesTrxn":32,"ufCrm9EarningsLocalCurrency":0,"ufCrm9CommissionAmount":0,"ufCrm7ResponsiblePerson":null},{"id":3063,"ufCrm9StatementMonth":"202408 Aug","ufCrm9Mid":2101695740,"ufCrm9Dba":"BLACK HORSE POST OFFICE","ufCrm9SalesVolume":1,"ufCrm9SalesTrxn":150,"ufCrm9EarningsLocalCurrency":4,"ufCrm9CommissionAmount":4,"ufCrm7ResponsiblePerson":null},{"id":3065,"ufCrm9StatementMonth":"202408 Aug","ufCrm9Mid":2101695740,"ufCrm9Dba":"BLACK HORSE POST OFFICE","ufCrm9SalesVolume":277.68,"ufCrm9SalesTrxn":29,"ufCrm9EarningsLocalCurrency":1,"ufCrm9CommissionAmount":1,"ufCrm7ResponsiblePerson":null},{"id":3067,"ufCrm9StatementMonth":"202408 Aug","ufCrm9Mid":2101695740,"ufCrm9Dba":"BLACK HORSE POST OFFICE","ufCrm9SalesVolume":48.28,"ufCrm9SalesTrxn":7,"ufCrm9EarningsLocalCurrency":0,"ufCrm9CommissionAmount":0,"ufCrm7ResponsiblePerson":null},{"id":3069,"ufCrm9StatementMonth":"202408 Aug","ufCrm9Mid":2101695740,"ufCrm9Dba":"BLACK HORSE POST OFFICE","ufCrm9SalesVolume":5.09,"ufCrm9SalesTrxn":1,"ufCrm9EarningsLocalCurrency":0,"ufCrm9CommissionAmount":0,"ufCrm7ResponsiblePerson":null},{"id":3071,"ufCrm9StatementMonth":"202408 Aug","ufCrm9Mid":2101695740,"ufCrm9Dba":"BLACK HORSE POST OFFICE","ufCrm9SalesVolume":10,"ufCrm9SalesTrxn":1,"ufCrm9EarningsLocalCurrency":8,"ufCrm9CommissionAmount":8,"ufCrm7ResponsiblePerson":null},{"id":3073,"ufCrm9StatementMonth":"202408 Aug","ufCrm9Mid":2101695740,"ufCrm9Dba":"BLACK HORSE POST OFFICE","ufCrm9SalesVolume":0,"ufCrm9SalesTrxn":155,"ufCrm9EarningsLocalCurrency":2,"ufCrm9CommissionAmount":2,"ufCrm7ResponsiblePerson":null},{"id":3075,"ufCrm9StatementMonth":"202408 Aug","ufCrm9Mid":2101695740,"ufCrm9Dba":"BLACK HORSE POST OFFICE","ufCrm9SalesVolume":0,"ufCrm9SalesTrxn":1,"ufCrm9EarningsLocalCurrency":18,"ufCrm9CommissionAmount":18,"ufCrm7ResponsiblePerson":null},{"id":3077,"ufCrm9StatementMonth":"202408 Aug","ufCrm9Mid":2101695740,"ufCrm9Dba":"BLACK HORSE POST OFFICE","ufCrm9SalesVolume":0,"ufCrm9SalesTrxn":1,"ufCrm9EarningsLocalCurrency":24,"ufCrm9CommissionAmount":24,"ufCrm7ResponsiblePerson":null},{"id":3079,"ufCrm9StatementMonth":"202408 Aug","ufCrm9Mid":2101695740,"ufCrm9Dba":"BLACK HORSE POST OFFICE","ufCrm9SalesVolume":0,"ufCrm9SalesTrxn":30,"ufCrm9EarningsLocalCurrency":0,"ufCrm9CommissionAmount":0,"ufCrm7ResponsiblePerson":null},{"id":3081,"ufCrm9StatementMonth":"202408 Aug","ufCrm9Mid":2101699397,"ufCrm9Dba":"UK LIQUOR AND CONVENIENCE STORE","ufCrm9SalesVolume":0,"ufCrm9SalesTrxn":0,"ufCrm9EarningsLocalCurrency":11,"ufCrm9CommissionAmount":11,"ufCrm7ResponsiblePerson":null},{"id":3083,"ufCrm9StatementMonth":"202408 Aug","ufCrm9Mid":2101719700,"ufCrm9Dba":"MANJAROS","ufCrm9SalesVolume":298.7,"ufCrm9SalesTrxn":6,"ufCrm9EarningsLocalCurrency":1,"ufCrm9CommissionAmount":0.5,"ufCrm7ResponsiblePerson":null},{"id":3085,"ufCrm9StatementMonth":"202408 Aug","ufCrm9Mid":2101719700,"ufCrm9Dba":"MANJAROS","ufCrm9SalesVolume":104.45,"ufCrm9SalesTrxn":3,"ufCrm9EarningsLocalCurrency":0,"ufCrm9CommissionAmount":0,"ufCrm7ResponsiblePerson":null},{"id":3087,"ufCrm9StatementMonth":"202408 Aug","ufCrm9Mid":2101719700,"ufCrm9Dba":"MANJAROS","ufCrm9SalesVolume":178.7,"ufCrm9SalesTrxn":9,"ufCrm9EarningsLocalCurrency":1,"ufCrm9CommissionAmount":0.5,"ufCrm7ResponsiblePerson":null},{"id":3089,"ufCrm9StatementMonth":"202408 Aug","ufCrm9Mid":2101719700,"ufCrm9Dba":"MANJAROS","ufCrm9SalesVolume":957.1,"ufCrm9SalesTrxn":17,"ufCrm9EarningsLocalCurrency":2,"ufCrm9CommissionAmount":1,"ufCrm7ResponsiblePerson":null},{"id":3091,"ufCrm9StatementMonth":"202408 Aug","ufCrm9Mid":2101719700,"ufCrm9Dba":"MANJAROS","ufCrm9SalesVolume":166.5,"ufCrm9SalesTrxn":3,"ufCrm9EarningsLocalCurrency":0,"ufCrm9CommissionAmount":0,"ufCrm7ResponsiblePerson":null},{"id":3093,"ufCrm9StatementMonth":"202408 Aug","ufCrm9Mid":2101719700,"ufCrm9Dba":"MANJAROS","ufCrm9SalesVolume":81.3,"ufCrm9SalesTrxn":7,"ufCrm9EarningsLocalCurrency":1,"ufCrm9CommissionAmount":0.5,"ufCrm7ResponsiblePerson":null},{"id":3095,"ufCrm9StatementMonth":"202408 Aug","ufCrm9Mid":2101719700,"ufCrm9Dba":"MANJAROS","ufCrm9SalesVolume":11,"ufCrm9SalesTrxn":450,"ufCrm9EarningsLocalCurrency":9,"ufCrm9CommissionAmount":4.5,"ufCrm7ResponsiblePerson":null},{"id":3097,"ufCrm9StatementMonth":"202408 Aug","ufCrm9Mid":2101719700,"ufCrm9Dba":"MANJAROS","ufCrm9SalesVolume":0,"ufCrm9SalesTrxn":0,"ufCrm9EarningsLocalCurrency":8,"ufCrm9CommissionAmount":8,"ufCrm7ResponsiblePerson":null},{"id":3099,"ufCrm9StatementMonth":"202408 Aug","ufCrm9Mid":2101719700,"ufCrm9Dba":"MANJAROS","ufCrm9SalesVolume":329.35,"ufCrm9SalesTrxn":3,"ufCrm9EarningsLocalCurrency":3,"ufCrm9CommissionAmount":1.5,"ufCrm7ResponsiblePerson":null},{"id":3101,"ufCrm9StatementMonth":"202408 Aug","ufCrm9Mid":2101719700,"ufCrm9Dba":"MANJAROS","ufCrm9SalesVolume":5,"ufCrm9SalesTrxn":159,"ufCrm9EarningsLocalCurrency":10,"ufCrm9CommissionAmount":5,"ufCrm7ResponsiblePerson":null},{"id":3103,"ufCrm9StatementMonth":"202408 Aug","ufCrm9Mid":2101719700,"ufCrm9Dba":"MANJAROS","ufCrm9SalesVolume":0,"ufCrm9SalesTrxn":0,"ufCrm9EarningsLocalCurrency":-1,"ufCrm9CommissionAmount":-0.5,"ufCrm7ResponsiblePerson":null}]},"next":450,"total":16162,"time":{"start":1733232325.59843,"finish":1733232325.956755,"duration":0.3583250045776367,"processing":0.3211658000946045,"date_start":"2024-12-03T16:25:25+03:00","date_finish":"2024-12-03T16:25:25+03:00","operating_reset_at":1733232925,"operating":4.4460790157318115}}}