{"url":"https:\/\/5tel.bitrix24.uk\/rest\/13\/bq7arhlt29j4yu6c\/crm.item.list.json","info":{"url":"https:\/\/5tel.bitrix24.uk\/rest\/13\/bq7arhlt29j4yu6c\/crm.item.list.json","content_type":"application\/json; charset=utf-8","http_code":200,"header_size":1031,"request_size":522,"filetime":-1,"ssl_verify_result":0,"redirect_count":0,"total_time":0.953952,"namelookup_time":0.010235,"connect_time":0.177015,"pretransfer_time":0.367629,"size_upload":318,"size_download":12193,"speed_download":12781,"speed_upload":333,"download_content_length":-1,"upload_content_length":318,"starttransfer_time":0.953872,"redirect_time":0,"redirect_url":"","primary_ip":"52.29.77.149","certinfo":[],"primary_port":443,"local_ip":"192.168.29.236","local_port":63129,"http_version":3,"protocol":2,"ssl_verifyresult":0,"scheme":"HTTPS","appconnect_time_us":367467,"connect_time_us":177015,"namelookup_time_us":10235,"pretransfer_time_us":367629,"redirect_time_us":0,"starttransfer_time_us":953872,"total_time_us":953952,"effective_method":"POST"},"params":{"method":"crm.item.list","params":{"entityTypeId":1052,"filter":[],"order":{"ufCrm9Mid":"asc"},"select":["ID","ufCrm9StatementMonth","ufCrm9Mid","ufCrm9Dba","ufCrm9SalesVolume","ufCrm9SalesTrxn","ufCrm9CommissionAmount","assignedById","ufCrm9EarningsLocalCurrency"],"start":0}},"result":{"result":{"items":[{"id":2205,"ufCrm9StatementMonth":"202408 Aug","ufCrm9Mid":2101470122,"ufCrm9Dba":"ATKINS PHARMACY","ufCrm9SalesVolume":0,"ufCrm9SalesTrxn":0,"ufCrm9EarningsLocalCurrency":0,"ufCrm9CommissionAmount":0,"assignedById":17},{"id":19457,"ufCrm9StatementMonth":"202409 Sep","ufCrm9Mid":2101470122,"ufCrm9Dba":"ATKINS PHARMACY","ufCrm9SalesVolume":0,"ufCrm9SalesTrxn":0,"ufCrm9EarningsLocalCurrency":null,"ufCrm9CommissionAmount":0,"assignedById":17},{"id":25813,"ufCrm9StatementMonth":"202409 Sep","ufCrm9Mid":2101496360,"ufCrm9Dba":"J C WISE LIMITED","ufCrm9SalesVolume":0,"ufCrm9SalesTrxn":80,"ufCrm9EarningsLocalCurrency":2,"ufCrm9CommissionAmount":1.88,"assignedById":17},{"id":2207,"ufCrm9StatementMonth":"202408 Aug","ufCrm9Mid":2101496360,"ufCrm9Dba":"J C WISE LIMITED","ufCrm9SalesVolume":253.62,"ufCrm9SalesTrxn":15,"ufCrm9EarningsLocalCurrency":1,"ufCrm9CommissionAmount":1,"assignedById":17},{"id":25793,"ufCrm9StatementMonth":"202409 Sep","ufCrm9Mid":2101496360,"ufCrm9Dba":"J C WISE LIMITED","ufCrm9SalesVolume":26.69,"ufCrm9SalesTrxn":2,"ufCrm9EarningsLocalCurrency":0,"ufCrm9CommissionAmount":0.004,"assignedById":17},{"id":25795,"ufCrm9StatementMonth":"202409 Sep","ufCrm9Mid":2101496360,"ufCrm9Dba":"J C WISE LIMITED","ufCrm9SalesVolume":42.63,"ufCrm9SalesTrxn":3,"ufCrm9EarningsLocalCurrency":0,"ufCrm9CommissionAmount":0.006,"assignedById":17},{"id":25797,"ufCrm9StatementMonth":"202409 Sep","ufCrm9Mid":2101496360,"ufCrm9Dba":"J C WISE LIMITED","ufCrm9SalesVolume":349.98,"ufCrm9SalesTrxn":45,"ufCrm9EarningsLocalCurrency":0,"ufCrm9CommissionAmount":0.056,"assignedById":17},{"id":25799,"ufCrm9StatementMonth":"202409 Sep","ufCrm9Mid":2101496360,"ufCrm9Dba":"J C WISE LIMITED","ufCrm9SalesVolume":422.23,"ufCrm9SalesTrxn":42,"ufCrm9EarningsLocalCurrency":0,"ufCrm9CommissionAmount":0.068,"assignedById":17},{"id":25801,"ufCrm9StatementMonth":"202409 Sep","ufCrm9Mid":2101496360,"ufCrm9Dba":"J C WISE LIMITED","ufCrm9SalesVolume":0,"ufCrm9SalesTrxn":1,"ufCrm9EarningsLocalCurrency":24,"ufCrm9CommissionAmount":23.92,"assignedById":17},{"id":25803,"ufCrm9StatementMonth":"202409 Sep","ufCrm9Mid":2101496360,"ufCrm9Dba":"J C WISE LIMITED","ufCrm9SalesVolume":11,"ufCrm9SalesTrxn":977,"ufCrm9EarningsLocalCurrency":22,"ufCrm9CommissionAmount":22.2,"assignedById":17},{"id":25805,"ufCrm9StatementMonth":"202409 Sep","ufCrm9Mid":2101496360,"ufCrm9Dba":"J C WISE LIMITED","ufCrm9SalesVolume":0,"ufCrm9SalesTrxn":806,"ufCrm9EarningsLocalCurrency":19,"ufCrm9CommissionAmount":18.95,"assignedById":17},{"id":25807,"ufCrm9StatementMonth":"202409 Sep","ufCrm9Mid":2101496360,"ufCrm9Dba":"J C WISE LIMITED","ufCrm9SalesVolume":8,"ufCrm9SalesTrxn":768,"ufCrm9EarningsLocalCurrency":15,"ufCrm9CommissionAmount":14.7,"assignedById":17},{"id":25809,"ufCrm9StatementMonth":"202409 Sep","ufCrm9Mid":2101496360,"ufCrm9Dba":"J C WISE LIMITED","ufCrm9SalesVolume":930.25,"ufCrm9SalesTrxn":78,"ufCrm9EarningsLocalCurrency":4,"ufCrm9CommissionAmount":3.63,"assignedById":17},{"id":25811,"ufCrm9StatementMonth":"202409 Sep","ufCrm9Mid":2101496360,"ufCrm9Dba":"J C WISE LIMITED","ufCrm9SalesVolume":563.21,"ufCrm9SalesTrxn":38,"ufCrm9EarningsLocalCurrency":2,"ufCrm9CommissionAmount":2.19,"assignedById":17},{"id":25835,"ufCrm9StatementMonth":"202409 Sep","ufCrm9Mid":2101496360,"ufCrm9Dba":"J C WISE LIMITED","ufCrm9SalesVolume":3.49,"ufCrm9SalesTrxn":1,"ufCrm9EarningsLocalCurrency":0,"ufCrm9CommissionAmount":0.01,"assignedById":17},{"id":25815,"ufCrm9StatementMonth":"202409 Sep","ufCrm9Mid":2101496360,"ufCrm9Dba":"J C WISE LIMITED","ufCrm9SalesVolume":241.22,"ufCrm9SalesTrxn":13,"ufCrm9EarningsLocalCurrency":1,"ufCrm9CommissionAmount":1.06,"assignedById":17},{"id":25817,"ufCrm9StatementMonth":"202409 Sep","ufCrm9Mid":2101496360,"ufCrm9Dba":"J C WISE LIMITED","ufCrm9SalesVolume":0,"ufCrm9SalesTrxn":0,"ufCrm9EarningsLocalCurrency":null,"ufCrm9CommissionAmount":0,"assignedById":17},{"id":25819,"ufCrm9StatementMonth":"202409 Sep","ufCrm9Mid":2101496360,"ufCrm9Dba":"J C WISE LIMITED","ufCrm9SalesVolume":0,"ufCrm9SalesTrxn":42,"ufCrm9EarningsLocalCurrency":1,"ufCrm9CommissionAmount":0.99,"assignedById":17},{"id":25821,"ufCrm9StatementMonth":"202409 Sep","ufCrm9Mid":2101496360,"ufCrm9Dba":"J C WISE LIMITED","ufCrm9SalesVolume":202.29,"ufCrm9SalesTrxn":20,"ufCrm9EarningsLocalCurrency":1,"ufCrm9CommissionAmount":0.98,"assignedById":17},{"id":25823,"ufCrm9StatementMonth":"202409 Sep","ufCrm9Mid":2101496360,"ufCrm9Dba":"J C WISE LIMITED","ufCrm9SalesVolume":150.04,"ufCrm9SalesTrxn":11,"ufCrm9EarningsLocalCurrency":1,"ufCrm9CommissionAmount":0.84,"assignedById":17},{"id":25825,"ufCrm9StatementMonth":"202409 Sep","ufCrm9Mid":2101496360,"ufCrm9Dba":"J C WISE LIMITED","ufCrm9SalesVolume":45.76,"ufCrm9SalesTrxn":3,"ufCrm9EarningsLocalCurrency":0,"ufCrm9CommissionAmount":0.2,"assignedById":17},{"id":25827,"ufCrm9StatementMonth":"202409 Sep","ufCrm9Mid":2101496360,"ufCrm9Dba":"J C WISE LIMITED","ufCrm9SalesVolume":27.86,"ufCrm9SalesTrxn":3,"ufCrm9EarningsLocalCurrency":0,"ufCrm9CommissionAmount":0.13,"assignedById":17},{"id":25829,"ufCrm9StatementMonth":"202409 Sep","ufCrm9Mid":2101496360,"ufCrm9Dba":"J C WISE LIMITED","ufCrm9SalesVolume":33.8,"ufCrm9SalesTrxn":3,"ufCrm9EarningsLocalCurrency":0,"ufCrm9CommissionAmount":0.07,"assignedById":17},{"id":25831,"ufCrm9StatementMonth":"202409 Sep","ufCrm9Mid":2101496360,"ufCrm9Dba":"J C WISE LIMITED","ufCrm9SalesVolume":10.85,"ufCrm9SalesTrxn":2,"ufCrm9EarningsLocalCurrency":0,"ufCrm9CommissionAmount":0.04,"assignedById":17},{"id":25833,"ufCrm9StatementMonth":"202409 Sep","ufCrm9Mid":2101496360,"ufCrm9Dba":"J C WISE LIMITED","ufCrm9SalesVolume":3.27,"ufCrm9SalesTrxn":1,"ufCrm9EarningsLocalCurrency":0,"ufCrm9CommissionAmount":0.02,"assignedById":17},{"id":2233,"ufCrm9StatementMonth":"202408 Aug","ufCrm9Mid":2101496360,"ufCrm9Dba":"J C WISE LIMITED","ufCrm9SalesVolume":11,"ufCrm9SalesTrxn":958,"ufCrm9EarningsLocalCurrency":22,"ufCrm9CommissionAmount":22,"assignedById":17},{"id":2209,"ufCrm9StatementMonth":"202408 Aug","ufCrm9Mid":2101496360,"ufCrm9Dba":"J C WISE LIMITED","ufCrm9SalesVolume":31.83,"ufCrm9SalesTrxn":4,"ufCrm9EarningsLocalCurrency":0,"ufCrm9CommissionAmount":0,"assignedById":17},{"id":2211,"ufCrm9StatementMonth":"202408 Aug","ufCrm9Mid":2101496360,"ufCrm9Dba":"J C WISE LIMITED","ufCrm9SalesVolume":0,"ufCrm9SalesTrxn":993,"ufCrm9EarningsLocalCurrency":23,"ufCrm9CommissionAmount":23,"assignedById":17},{"id":2213,"ufCrm9StatementMonth":"202408 Aug","ufCrm9Mid":2101496360,"ufCrm9Dba":"J C WISE LIMITED","ufCrm9SalesVolume":528.9,"ufCrm9SalesTrxn":39,"ufCrm9EarningsLocalCurrency":0,"ufCrm9CommissionAmount":0,"assignedById":17},{"id":2215,"ufCrm9StatementMonth":"202408 Aug","ufCrm9Mid":2101496360,"ufCrm9Dba":"J C WISE LIMITED","ufCrm9SalesVolume":12.74,"ufCrm9SalesTrxn":1,"ufCrm9EarningsLocalCurrency":0,"ufCrm9CommissionAmount":0,"assignedById":17},{"id":2217,"ufCrm9StatementMonth":"202408 Aug","ufCrm9Mid":2101496360,"ufCrm9Dba":"J C WISE LIMITED","ufCrm9SalesVolume":8,"ufCrm9SalesTrxn":725,"ufCrm9EarningsLocalCurrency":14,"ufCrm9CommissionAmount":14,"assignedById":17},{"id":2219,"ufCrm9StatementMonth":"202408 Aug","ufCrm9Mid":2101496360,"ufCrm9Dba":"J C WISE LIMITED","ufCrm9SalesVolume":0,"ufCrm9SalesTrxn":0,"ufCrm9EarningsLocalCurrency":1,"ufCrm9CommissionAmount":1,"assignedById":17},{"id":2221,"ufCrm9StatementMonth":"202408 Aug","ufCrm9Mid":2101496360,"ufCrm9Dba":"J C WISE LIMITED","ufCrm9SalesVolume":68.79,"ufCrm9SalesTrxn":5,"ufCrm9EarningsLocalCurrency":0,"ufCrm9CommissionAmount":0,"assignedById":17},{"id":2223,"ufCrm9StatementMonth":"202408 Aug","ufCrm9Mid":2101496360,"ufCrm9Dba":"J C WISE LIMITED","ufCrm9SalesVolume":1,"ufCrm9SalesTrxn":90,"ufCrm9EarningsLocalCurrency":5,"ufCrm9CommissionAmount":5,"assignedById":17},{"id":2225,"ufCrm9StatementMonth":"202408 Aug","ufCrm9Mid":2101496360,"ufCrm9Dba":"J C WISE LIMITED","ufCrm9SalesVolume":321.39,"ufCrm9SalesTrxn":37,"ufCrm9EarningsLocalCurrency":0,"ufCrm9CommissionAmount":0,"assignedById":17},{"id":2227,"ufCrm9StatementMonth":"202408 Aug","ufCrm9Mid":2101496360,"ufCrm9Dba":"J C WISE LIMITED","ufCrm9SalesVolume":24.79,"ufCrm9SalesTrxn":1,"ufCrm9EarningsLocalCurrency":0,"ufCrm9CommissionAmount":0,"assignedById":17},{"id":2229,"ufCrm9StatementMonth":"202408 Aug","ufCrm9Mid":2101496360,"ufCrm9Dba":"J C WISE LIMITED","ufCrm9SalesVolume":130.52,"ufCrm9SalesTrxn":15,"ufCrm9EarningsLocalCurrency":1,"ufCrm9CommissionAmount":1,"assignedById":17},{"id":2231,"ufCrm9StatementMonth":"202408 Aug","ufCrm9Mid":2101496360,"ufCrm9Dba":"J C WISE LIMITED","ufCrm9SalesVolume":405.33,"ufCrm9SalesTrxn":35,"ufCrm9EarningsLocalCurrency":2,"ufCrm9CommissionAmount":2,"assignedById":17},{"id":2235,"ufCrm9StatementMonth":"202408 Aug","ufCrm9Mid":2101496360,"ufCrm9Dba":"J C WISE LIMITED","ufCrm9SalesVolume":10.67,"ufCrm9SalesTrxn":2,"ufCrm9EarningsLocalCurrency":0,"ufCrm9CommissionAmount":0,"assignedById":17},{"id":2237,"ufCrm9StatementMonth":"202408 Aug","ufCrm9Mid":2101496360,"ufCrm9Dba":"J C WISE LIMITED","ufCrm9SalesVolume":48.42,"ufCrm9SalesTrxn":5,"ufCrm9EarningsLocalCurrency":0,"ufCrm9CommissionAmount":0,"assignedById":17},{"id":2239,"ufCrm9StatementMonth":"202408 Aug","ufCrm9Mid":2101496360,"ufCrm9Dba":"J C WISE LIMITED","ufCrm9SalesVolume":0,"ufCrm9SalesTrxn":94,"ufCrm9EarningsLocalCurrency":2,"ufCrm9CommissionAmount":2,"assignedById":17},{"id":2241,"ufCrm9StatementMonth":"202408 Aug","ufCrm9Mid":2101496360,"ufCrm9Dba":"J C WISE LIMITED","ufCrm9SalesVolume":0,"ufCrm9SalesTrxn":763,"ufCrm9EarningsLocalCurrency":18,"ufCrm9CommissionAmount":18,"assignedById":17},{"id":2243,"ufCrm9StatementMonth":"202408 Aug","ufCrm9Mid":2101496360,"ufCrm9Dba":"J C WISE LIMITED","ufCrm9SalesVolume":0,"ufCrm9SalesTrxn":41,"ufCrm9EarningsLocalCurrency":1,"ufCrm9CommissionAmount":1,"assignedById":17},{"id":2245,"ufCrm9StatementMonth":"202408 Aug","ufCrm9Mid":2101496360,"ufCrm9Dba":"J C WISE LIMITED","ufCrm9SalesVolume":38.14,"ufCrm9SalesTrxn":4,"ufCrm9EarningsLocalCurrency":0,"ufCrm9CommissionAmount":0,"assignedById":17},{"id":2247,"ufCrm9StatementMonth":"202408 Aug","ufCrm9Mid":2101496360,"ufCrm9Dba":"J C WISE LIMITED","ufCrm9SalesVolume":81.67,"ufCrm9SalesTrxn":6,"ufCrm9EarningsLocalCurrency":0,"ufCrm9CommissionAmount":0,"assignedById":17},{"id":2259,"ufCrm9StatementMonth":"202408 Aug","ufCrm9Mid":2101498203,"ufCrm9Dba":"ARKLE PHARMACY","ufCrm9SalesVolume":51.1,"ufCrm9SalesTrxn":4,"ufCrm9EarningsLocalCurrency":0,"ufCrm9CommissionAmount":0,"assignedById":17},{"id":2249,"ufCrm9StatementMonth":"202408 Aug","ufCrm9Mid":2101498203,"ufCrm9Dba":"ARKLE PHARMACY","ufCrm9SalesVolume":51.27,"ufCrm9SalesTrxn":6,"ufCrm9EarningsLocalCurrency":0,"ufCrm9CommissionAmount":0,"assignedById":17},{"id":2255,"ufCrm9StatementMonth":"202408 Aug","ufCrm9Mid":2101498203,"ufCrm9Dba":"ARKLE PHARMACY","ufCrm9SalesVolume":18.57,"ufCrm9SalesTrxn":1,"ufCrm9EarningsLocalCurrency":0,"ufCrm9CommissionAmount":0,"assignedById":17},{"id":2257,"ufCrm9StatementMonth":"202408 Aug","ufCrm9Mid":2101498203,"ufCrm9Dba":"ARKLE PHARMACY","ufCrm9SalesVolume":8,"ufCrm9SalesTrxn":792,"ufCrm9EarningsLocalCurrency":15,"ufCrm9CommissionAmount":15,"assignedById":17},{"id":2261,"ufCrm9StatementMonth":"202408 Aug","ufCrm9Mid":2101498203,"ufCrm9Dba":"ARKLE PHARMACY","ufCrm9SalesVolume":0,"ufCrm9SalesTrxn":0,"ufCrm9EarningsLocalCurrency":1,"ufCrm9CommissionAmount":1,"assignedById":17}]},"next":50,"total":16162,"time":{"start":1733291779.818813,"finish":1733291780.187932,"duration":0.36911892890930176,"processing":0.3433220386505127,"date_start":"2024-12-04T08:56:19+03:00","date_finish":"2024-12-04T08:56:20+03:00","operating_reset_at":1733292379,"operating":0.7292838096618652}}}