{"url":"https:\/\/5tel.bitrix24.uk\/rest\/13\/bq7arhlt29j4yu6c\/crm.item.list.json","info":{"url":"https:\/\/5tel.bitrix24.uk\/rest\/13\/bq7arhlt29j4yu6c\/crm.item.list.json","content_type":"application\/json; charset=utf-8","http_code":200,"header_size":1031,"request_size":498,"filetime":-1,"ssl_verify_result":0,"redirect_count":0,"total_time":0.887647,"namelookup_time":0.009212,"connect_time":0.197043,"pretransfer_time":0.389298,"size_upload":294,"size_download":12241,"speed_download":13790,"speed_upload":331,"download_content_length":-1,"upload_content_length":294,"starttransfer_time":0.887587,"redirect_time":0,"redirect_url":"","primary_ip":"52.29.77.149","certinfo":[],"primary_port":443,"local_ip":"192.168.29.236","local_port":63095,"http_version":3,"protocol":2,"ssl_verifyresult":0,"scheme":"HTTPS","appconnect_time_us":389141,"connect_time_us":197043,"namelookup_time_us":9212,"pretransfer_time_us":389298,"redirect_time_us":0,"starttransfer_time_us":887587,"total_time_us":887647,"effective_method":"POST"},"params":{"method":"crm.item.list","params":{"entityTypeId":1052,"filter":[],"select":["ID","ufCrm9StatementMonth","ufCrm9Mid","ufCrm9Dba","ufCrm9SalesVolume","ufCrm9SalesTrxn","ufCrm9CommissionAmount","assignedById","ufCrm9EarningsLocalCurrency"],"start":50}},"result":{"result":{"items":[{"id":2305,"ufCrm9StatementMonth":"202408 Aug","ufCrm9Mid":2101502056,"ufCrm9Dba":"BARKINGSIDE FOOD STORE","ufCrm9SalesVolume":2,"ufCrm9SalesTrxn":197,"ufCrm9EarningsLocalCurrency":9,"ufCrm9CommissionAmount":9,"assignedById":17},{"id":2307,"ufCrm9StatementMonth":"202408 Aug","ufCrm9Mid":2101502056,"ufCrm9Dba":"BARKINGSIDE FOOD STORE","ufCrm9SalesVolume":70.33,"ufCrm9SalesTrxn":4,"ufCrm9EarningsLocalCurrency":0,"ufCrm9CommissionAmount":0,"assignedById":17},{"id":2309,"ufCrm9StatementMonth":"202408 Aug","ufCrm9Mid":2101502056,"ufCrm9Dba":"BARKINGSIDE FOOD STORE","ufCrm9SalesVolume":608.09,"ufCrm9SalesTrxn":37,"ufCrm9EarningsLocalCurrency":1,"ufCrm9CommissionAmount":1,"assignedById":17},{"id":2311,"ufCrm9StatementMonth":"202408 Aug","ufCrm9Mid":2101502056,"ufCrm9Dba":"BARKINGSIDE FOOD STORE","ufCrm9SalesVolume":0,"ufCrm9SalesTrxn":0,"ufCrm9EarningsLocalCurrency":9,"ufCrm9CommissionAmount":9,"assignedById":17},{"id":2313,"ufCrm9StatementMonth":"202408 Aug","ufCrm9Mid":2101502056,"ufCrm9Dba":"BARKINGSIDE FOOD STORE","ufCrm9SalesVolume":18,"ufCrm9SalesTrxn":2,"ufCrm9EarningsLocalCurrency":13,"ufCrm9CommissionAmount":13,"assignedById":17},{"id":2315,"ufCrm9StatementMonth":"202408 Aug","ufCrm9Mid":2101502056,"ufCrm9Dba":"BARKINGSIDE FOOD STORE","ufCrm9SalesVolume":32.13,"ufCrm9SalesTrxn":8,"ufCrm9EarningsLocalCurrency":0,"ufCrm9CommissionAmount":0,"assignedById":17},{"id":2317,"ufCrm9StatementMonth":"202408 Aug","ufCrm9Mid":2101502056,"ufCrm9Dba":"BARKINGSIDE FOOD STORE","ufCrm9SalesVolume":6.58,"ufCrm9SalesTrxn":1,"ufCrm9EarningsLocalCurrency":0,"ufCrm9CommissionAmount":0,"assignedById":17},{"id":2319,"ufCrm9StatementMonth":"202408 Aug","ufCrm9Mid":2101502056,"ufCrm9Dba":"BARKINGSIDE FOOD STORE","ufCrm9SalesVolume":141.51,"ufCrm9SalesTrxn":17,"ufCrm9EarningsLocalCurrency":1,"ufCrm9CommissionAmount":1,"assignedById":17},{"id":2321,"ufCrm9StatementMonth":"202408 Aug","ufCrm9Mid":2101502056,"ufCrm9Dba":"BARKINGSIDE FOOD STORE","ufCrm9SalesVolume":261.36,"ufCrm9SalesTrxn":31,"ufCrm9EarningsLocalCurrency":1,"ufCrm9CommissionAmount":1,"assignedById":17},{"id":2323,"ufCrm9StatementMonth":"202408 Aug","ufCrm9Mid":2101502056,"ufCrm9Dba":"BARKINGSIDE FOOD STORE","ufCrm9SalesVolume":45,"ufCrm9SalesTrxn":4,"ufCrm9EarningsLocalCurrency":42,"ufCrm9CommissionAmount":42,"assignedById":17},{"id":2325,"ufCrm9StatementMonth":"202408 Aug","ufCrm9Mid":2101502056,"ufCrm9Dba":"BARKINGSIDE FOOD STORE","ufCrm9SalesVolume":131.81,"ufCrm9SalesTrxn":10,"ufCrm9EarningsLocalCurrency":1,"ufCrm9CommissionAmount":1,"assignedById":17},{"id":2327,"ufCrm9StatementMonth":"202408 Aug","ufCrm9Mid":2101502056,"ufCrm9Dba":"BARKINGSIDE FOOD STORE","ufCrm9SalesVolume":0,"ufCrm9SalesTrxn":512,"ufCrm9EarningsLocalCurrency":12,"ufCrm9CommissionAmount":12,"assignedById":17},{"id":2329,"ufCrm9StatementMonth":"202408 Aug","ufCrm9Mid":2101502056,"ufCrm9Dba":"BARKINGSIDE FOOD STORE","ufCrm9SalesVolume":0,"ufCrm9SalesTrxn":2,"ufCrm9EarningsLocalCurrency":55,"ufCrm9CommissionAmount":55,"assignedById":17},{"id":2331,"ufCrm9StatementMonth":"202408 Aug","ufCrm9Mid":2101502056,"ufCrm9Dba":"BARKINGSIDE FOOD STORE","ufCrm9SalesVolume":0,"ufCrm9SalesTrxn":2,"ufCrm9EarningsLocalCurrency":0,"ufCrm9CommissionAmount":0,"assignedById":17},{"id":2333,"ufCrm9StatementMonth":"202408 Aug","ufCrm9Mid":2101502056,"ufCrm9Dba":"BARKINGSIDE FOOD STORE","ufCrm9SalesVolume":0,"ufCrm9SalesTrxn":228,"ufCrm9EarningsLocalCurrency":5,"ufCrm9CommissionAmount":5,"assignedById":17},{"id":2335,"ufCrm9StatementMonth":"202408 Aug","ufCrm9Mid":2101502056,"ufCrm9Dba":"BARKINGSIDE FOOD STORE","ufCrm9SalesVolume":321.31,"ufCrm9SalesTrxn":31,"ufCrm9EarningsLocalCurrency":1,"ufCrm9CommissionAmount":1,"assignedById":17},{"id":2337,"ufCrm9StatementMonth":"202408 Aug","ufCrm9Mid":2101565138,"ufCrm9Dba":"PAYLESS FOOD AND WINE","ufCrm9SalesVolume":230.83,"ufCrm9SalesTrxn":28,"ufCrm9EarningsLocalCurrency":1,"ufCrm9CommissionAmount":0.3,"assignedById":13},{"id":2339,"ufCrm9StatementMonth":"202408 Aug","ufCrm9Mid":2101565138,"ufCrm9Dba":"PAYLESS FOOD AND WINE","ufCrm9SalesVolume":7.46,"ufCrm9SalesTrxn":6,"ufCrm9EarningsLocalCurrency":0,"ufCrm9CommissionAmount":0,"assignedById":13},{"id":2341,"ufCrm9StatementMonth":"202408 Aug","ufCrm9Mid":2101565138,"ufCrm9Dba":"PAYLESS FOOD AND WINE","ufCrm9SalesVolume":23.47,"ufCrm9SalesTrxn":4,"ufCrm9EarningsLocalCurrency":0,"ufCrm9CommissionAmount":0,"assignedById":13},{"id":2343,"ufCrm9StatementMonth":"202408 Aug","ufCrm9Mid":2101565138,"ufCrm9Dba":"PAYLESS FOOD AND WINE","ufCrm9SalesVolume":244.69,"ufCrm9SalesTrxn":14,"ufCrm9EarningsLocalCurrency":1,"ufCrm9CommissionAmount":0.3,"assignedById":13},{"id":2345,"ufCrm9StatementMonth":"202408 Aug","ufCrm9Mid":2101565138,"ufCrm9Dba":"PAYLESS FOOD AND WINE","ufCrm9SalesVolume":14.97,"ufCrm9SalesTrxn":1,"ufCrm9EarningsLocalCurrency":0,"ufCrm9CommissionAmount":0,"assignedById":13},{"id":2347,"ufCrm9StatementMonth":"202408 Aug","ufCrm9Mid":2101565138,"ufCrm9Dba":"PAYLESS FOOD AND WINE","ufCrm9SalesVolume":19,"ufCrm9SalesTrxn":2,"ufCrm9EarningsLocalCurrency":15,"ufCrm9CommissionAmount":4.5,"assignedById":13},{"id":2349,"ufCrm9StatementMonth":"202408 Aug","ufCrm9Mid":2101565138,"ufCrm9Dba":"PAYLESS FOOD AND WINE","ufCrm9SalesVolume":0,"ufCrm9SalesTrxn":0,"ufCrm9EarningsLocalCurrency":0,"ufCrm9CommissionAmount":0,"assignedById":13},{"id":2351,"ufCrm9StatementMonth":"202408 Aug","ufCrm9Mid":2101565138,"ufCrm9Dba":"PAYLESS FOOD AND WINE","ufCrm9SalesVolume":2,"ufCrm9SalesTrxn":275,"ufCrm9EarningsLocalCurrency":5,"ufCrm9CommissionAmount":1.5,"assignedById":13},{"id":2353,"ufCrm9StatementMonth":"202408 Aug","ufCrm9Mid":2101565138,"ufCrm9Dba":"PAYLESS FOOD AND WINE","ufCrm9SalesVolume":158.26,"ufCrm9SalesTrxn":31,"ufCrm9EarningsLocalCurrency":1,"ufCrm9CommissionAmount":0.3,"assignedById":13},{"id":2355,"ufCrm9StatementMonth":"202408 Aug","ufCrm9Mid":2101565138,"ufCrm9Dba":"PAYLESS FOOD AND WINE","ufCrm9SalesVolume":475,"ufCrm9SalesTrxn":54,"ufCrm9EarningsLocalCurrency":2,"ufCrm9CommissionAmount":0.6,"assignedById":13},{"id":2357,"ufCrm9StatementMonth":"202408 Aug","ufCrm9Mid":2101565138,"ufCrm9Dba":"PAYLESS FOOD AND WINE","ufCrm9SalesVolume":5.48,"ufCrm9SalesTrxn":2,"ufCrm9EarningsLocalCurrency":0,"ufCrm9CommissionAmount":0,"assignedById":13},{"id":2359,"ufCrm9StatementMonth":"202408 Aug","ufCrm9Mid":2101565138,"ufCrm9Dba":"PAYLESS FOOD AND WINE","ufCrm9SalesVolume":118.92,"ufCrm9SalesTrxn":6,"ufCrm9EarningsLocalCurrency":1,"ufCrm9CommissionAmount":0.3,"assignedById":13},{"id":2361,"ufCrm9StatementMonth":"202408 Aug","ufCrm9Mid":2101565138,"ufCrm9Dba":"PAYLESS FOOD AND WINE","ufCrm9SalesVolume":19.49,"ufCrm9SalesTrxn":1,"ufCrm9EarningsLocalCurrency":0,"ufCrm9CommissionAmount":0,"assignedById":13},{"id":2363,"ufCrm9StatementMonth":"202408 Aug","ufCrm9Mid":2101565138,"ufCrm9Dba":"PAYLESS FOOD AND WINE","ufCrm9SalesVolume":976.09,"ufCrm9SalesTrxn":121,"ufCrm9EarningsLocalCurrency":2,"ufCrm9CommissionAmount":0.6,"assignedById":13},{"id":2365,"ufCrm9StatementMonth":"202408 Aug","ufCrm9Mid":2101565138,"ufCrm9Dba":"PAYLESS FOOD AND WINE","ufCrm9SalesVolume":22,"ufCrm9SalesTrxn":2,"ufCrm9EarningsLocalCurrency":28,"ufCrm9CommissionAmount":8.4,"assignedById":13},{"id":2367,"ufCrm9StatementMonth":"202408 Aug","ufCrm9Mid":2101565138,"ufCrm9Dba":"PAYLESS FOOD AND WINE","ufCrm9SalesVolume":1,"ufCrm9SalesTrxn":112,"ufCrm9EarningsLocalCurrency":6,"ufCrm9CommissionAmount":1.8,"assignedById":13},{"id":2369,"ufCrm9StatementMonth":"202408 Aug","ufCrm9Mid":2101565138,"ufCrm9Dba":"PAYLESS FOOD AND WINE","ufCrm9SalesVolume":707.23,"ufCrm9SalesTrxn":64,"ufCrm9EarningsLocalCurrency":4,"ufCrm9CommissionAmount":1.2,"assignedById":13},{"id":2371,"ufCrm9StatementMonth":"202408 Aug","ufCrm9Mid":2101565138,"ufCrm9Dba":"PAYLESS FOOD AND WINE","ufCrm9SalesVolume":162.57,"ufCrm9SalesTrxn":12,"ufCrm9EarningsLocalCurrency":0,"ufCrm9CommissionAmount":0,"assignedById":13},{"id":2373,"ufCrm9StatementMonth":"202408 Aug","ufCrm9Mid":2101565138,"ufCrm9Dba":"PAYLESS FOOD AND WINE","ufCrm9SalesVolume":0,"ufCrm9SalesTrxn":293,"ufCrm9EarningsLocalCurrency":7,"ufCrm9CommissionAmount":2.1,"assignedById":13},{"id":2375,"ufCrm9StatementMonth":"202408 Aug","ufCrm9Mid":2101565138,"ufCrm9Dba":"PAYLESS FOOD AND WINE","ufCrm9SalesVolume":0,"ufCrm9SalesTrxn":2,"ufCrm9EarningsLocalCurrency":61,"ufCrm9CommissionAmount":18.3,"assignedById":13},{"id":2377,"ufCrm9StatementMonth":"202408 Aug","ufCrm9Mid":2101565138,"ufCrm9Dba":"PAYLESS FOOD AND WINE","ufCrm9SalesVolume":0,"ufCrm9SalesTrxn":1,"ufCrm9EarningsLocalCurrency":0,"ufCrm9CommissionAmount":0,"assignedById":13},{"id":2379,"ufCrm9StatementMonth":"202408 Aug","ufCrm9Mid":2101565138,"ufCrm9Dba":"PAYLESS FOOD AND WINE","ufCrm9SalesVolume":0,"ufCrm9SalesTrxn":2,"ufCrm9EarningsLocalCurrency":70,"ufCrm9CommissionAmount":21,"assignedById":13},{"id":2381,"ufCrm9StatementMonth":"202408 Aug","ufCrm9Mid":2101565138,"ufCrm9Dba":"PAYLESS FOOD AND WINE","ufCrm9SalesVolume":0,"ufCrm9SalesTrxn":198,"ufCrm9EarningsLocalCurrency":5,"ufCrm9CommissionAmount":1.5,"assignedById":13},{"id":2383,"ufCrm9StatementMonth":"202408 Aug","ufCrm9Mid":2101580711,"ufCrm9Dba":"POPLAR WINES AND SPIRITS","ufCrm9SalesVolume":0,"ufCrm9SalesTrxn":0,"ufCrm9EarningsLocalCurrency":0,"ufCrm9CommissionAmount":0,"assignedById":17},{"id":2385,"ufCrm9StatementMonth":"202408 Aug","ufCrm9Mid":2101580711,"ufCrm9Dba":"POPLAR WINES AND SPIRITS","ufCrm9SalesVolume":17.2,"ufCrm9SalesTrxn":2,"ufCrm9EarningsLocalCurrency":0,"ufCrm9CommissionAmount":0,"assignedById":17},{"id":2387,"ufCrm9StatementMonth":"202408 Aug","ufCrm9Mid":2101580711,"ufCrm9Dba":"POPLAR WINES AND SPIRITS","ufCrm9SalesVolume":42.74,"ufCrm9SalesTrxn":8,"ufCrm9EarningsLocalCurrency":0,"ufCrm9CommissionAmount":0,"assignedById":17},{"id":2389,"ufCrm9StatementMonth":"202408 Aug","ufCrm9Mid":2101580711,"ufCrm9Dba":"POPLAR WINES AND SPIRITS","ufCrm9SalesVolume":56.7,"ufCrm9SalesTrxn":4,"ufCrm9EarningsLocalCurrency":0,"ufCrm9CommissionAmount":0,"assignedById":17},{"id":2391,"ufCrm9StatementMonth":"202408 Aug","ufCrm9Mid":2101580711,"ufCrm9Dba":"POPLAR WINES AND SPIRITS","ufCrm9SalesVolume":767.4,"ufCrm9SalesTrxn":100,"ufCrm9EarningsLocalCurrency":1,"ufCrm9CommissionAmount":1,"assignedById":17},{"id":2393,"ufCrm9StatementMonth":"202408 Aug","ufCrm9Mid":2101580711,"ufCrm9Dba":"POPLAR WINES AND SPIRITS","ufCrm9SalesVolume":508.46,"ufCrm9SalesTrxn":68,"ufCrm9EarningsLocalCurrency":1,"ufCrm9CommissionAmount":1,"assignedById":17},{"id":2395,"ufCrm9StatementMonth":"202408 Aug","ufCrm9Mid":2101580711,"ufCrm9Dba":"POPLAR WINES AND SPIRITS","ufCrm9SalesVolume":0,"ufCrm9SalesTrxn":4,"ufCrm9EarningsLocalCurrency":0,"ufCrm9CommissionAmount":0,"assignedById":17},{"id":2397,"ufCrm9StatementMonth":"202408 Aug","ufCrm9Mid":2101580711,"ufCrm9Dba":"POPLAR WINES AND SPIRITS","ufCrm9SalesVolume":0,"ufCrm9SalesTrxn":28,"ufCrm9EarningsLocalCurrency":1,"ufCrm9CommissionAmount":1,"assignedById":17},{"id":2399,"ufCrm9StatementMonth":"202408 Aug","ufCrm9Mid":2101580711,"ufCrm9Dba":"POPLAR WINES AND SPIRITS","ufCrm9SalesVolume":0,"ufCrm9SalesTrxn":53,"ufCrm9EarningsLocalCurrency":1,"ufCrm9CommissionAmount":1,"assignedById":17},{"id":2401,"ufCrm9StatementMonth":"202408 Aug","ufCrm9Mid":2101580711,"ufCrm9Dba":"POPLAR WINES AND SPIRITS","ufCrm9SalesVolume":0,"ufCrm9SalesTrxn":2,"ufCrm9EarningsLocalCurrency":0,"ufCrm9CommissionAmount":0,"assignedById":17},{"id":2403,"ufCrm9StatementMonth":"202408 Aug","ufCrm9Mid":2101590074,"ufCrm9Dba":"BIKERS WEAR","ufCrm9SalesVolume":395,"ufCrm9SalesTrxn":2,"ufCrm9EarningsLocalCurrency":1,"ufCrm9CommissionAmount":1,"assignedById":17}]},"next":100,"total":16162,"time":{"start":1733250694.540653,"finish":1733250694.826003,"duration":0.28535008430480957,"processing":0.2686119079589844,"date_start":"2024-12-03T21:31:34+03:00","date_finish":"2024-12-03T21:31:34+03:00","operating_reset_at":1733251294,"operating":7.378571271896362}}}